{
  "openapi": "3.0.0",
  "servers": [
    {
      "url": "https://rest-api.united-telecom.be/v10106/partners/yonders"
    }
  ],
  "info": {
    "title": "rest-api.united-telecom.be",
    "version": "1.0"
  },
  "paths": {
    "/Bundles": {
      "get": {
        "operationId": "Bundles",
        "summary": "Get Available Bundles",
        "description": "Returns JSON",
        "parameters": [
          {
            "in": "header",
            "description": "your username",
            "name": "X-USERNAME",
            "required": true,
            "schema": {
              "type": "string"
            }
          },
          {
            "in": "header",
            "description": "your password",
            "name": "X-PASSWORD",
            "required": true,
            "schema": {
              "type": "string"
            }
          }
        ],
        "responses": {
          "200": {
            "description": "Description was not specified"
          },
          "400": {
            "description": "Bad Request"
          },
          "401": {
            "description": "Unauthorized Access"
          },
          "404": {
            "description": "Not found"
          }
        }
      }
    },
        "/Languages": {
      "get": {
        "operationId": "Languages",
        "summary": "Get Available Languages",
        "description": "Returns JSON",
        "parameters": [
          {
            "in": "header",
            "description": "your username",
            "name": "X-USERNAME",
            "required": true,
            "schema": {
              "type": "string"
            }
          },
          {
            "in": "header",
            "description": "your password",
            "name": "X-PASSWORD",
            "required": true,
            "schema": {
              "type": "string"
            }
          }
        ],
        "responses": {
          "200": {
            "description": "Description was not specified"
          },
          "400": {
            "description": "Bad Request"
          },
          "401": {
            "description": "Unauthorized Access"
          },
          "404": {
            "description": "Not found"
          }
        }
      }
    }
  }
}
