{
    "swagger": "2.0",
    "info": {
        "title": "European Portal Restful API",
        "version": "3.0",
        "description": "European Portal API"
    },
    "host": "bliep.portal.pareteum.cloud",
    "basePath": "/api/v3/crm",
    "schemes": [
        "https"
    ],
    "paths": {
        "/Auth": {
            "post": {
                "tags": [
                    "Auth"
                ],
                "produces": [
                    "application/json"
                ],
                "parameters": [
                    {
                        "description": "Token generated from Portal",
                        "in": "header",
                        "name": "X-API-KEY",
                        "required": true,
                        "type": "string"
                    },
                    {
                        "in": "body",
                        "name": "body",
                        "description": "Client object data",
                        "required": true,
                        "schema": {
                            "$ref": "#/definitions/Auth"
                        }
                    }
                ],
                "responses": {
                    "200": {
                        "description": "Response OK with json with clientid"
                    },
                    "400": {
                        "description": "Bad Request"
                    },
                    "401": {
                        "description": "Unauthorized Access"
                    },
                    "404": {
                        "description": "Not found"
                    }
                },
                "description": "Returns JSON",
                "operationId": "Auth",
                "summary": "Authenticate client to the european portal"
            }
        },
        "/Auth/ResetPassword": {
            "post": {
                "tags": [
                    "Auth"
                ],
                "produces": [
                    "application/json"
                ],
                "parameters": [
                    {
                        "description": "Token generated from Portal",
                        "in": "header",
                        "name": "X-API-KEY",
                        "required": true,
                        "type": "string"
                    },
                    {
                        "in": "body",
                        "name": "body",
                        "description": "Email object data",
                        "required": true,
                        "schema": {
                            "$ref": "#/definitions/ResetPassword"
                        }
                    }
                ],
                "responses": {
                    "200": {
                        "description": "Response OK with json with clientid"
                    },
                    "400": {
                        "description": "Bad Request"
                    },
                    "401": {
                        "description": "Unauthorized Access"
                    },
                    "404": {
                        "description": "Not found"
                    }
                },
                "description": "Returns JSON",
                "operationId": "ResetPassword",
                "summary": "Reset Password of the client, client will received link to reset via web browser"
            }
        },
        "/Service/{id}/UpgradeDowngrade": {
            "post": {
                "tags": [
                    "Services"
                ],
                "produces": [
                    "application/json"
                ],
                "parameters": [
                    {
                        "description": "Token generated from Portal",
                        "in": "header",
                        "name": "X-API-KEY",
                        "required": true,
                        "type": "string"
                    },
                    {
                        "in": "path",
                        "name": "id",
                        "description": "Serviceid of the subscription",
                        "required": true,
                        "type": "integer"
                    },
                    {
                        "in": "body",
                        "name": "body",
                        "description": "Order object data",
                        "required": true,
                        "schema": {
                            "$ref": "#/definitions/ChangeSubscription"
                        }
                    }
                ],
                "responses": {
                    "200": {
                        "description": "Response OK with json with clientid"
                    },
                    "400": {
                        "description": "Bad Request"
                    },
                    "401": {
                        "description": "Unauthorized Access"
                    },
                    "404": {
                        "description": "Not found"
                    }
                },
                "description": "Returns JSON",
                "operationId": "ChangeSubscription",
                "summary": "Request Change Subscription which started on the first date of the next month"
            }
        },
        "/Service/{Id}/Parameters": {
            "patch": {
                "tags": [
                    "Services"
                ],
                "produces": [
                    "application/json"
                ],
                "parameters": [
                    {
                        "description": "Token generated from Portal",
                        "in": "header",
                        "name": "X-API-KEY",
                        "required": true,
                        "type": "string"
                    },
                    {
                        "in": "path",
                        "name": "Id",
                        "description": "ServiceId of subscription",
                        "required": true,
                        "type": "integer"
                    },
                    {
                        "in": "body",
                        "name": "body",
                        "description": "Order object data",
                        "required": true,
                        "schema": {
                            "$ref": "#/definitions/ServiceParameters"
                        }
                    }
                ],
                "responses": {
                    "200": {
                        "description": "Response OK with json"
                    },
                    "400": {
                        "description": "Bad Request"
                    },
                    "401": {
                        "description": "Unauthorized Access"
                    },
                    "404": {
                        "description": "Not found"
                    }
                },
                "description": "Returns JSON",
                "operationId": "ChangeServiceParameters",
                "summary": "Modify MSISDN Features such as voice,data,sms"
            }
        },
        "/Customer": {
            "put": {
                "tags": [
                    "Customer"
                ],
                "produces": [
                    "application/json"
                ],
                "parameters": [
                    {
                        "description": "Token generated from Portal",
                        "in": "header",
                        "name": "X-API-KEY",
                        "required": true,
                        "type": "string"
                    },
                    {
                        "in": "body",
                        "name": "body",
                        "description": "Client object data",
                        "required": true,
                        "schema": {
                            "$ref": "#/definitions/Client"
                        }
                    }
                ],
                "responses": {
                    "200": {
                        "description": "Response OK with json returned"
                    },
                    "400": {
                        "description": "Bad Request"
                    },
                    "401": {
                        "description": "Unauthorized Access"
                    },
                    "404": {
                        "description": "Not found"
                    }
                },
                "description": "Returns JSON",
                "operationId": "AddClient",
                "summary": "Register client in to the system"
            }
        },
        "/Customer/{Clientid}": {
            "patch": {
                "tags": [
                    "Customer"
                ],
                "produces": [
                    "application/json"
                ],
                "parameters": [
                    {
                        "description": "Token generated from Portal",
                        "in": "header",
                        "name": "X-API-KEY",
                        "required": true,
                        "type": "string"
                    },
                    {
                        "in": "path",
                        "name": "Clientid",
                        "description": "Clientid that need to be updated",
                        "required": true,
                        "type": "integer"
                    },
                    {
                        "in": "body",
                        "name": "body",
                        "description": "Client object data",
                        "required": true,
                        "schema": {
                            "$ref": "#/definitions/ClientUpdate"
                        }
                    }
                ],
                "responses": {
                    "200": {
                        "description": "Return json information"
                    },
                    "400": {
                        "description": "Bad Request"
                    },
                    "401": {
                        "description": "Unauthorized Access"
                    },
                    "404": {
                        "description": "Not found"
                    }
                },
                "description": "Returns JSON",
                "operationId": "UpdateClient",
                "summary": "Update client information"
            }
        },
        "/Order": {
            "put": {
                "tags": [
                    "Order"
                ],
                "produces": [
                    "application/json"
                ],
                "parameters": [
                    {
                        "description": "Token generated from Portal",
                        "in": "header",
                        "name": "X-API-KEY",
                        "required": true,
                        "type": "string"
                    },
                    {
                        "in": "body",
                        "name": "body",
                        "description": "Order object data",
                        "required": true,
                        "schema": {
                            "$ref": "#/definitions/Order"
                        }
                    }
                ],
                "responses": {
                    "200": {
                        "description": "Response OK with json returned"
                    },
                    "400": {
                        "description": "Bad Request"
                    },
                    "401": {
                        "description": "Unauthorized Access"
                    },
                    "404": {
                        "description": "Not found"
                    }
                },
                "description": "Returns JSON",
                "operationId": "AddOrder",
                "summary": "Add order to a customer"
            }
        },
        "/Order/{orderid}": {
            "patch": {
                "tags": [
                    "Order"
                ],
                "produces": [
                    "application/json"
                ],
                "parameters": [
                    {
                        "description": "Token generated from Portal",
                        "in": "header",
                        "name": "X-API-KEY",
                        "required": true,
                        "type": "string"
                    },
                    {
                        "in": "path",
                        "name": "orderid",
                        "description": "Orderid or Serviceid that need to be updated",
                        "required": true,
                        "type": "integer"
                    },
                    {
                        "in": "body",
                        "name": "body",
                        "description": "Order object data",
                        "required": true,
                        "schema": {
                            "$ref": "#/definitions/UpdateOrder"
                        }
                    }
                ],
                "responses": {
                    "200": {
                        "description": "Response OK with json returned"
                    },
                    "400": {
                        "description": "Bad Request"
                    },
                    "401": {
                        "description": "Unauthorized Access"
                    },
                    "404": {
                        "description": "Not found"
                    }
                },
                "description": "Returns JSON",
                "operationId": "UpdateOrder",
                "summary": "Modify order which in Pending status"
            }
        },
        "/Warehouse/Addons": {
            "get": {
                "tags": [
                    "Warehouse"
                ],
                "produces": [
                    "application/json"
                ],
                "parameters": [
                    {
                        "description": "Token generated from Portal",
                        "in": "header",
                        "name": "X-API-KEY",
                        "required": true,
                        "type": "string"
                    }
                ],
                "responses": {
                    "200": {
                        "description": "return json with addons array and it informations"
                    },
                    "400": {
                        "description": "Bad Request"
                    },
                    "401": {
                        "description": "Unauthorized Access"
                    },
                    "404": {
                        "description": "Not found"
                    }
                },
                "description": "Returns JSON",
                "operationId": "GetAddons",
                "summary": "Get Available Addons for order"
            }
        },
        "/Warehouse/Promotions": {
            "get": {
                "tags": [
                    "Warehouse"
                ],
                "produces": [
                    "application/json"
                ],
                "parameters": [
                    {
                        "description": "Token generated from Portal",
                        "in": "header",
                        "name": "X-API-KEY",
                        "required": true,
                        "type": "string"
                    }
                ],
                "responses": {
                    "200": {
                        "description": "return json with Promotions array and it informations"
                    },
                    "400": {
                        "description": "Bad Request"
                    },
                    "401": {
                        "description": "Unauthorized Access"
                    },
                    "404": {
                        "description": "Not found"
                    }
                },
                "description": "Returns JSON",
                "operationId": "GetPromotions",
                "summary": "Get Available Promotions for order"
            }
        },
        "/Staf": {
            "get": {
                "tags": [
                    "Staf"
                ],
                "produces": [
                    "application/json"
                ],
                "parameters": [
                    {
                        "description": "Token generated from Portal",
                        "in": "header",
                        "name": "X-API-KEY",
                        "required": true,
                        "type": "string"
                    }
                ],
                "responses": {
                    "200": {
                        "description": "return json with staf array and it informations"
                    },
                    "400": {
                        "description": "Bad Request"
                    },
                    "401": {
                        "description": "Unauthorized Access"
                    },
                    "404": {
                        "description": "Not found"
                    }
                },
                "description": "Returns JSON",
                "operationId": "getStaf",
                "summary": "Get Staf"
            }
        },
        "/Reseller": {
            "get": {
                "tags": [
                    "Reseller"
                ],
                "produces": [
                    "application/json"
                ],
                "parameters": [
                    {
                        "description": "Token generated from Portal",
                        "in": "header",
                        "name": "X-API-KEY",
                        "required": true,
                        "type": "string"
                    }
                ],
                "responses": {
                    "200": {
                        "description": "return json with agents array and it informations"
                    },
                    "400": {
                        "description": "Bad Request"
                    },
                    "401": {
                        "description": "Unauthorized Access"
                    },
                    "404": {
                        "description": "Not found"
                    }
                },
                "description": "Returns JSON",
                "operationId": "GetAgents",
                "summary": "Get Available Agents and their id"
            }
        },
        "/Reseller/{id}": {
            "get": {
                "tags": [
                    "Reseller"
                ],
                "produces": [
                    "application/json"
                ],
                "parameters": [
                    {
                        "description": "Token generated from Portal",
                        "in": "header",
                        "name": "X-API-KEY",
                        "required": true,
                        "type": "string"
                    },
                    {
                        "in": "path",
                        "name": "id",
                        "description": "id of the agent",
                        "required": true,
                        "type": "integer"
                    }
                ],
                "responses": {
                    "200": {
                        "description": "return json with agents array and it informations"
                    },
                    "400": {
                        "description": "Bad Request"
                    },
                    "401": {
                        "description": "Unauthorized Access"
                    },
                    "404": {
                        "description": "Not found"
                    }
                },
                "description": "Returns JSON",
                "operationId": "GetAgentId",
                "summary": "Get  Agent by their id"
            }
        },
        "/Service/{id}/Suspend": {
            "post": {
                "tags": [
                    "Services"
                ],
                "produces": [
                    "application/json"
                ],
                "parameters": [
                    {
                        "description": "Token generated from Portal",
                        "in": "header",
                        "name": "X-API-KEY",
                        "required": true,
                        "type": "string"
                    },
                    {
                        "in": "path",
                        "name": "id",
                        "description": "Serviceid of subscription",
                        "required": true,
                        "type": "integer"
                    },
                    {
                        "in": "body",
                        "name": "payload",
                        "description": "Reason of Suspend",
                        "required": true,
                        "schema": {
                            "$ref": "#/definitions/Reason"
                        }
                    }
                ],
                "responses": {
                    "200": {
                        "description": "return json with usage array"
                    },
                    "400": {
                        "description": "Bad Request"
                    },
                    "401": {
                        "description": "Unauthorized Access"
                    },
                    "404": {
                        "description": "Not found"
                    }
                },
                "description": "Returns JSON",
                "operationId": "Suspend",
                "summary": "Suspend A subscription"
            }
        },
        "/Service/{id}/Resume": {
            "post": {
                "tags": [
                    "Services"
                ],
                "produces": [
                    "application/json"
                ],
                "parameters": [
                    {
                        "description": "Token generated from Portal",
                        "in": "header",
                        "name": "X-API-KEY",
                        "required": true,
                        "type": "string"
                    },
                    {
                        "in": "path",
                        "name": "id",
                        "description": "Serviceid of subscription",
                        "required": true,
                        "type": "integer"
                    },
                    {
                        "in": "body",
                        "name": "payload",
                        "description": "Reason of Suspend",
                        "required": true,
                        "schema": {
                            "$ref": "#/definitions/Reason"
                        }
                    }
                ],
                "responses": {
                    "200": {
                        "description": "return json with usage array"
                    },
                    "400": {
                        "description": "Bad Request"
                    },
                    "401": {
                        "description": "Unauthorized Access"
                    },
                    "404": {
                        "description": "Not found"
                    }
                },
                "description": "Returns JSON",
                "operationId": "Resume",
                "summary": "Resume  A suspended subscription"
            }
        },
        "/Service/{id}/MobileUsage": {
            "get": {
                "tags": [
                    "Services"
                ],
                "produces": [
                    "application/json"
                ],
                "parameters": [
                    {
                        "description": "Token generated from Portal",
                        "in": "header",
                        "name": "X-API-KEY",
                        "required": true,
                        "type": "string"
                    },
                    {
                        "in": "path",
                        "name": "id",
                        "description": "Serviceid of subscription",
                        "required": true,
                        "type": "integer"
                    },
                    {
                        "in": "query",
                        "name": "start",
                        "description": "Start of Date YYYY-MM-DD",
                        "required": true,
                        "type": "string"
                    },
                    {
                        "in": "query",
                        "name": "end",
                        "description": "End of Date YYYY-MM-DD",
                        "required": true,
                        "type": "string"
                    }
                ],
                "responses": {
                    "200": {
                        "description": "return json with usage array"
                    },
                    "400": {
                        "description": "Bad Request"
                    },
                    "401": {
                        "description": "Unauthorized Access"
                    },
                    "404": {
                        "description": "Not found"
                    }
                },
                "description": "Returns JSON",
                "operationId": "MobileUsage",
                "summary": "Get Usage of the subscription"
            }
        },
        "/Customer/{clientid}": {
            "get": {
                "tags": [
                    "Customer"
                ],
                "produces": [
                    "application/json"
                ],
                "parameters": [
                    {
                        "description": "Token generated from Portal",
                        "in": "header",
                        "name": "X-API-KEY",
                        "required": true,
                        "type": "string"
                    },
                    {
                        "in": "path",
                        "name": "clientid",
                        "description": "Clientid of customer",
                        "required": true,
                        "type": "integer"
                    }
                ],
                "responses": {
                    "200": {
                        "description": "return json with client information"
                    },
                    "400": {
                        "description": "Bad Request"
                    },
                    "401": {
                        "description": "Unauthorized Access"
                    },
                    "404": {
                        "description": "Not found"
                    }
                },
                "description": "Returns JSON",
                "operationId": "GetClient",
                "summary": "Get Client Information"
            }
        },
        "/Service/{id}": {
            "get": {
                "tags": [
                    "Services"
                ],
                "produces": [
                    "application/json"
                ],
                "parameters": [
                    {
                        "description": "Token generated from Portal",
                        "in": "header",
                        "name": "X-API-KEY",
                        "required": true,
                        "type": "string"
                    },
                    {
                        "in": "path",
                        "name": "id",
                        "description": "Clientid of customer",
                        "required": true,
                        "type": "integer"
                    }
                ],
                "responses": {
                    "200": {
                        "description": "return json with Subscription information"
                    },
                    "400": {
                        "description": "Bad Request"
                    },
                    "401": {
                        "description": "Unauthorized Access"
                    },
                    "404": {
                        "description": "Not found"
                    }
                },
                "description": "Returns JSON",
                "operationId": "GetService",
                "summary": "Get Subscription Information"
            }
        },
        "/Service/{id}/Parameters": {
            "get": {
                "tags": [
                    "Services"
                ],
                "produces": [
                    "application/json"
                ],
                "parameters": [
                    {
                        "description": "Token generated from Portal",
                        "in": "header",
                        "name": "X-API-KEY",
                        "required": true,
                        "type": "string"
                    },
                    {
                        "in": "path",
                        "name": "id",
                        "description": "ServiceId of Subscription",
                        "required": true,
                        "type": "integer"
                    }
                ],
                "responses": {
                    "200": {
                        "description": "return json with Subscription parameters Informations"
                    },
                    "400": {
                        "description": "Bad Request"
                    },
                    "401": {
                        "description": "Unauthorized Access"
                    },
                    "404": {
                        "description": "Not found"
                    }
                },
                "description": "Returns JSON",
                "operationId": "GetServiceParameters",
                "summary": "Get Get Service Parameters array"
            }
        },
        "/Customer/{clientid}/Services": {
            "post": {
                "tags": [
                    "Customer"
                ],
                "produces": [
                    "application/json"
                ],
                "parameters": [
                    {
                        "description": "Token generated from Portal",
                        "in": "header",
                        "name": "X-API-KEY",
                        "required": true,
                        "type": "string"
                    },
                    {
                        "in": "path",
                        "name": "clientid",
                        "description": "Clientid of Customer",
                        "required": true,
                        "type": "integer"
                    }
                ],
                "responses": {
                    "200": {
                        "description": "return json with client subscriptions array"
                    },
                    "400": {
                        "description": "Bad Request"
                    },
                    "401": {
                        "description": "Unauthorized Access"
                    },
                    "404": {
                        "description": "Not found"
                    }
                },
                "description": "Returns JSON",
                "operationId": "GetClientServices",
                "summary": "Get List of client subscriptions"
            }
        },
        "/Customer/{clientid}/Notes": {
            "get": {
                "tags": [
                    "Customer"
                ],
                "produces": [
                    "application/json"
                ],
                "parameters": [
                    {
                        "description": "Token generated from Portal",
                        "in": "header",
                        "name": "X-API-KEY",
                        "required": true,
                        "type": "string"
                    },
                    {
                        "in": "path",
                        "name": "clientid",
                        "description": "Clientid of Customer",
                        "required": true,
                        "type": "integer"
                    }
                ],
                "responses": {
                    "200": {
                        "description": "return json with client notes array"
                    },
                    "400": {
                        "description": "Bad Request"
                    },
                    "401": {
                        "description": "Unauthorized Access"
                    },
                    "404": {
                        "description": "Not found"
                    }
                },
                "description": "Returns JSON",
                "operationId": "GetClientNotes",
                "summary": "Get List of client notes"
            }
        },
        "/Customer/{clientid}/Invoices": {
            "post": {
                "tags": [
                    "Customer"
                ],
                "produces": [
                    "application/json"
                ],
                "parameters": [
                    {
                        "description": "Token generated from Portal",
                        "in": "header",
                        "name": "X-API-KEY",
                        "required": true,
                        "type": "string"
                    },
                    {
                        "in": "path",
                        "name": "clientid",
                        "description": "Clientid of Customer",
                        "required": true,
                        "type": "integer"
                    }
                ],
                "responses": {
                    "200": {
                        "description": "return json with client invoices array"
                    },
                    "400": {
                        "description": "Bad Request"
                    },
                    "401": {
                        "description": "Unauthorized Access"
                    },
                    "404": {
                        "description": "Not found"
                    }
                },
                "description": "Returns JSON",
                "operationId": "GetClientInvoices",
                "summary": "Get List of client invoices"
            }
        },
        "/Invoice/{invoiceid}": {
            "get": {
                "tags": [
                    "Invoice"
                ],
                "produces": [
                    "application/json"
                ],
                "parameters": [
                    {
                        "description": "Token generated from Portal",
                        "in": "header",
                        "name": "X-API-KEY",
                        "required": true,
                        "type": "string"
                    },
                    {
                        "in": "path",
                        "name": "invoiceid",
                        "description": "Invoiceid of Invoice",
                        "required": true,
                        "type": "string"
                    }
                ],
                "responses": {
                    "200": {
                        "description": "return Invoice informations and it items"
                    },
                    "400": {
                        "description": "Bad Request"
                    },
                    "401": {
                        "description": "Unauthorized Access"
                    },
                    "404": {
                        "description": "Not found"
                    }
                },
                "description": "Returns JSON",
                "operationId": "GetInvoice",
                "summary": "Get Invoice Details"
            }
        },
        "/Warehouse/Products": {
            "get": {
                "tags": [
                    "Warehouse"
                ],
                "produces": [
                    "application/json"
                ],
                "parameters": [
                    {
                        "description": "Token generated from Portal",
                        "in": "header",
                        "name": "X-API-KEY",
                        "required": true,
                        "type": "string"
                    }
                ],
                "responses": {
                    "200": {
                        "description": "return json with products array and it informations"
                    },
                    "400": {
                        "description": "Bad Request"
                    },
                    "401": {
                        "description": "Unauthorized Access"
                    },
                    "404": {
                        "description": "Not found"
                    }
                },
                "description": "Returns JSON",
                "operationId": "GetProducts",
                "summary": "Get Available Product for order"
            }
        },
        "/Tool/msisdn/{msisdn}": {
            "get": {
                "tags": [
                    "Tool"
                ],
                "produces": [
                    "application/json"
                ],
                "parameters": [
                    {
                        "description": "Token generated from Portal",
                        "in": "header",
                        "name": "X-API-KEY",
                        "required": true,
                        "type": "string"
                    },
                    {
                        "in": "path",
                        "name": "msisdn",
                        "description": "Msisdn object data",
                        "required": true,
                        "type": "string"
                    }
                ],
                "responses": {
                    "200": {
                        "description": "Return json object"
                    },
                    "400": {
                        "description": "Bad Request"
                    },
                    "401": {
                        "description": "Unauthorized Access"
                    },
                    "404": {
                        "description": "Not found"
                    }
                },
                "description": "Returns JSON",
                "operationId": "GetServiceByCli",
                "summary": "Get Serviceid and Clientid by Msisdn/CLI number"
            }
        },
        "/Service/{id}/Bundle": {
            "put": {
                "tags": [
                    "Services"
                ],
                "produces": [
                    "application/json"
                ],
                "parameters": [
                    {
                        "description": "Token generated from Portal",
                        "in": "header",
                        "name": "X-API-KEY",
                        "required": true,
                        "type": "string"
                    },
                    {
                        "in": "path",
                        "name": "id",
                        "description": "Serviceid of Subscription",
                        "required": true,
                        "type": "integer"
                    },
                    {
                        "in": "body",
                        "name": "payload",
                        "description": "Bundle order object data",
                        "required": true,
                        "schema": {
                            "$ref": "#/definitions/AddBundle"
                        }
                    }
                ],
                "responses": {
                    "200": {
                        "description": "Response OK with json returned"
                    },
                    "400": {
                        "description": "Bad Request"
                    },
                    "401": {
                        "description": "Unauthorized Access"
                    },
                    "404": {
                        "description": "Not found"
                    }
                },
                "description": "Returns JSON",
                "operationId": "AddBundle",
                "summary": "Add Bundle to a subcriptions"
            }
        },
        "/Service/{id}/Terminate": {
            "post": {
                "tags": [
                    "Services"
                ],
                "produces": [
                    "application/json"
                ],
                "parameters": [
                    {
                        "description": "Token generated from Portal",
                        "in": "header",
                        "name": "X-API-KEY",
                        "required": true,
                        "type": "string"
                    },
                    {
                        "in": "path",
                        "name": "id",
                        "description": "Serviceid of Subscription",
                        "required": true,
                        "type": "integer"
                    },
                    {
                        "in": "body",
                        "name": "payload",
                        "description": "Bundle order object data",
                        "required": true,
                        "schema": {
                            "$ref": "#/definitions/Termination"
                        }
                    }
                ],
                "responses": {
                    "200": {
                        "description": "Response OK with json returned"
                    },
                    "400": {
                        "description": "Bad Request"
                    },
                    "401": {
                        "description": "Unauthorized Access"
                    },
                    "404": {
                        "description": "Not found"
                    }
                },
                "description": "Returns JSON",
                "operationId": "Terminate",
                "summary": "Terminate a subcription"
            }
        },
        "/Service/{Id}/Bundle": {
            "get": {
                "tags": [
                    "Services"
                ],
                "produces": [
                    "application/json"
                ],
                "parameters": [
                    {
                        "description": "Token generated from Portal",
                        "in": "header",
                        "name": "X-API-KEY",
                        "required": true,
                        "type": "string"
                    },
                    {
                        "in": "path",
                        "name": "Id",
                        "description": "Serviceid of Subscription",
                        "required": true,
                        "type": "integer"
                    }
                ],
                "responses": {
                    "200": {
                        "description": "Response OK with json returned"
                    },
                    "400": {
                        "description": "Bad Request"
                    },
                    "401": {
                        "description": "Unauthorized Access"
                    },
                    "404": {
                        "description": "Not found"
                    }
                },
                "description": "Returns JSON",
                "operationId": "GetBundle",
                "summary": "Get Bundle of a subcriptions"
            }
        }
    },
    "definitions": {
        "Serviceid": {
            "required": [
                "serviceid"
            ],
            "properties": {
                "serviceid": {
                    "type": "integer",
                    "format": "int32",
                    "description": "Serviceid ID of the subscriptions"
                }
            }
        },
        "CDR": {
            "required": [
                "start",
                "end"
            ],
            "properties": {
                "start": {
                    "type": "string",
                    "format": "full-date",
                    "description": "Start date YYYY-MM-DD",
                    "example": "2019-06-01"
                },
                "end": {
                    "type": "string",
                    "format": "full-date",
                    "description": "End Date YYYY-MM-DD",
                    "example": "2019-09-20"
                }
            }
        },
        "Clientid": {
            "required": [
                "clientid"
            ],
            "properties": {
                "clientid": {
                    "type": "integer",
                    "format": "int32",
                    "example": 946413,
                    "description": "Clientid of the customer"
                }
            }
        },
        "Bundle": {
            "required": [
                "clientid",
                "bundleid"
            ],
            "properties": {
                "serviceid": {
                    "type": "integer",
                    "format": "int32",
                    "example": 946413,
                    "description": "Service ID of the subscription"
                },
                "bundleid": {
                    "type": "integer",
                    "format": "int32",
                    "example": 12,
                    "description": "Bundle id of /GetAddons"
                }
            }
        },
        "AddBundle": {
            "required": [
                "addonid",
                "month"
            ],
            "properties": {
                "addonid": {
                    "type": "integer",
                    "format": "int32",
                    "example": 12,
                    "description": "Bundle/Addon id of /GetAddons"
                },
                "month": {
                    "type": "integer",
                    "example": "1",
                    "description": "Month auto renew if once enter 1",
                    "enum": [
                        "1",
                        "3",
                        "6",
                        "12",
                        "24"
                    ]
                }
            }
        },
        "Reload": {
            "required": [
                "serviceid",
                "amount"
            ],
            "properties": {
                "serviceid": {
                    "type": "integer",
                    "format": "int32",
                    "example": 946413,
                    "description": "Service ID of the subscription"
                },
                "amount": {
                    "type": "number",
                    "format": "float",
                    "example": "12.00",
                    "description": "Amount to load depend on the company currency"
                }
            }
        },
        "RenewAddon": {
            "required": [
                "serviceid",
                "bundleid",
                "month"
            ],
            "properties": {
                "serviceid": {
                    "type": "integer",
                    "format": "int32",
                    "example": 946413,
                    "description": "Service ID of the subscription"
                },
                "bundleid": {
                    "type": "integer",
                    "format": "int32",
                    "example": "12702",
                    "description": "Id of the bundle which can be retreived using /GetService of a subscription"
                },
                "month": {
                    "type": "integer",
                    "format": "int32",
                    "example": "1",
                    "description": "How many month the bundle will be auto renewed possible value 1, 3, 6, 12, 24"
                }
            }
        },
        "Invoiceid": {
            "required": [
                "invoiceid"
            ],
            "properties": {
                "invoiceid": {
                    "type": "integer",
                    "format": "int64",
                    "description": "Invoice Number"
                }
            }
        },
        "Auth": {
            "required": [
                "email",
                "password"
            ],
            "properties": {
                "email": {
                    "type": "string",
                    "example": "email@pareteum.cloud",
                    "description": "Email Address of the customer"
                },
                "password": {
                    "type": "string",
                    "example": "Password",
                    "description": "Password of the customer"
                }
            }
        },
        "ResetPassword": {
            "required": [
                "email"
            ],
            "properties": {
                "email": {
                    "type": "string",
                    "example": "email@pareteum.cloud",
                    "description": "Email Address of the customer that need to be reset"
                }
            }
        },
        "ChangeSubscription": {
            "required": [
                "new_pid"
            ],
            "properties": {
                "new_pid": {
                    "type": "integer",
                    "example": "123",
                    "description": "Product Id of the product list /GetProducts"
                }
            }
        },
        "ServiceParameters": {
            "required": [
                "parameterid",
                "value"
            ],
            "properties": {
                "parameterid": {
                    "type": "integer",
                    "example": "123",
                    "description": "Parameter Id can be retreived on /Service/{id}/Parameters"
                },
                "value": {
                    "type": "integer",
                    "example": "1",
                    "description": "1= Activate, 0 = Deactivate"
                }
            }
        },
        "Msisdn": {
            "required": [
                "msisdn"
            ],
            "properties": {
                "msisdn": {
                    "type": "integer",
                    "format": "int64",
                    "description": "Msisdn Number including country code"
                }
            }
        },
        "Reason": {
            "required": [
                "reason"
            ],
            "properties": {
                "reason": {
                    "type": "string",
                    "description": "Reason, Comments of action"
                }
            }
        },
        "Termination": {
            "required": [
                "reason",
                "adminid",
                "date_termination"
            ],
            "properties": {
                "reason": {
                    "type": "string",
                    "description": "Reason of Termination",
                    "example": "No Payment"
                },
                "date_termination": {
                    "type": "string",
                    "description": "Date Of Termination YYYY-MM-DD",
                    "example": "2019-12-31"
                },
                "adminid": {
                    "type": "integer",
                    "description": "Id of the staf who execute this request, get the id from /Staf",
                    "example": "1"
                }
            }
        },
        "Client": {
            "required": [
                "firstname",
                "lastname",
                "address1",
                "housenumber",
                "postcode",
                "city",
                "country",
                "language",
                "password2",
                "phonenumber",
                "email",
                "paymentmethod",
                "agentid",
                "id_type",
                "idcard_number"
            ],
            "properties": {
                "firstname": {
                    "type": "string",
                    "description": "Firstname"
                },
                "lastname": {
                    "type": "string",
                    "description": "Lastname"
                },
                "agentid": {
                    "type": "integer",
                    "format": "int64",
                    "description": "Agent id can be retrived by getAgents "
                },
                "email": {
                    "type": "string",
                    "description": "Email address for login"
                },
                "password2": {
                    "type": "string",
                    "description": "Password for selfcare"
                },
                "address1": {
                    "type": "string",
                    "description": "Streetname"
                },
                "housenumber": {
                    "type": "string",
                    "description": "Housenumber"
                },
                "alphabet": {
                    "type": "string",
                    "description": "Alphabet"
                },
                "postcode": {
                    "type": "string",
                    "description": "Zipcode"
                },
                "city": {
                    "type": "string",
                    "description": "City"
                },
                "country": {
                    "type": "string",
                    "description": "iso2Code country of resident",
                    "example": "BE"
                },
                "language": {
                    "type": "string",
                    "description": "Language interfaces for customer",
                    "example": "english",
                    "enum": [
                        "english",
                        "dutch",
                        "french",
                        "german",
                        "spanish"
                    ]
                },
                "paymentmethod": {
                    "type": "string",
                    "example": "banktransfer",
                    "description": "Payment method"
                },
                "idcard_number": {
                    "type": "string",
                    "description": "Firstname",
                    "example": "0243534566924"
                },
                "id_type": {
                    "type": "string",
                    "example": "Passport",
                    "description": "Identity Type",
                    "enum": [
                        "ID",
                        "Passport",
                        "DrivingLicence",
                        "DNI",
                        "NIF",
                        "NIE",
                        "CIF",
                        "Visa"
                    ]
                },
                "phonenumber": {
                    "type": "string",
                    "example": "023445234435"
                },
                "companyname": {
                    "type": "string"
                },
                "vat": {
                    "type": "string"
                },
                "initial": {
                    "type": "string",
                    "example": "A.J"
                },
                "salutation": {
                    "type": "string",
                    "example": "Mr."
                },
                "date_birth": {
                    "type": "string",
                    "example": "2000-01-01"
                },
                "iban": {
                    "type": "string"
                }
            },
            "xml": {
                "name": "User"
            }
        },
        "ClientUpdate": {
            "properties": {
                "firstname": {
                    "type": "string",
                    "description": "Firstname"
                },
                "lastname": {
                    "type": "string",
                    "description": "Lastname"
                },
                "agentid": {
                    "type": "integer",
                    "format": "int64",
                    "description": "Agent id can be retrived by getAgents "
                },
                "email": {
                    "type": "string",
                    "description": "Email address for login"
                },
                "password2": {
                    "type": "string",
                    "description": "Password for selfcare"
                },
                "address1": {
                    "type": "string",
                    "description": "Streetname"
                },
                "housenumber": {
                    "type": "string",
                    "description": "Housenumber"
                },
                "alphabet": {
                    "type": "string",
                    "description": "Alphabet"
                },
                "postcode": {
                    "type": "string",
                    "description": "Zipcode"
                },
                "city": {
                    "type": "string",
                    "description": "City"
                },
                "country": {
                    "type": "string",
                    "description": "iso2Code country of resident",
                    "example": "BE"
                },
                "language": {
                    "type": "string",
                    "description": "Language interfaces for customer",
                    "example": "english",
                    "enum": [
                        "english",
                        "dutch",
                        "french",
                        "german",
                        "spanish"
                    ]
                },
                "paymentmethod": {
                    "type": "string",
                    "example": "banktransfer",
                    "description": "Payment method"
                },
                "idcard_number": {
                    "type": "string",
                    "description": "Firstname"
                },
                "id_type": {
                    "type": "string",
                    "example": "Passport",
                    "description": "Identity Type",
                    "enum": [
                        "ID",
                        "Passport",
                        "DrivingLicence",
                        "DNI",
                        "NIF",
                        "NIE",
                        "CIF",
                        "Visa"
                    ]
                },
                "phonenumber": {
                    "type": "string"
                },
                "companyname": {
                    "type": "string"
                },
                "vat": {
                    "type": "string"
                },
                "initial": {
                    "type": "string"
                },
                "salutation": {
                    "type": "string"
                },
                "date_birth": {
                    "type": "string"
                },
                "iban": {
                    "type": "string"
                }
            },
            "xml": {
                "name": "User"
            }
        },
        "Category": {
            "properties": {
                "id": {
                    "type": "integer",
                    "format": "int64"
                },
                "name": {
                    "type": "string"
                }
            },
            "xml": {
                "name": "Category"
            }
        },
        "Tag": {
            "properties": {
                "id": {
                    "type": "integer",
                    "format": "int64"
                },
                "name": {
                    "type": "string"
                }
            },
            "xml": {
                "name": "Tag"
            }
        },
        "Order": {
            "required": [
                "clientid",
                "brand",
                "pid",
                "porting",
                "activate"
            ],
            "properties": {
                "clientid": {
                    "type": "integer",
                    "format": "int32",
                    "description": "Clientid of the customer which order need to be assigned"
                },
                "brand": {
                    "type": "integer",
                    "format": "int32",
                    "example": "1",
                    "description": "Branding company, leave it 1 for non applicable company"
                },
                "pid": {
                    "type": "integer",
                    "format": "int32",
                    "description": "Product id which can be retrieved on /GetProducts"
                },
                "porting": {
                    "type": "boolean",
                    "example": "0",
                    "description": "1 = portability then you need to provide porting_msisdn and porting_accountnumber for UK based MVNO, may vary on different countries"
                },
                "activate": {
                    "type": "boolean",
                    "example": "0",
                    "description": "If this is 1 then msisdn field is mandatory for auto provisoning"
                },
                "msisdn": {
                    "type": "string",
                    "description": "Msisdn Number that the order need to be activated, Mandatory when activate=1"
                },
                "simcard": {
                    "type": "string",
                    "description": "Your Simcard Number that the order need to be activated,  Mandatory when activate=1"
                },
                "promocode": {
                    "type": "string",
                    "description": "Promotional code if any"
                },
                "addons": {
                    "type": "integer",
                    "format": "int32",
                    "description": "Add 1 of list addons from /getAddons"
                },
                "porting_msisdn": {
                    "type": "string",
                    "example": "3248394869696",
                    "description": "CLI that need to be ported in,  Mandatory when porting=1"
                },
                "porting_accountnumber": {
                    "type": "string",
                    "description": "PAC Number that should be provided by the current provider in order to be able to portout"
                }
            },
            "xml": {
                "name": "Order"
            }
        },
        "UpdateOrder": {
            "properties": {
                "pid": {
                    "type": "integer",
                    "format": "int32",
                    "description": "Product id which will replace the current product"
                },
                "startdate": {
                    "type": "string",
                    "example": "01-01-2020",
                    "description": "Change contract start date MM-DD-YYYY"
                },
                "reject": {
                    "type": "boolean",
                    "example": false,
                    "description": "put 1 if you wish to reject the order, it will be disappear from the dashboard page"
                },
                "promotion_code": {
                    "type": "string",
                    "example": "DISC50",
                    "description": "New Code Promotion, it will replace current promotion code"
                }
            },
            "xml": {
                "name": "Order"
            }
        }
    }
}