{
   "swagger": "2.0",
   "info": {
      "title": "European Portal Restful API",
      "version": "2.0",
      "description": "European Portal API"
   },
   "host": "things.portal.pareteum.cloud",
   "basePath": "/api/v2/crm",
   "schemes": [
      "https"
   ],
   "paths": {
      "/Auth": {
         "post": {
            "tags": [
               "Auth"
            ],
            "produces": [
               "application/json"
            ],
            "parameters": [
               {
                  "description": "Token generated from Portal",
                  "in": "header",
                  "name": "X-API-KEY",
                  "required": true,
                  "type": "string"
               },
               {
                  "in": "body",
                  "name": "body",
                  "description": "Client object data",
                  "required": true,
                  "schema": {
                     "$ref": "#/definitions/Auth"
                  }
               }
            ],
            "responses": {
               "200": {
                  "description": "Response OK with json with clientid"
               },
               "400": {
                  "description": "Bad Request"
               },
               "401": {
                  "description": "Unauthorized Access"
               },
               "404": {
                  "description": "Not found"
               }
            },
            "description": "Returns JSON",
            "operationId": "Auth",
            "summary": "Authenticate Client level accounts"
         }
      },
      "/AddClient": {
         "post": {
            "tags": [
               "Customer"
            ],
            "produces": [
               "application/json"
            ],
            "parameters": [
               {
                  "description": "Token generated from Portal",
                  "in": "header",
                  "name": "X-API-KEY",
                  "required": true,
                  "type": "string"
               },
               {
                  "in": "body",
                  "name": "body",
                  "description": "Client object data",
                  "required": true,
                  "schema": {
                     "$ref": "#/definitions/Client"
                  }
               }
            ],
            "responses": {
               "200": {
                  "description": "Response OK"
               },
               "400": {
                  "description": "Bad Request"
               },
               "401": {
                  "description": "Unauthorized Access"
               },
               "404": {
                  "description": "Not found"
               }
            },
            "description": "Returns JSON",
            "operationId": "CRM1",
            "summary": "Register client in to the system"
         }
      },
      "/UpdateClient": {
         "post": {
            "tags": [
               "Customer"
            ],
            "produces": [
               "application/json"
            ],
            "parameters": [
               {
                  "description": "Token generated from Portal",
                  "in": "header",
                  "name": "X-API-KEY",
                  "required": true,
                  "type": "string"
               },
               {
                  "in": "body",
                  "name": "body",
                  "description": "Client object data",
                  "required": true,
                  "schema": {
                     "$ref": "#/definitions/ClientUpdate"
                  }
               }
            ],
            "responses": {
               "200": {
                  "description": "Return json information"
               },
               "400": {
                  "description": "Bad Request"
               },
               "401": {
                  "description": "Unauthorized Access"
               },
               "404": {
                  "description": "Not found"
               }
            },
            "description": "Returns JSON",
            "operationId": "CRM2",
            "summary": "Update client information"
         }
      },
      "/AddOrder": {
         "post": {
            "tags": [
               "Order"
            ],
            "produces": [
               "application/json"
            ],
            "parameters": [
               {
                  "description": "Token generated from Portal",
                  "in": "header",
                  "name": "X-API-KEY",
                  "required": true,
                  "type": "string"
               },
               {
                  "in": "body",
                  "name": "body",
                  "description": "Order object data",
                  "required": true,
                  "schema": {
                     "$ref": "#/definitions/Order"
                  }
               }
            ],
            "responses": {
               "200": {
                  "description": "Response OK with json returned"
               },
               "400": {
                  "description": "Bad Request"
               },
               "401": {
                  "description": "Unauthorized Access"
               },
               "404": {
                  "description": "Not found"
               }
            },
            "description": "Returns JSON",
            "operationId": "CRM3",
            "summary": "Add order to a customer"
         }
      },
      "/GetAddons": {
         "get": {
            "tags": [
               "Services"
            ],
            "produces": [
               "application/json"
            ],
            "parameters": [
               {
                  "description": "Token generated from Portal",
                  "in": "header",
                  "name": "X-API-KEY",
                  "required": true,
                  "type": "string"
               }
            ],
            "responses": {
               "200": {
                  "description": "return json with addons array and it informations"
               },
               "400": {
                  "description": "Bad Request"
               },
               "401": {
                  "description": "Unauthorized Access"
               },
               "404": {
                  "description": "Not found"
               }
            },
            "description": "Returns JSON",
            "operationId": "CRM4",
            "summary": "Get Available Addons for order"
         }
      },
      "/EnableAutoRenewal": {
         "post": {
            "tags": [
               "Services"
            ],
            "produces": [
               "application/json"
            ],
            "parameters": [
               {
                  "description": "Token generated from Portal",
                  "in": "header",
                  "name": "X-API-KEY",
                  "required": true,
                  "type": "string"
               },
               {
                  "in": "body",
                  "name": "payload",
                  "description": "Object of the services need to be auto renew",
                  "required": true,
                  "schema": {
                     "$ref": "#/definitions/RenewAddon"
                  }
               }
            ],
            "responses": {
               "200": {
                  "description": "Request Ok with json returned"
               },
               "400": {
                  "description": "Bad Request"
               },
               "401": {
                  "description": "Unauthorized Access"
               },
               "404": {
                  "description": "Not found"
               }
            },
            "description": "Returns JSON",
            "operationId": "CRM5",
            "summary": "Enable Auto Renewal for existing addon"
         }
      },
      "/GetAgents": {
         "get": {
            "tags": [
               "Reseller"
            ],
            "produces": [
               "application/json"
            ],
            "parameters": [
               {
                  "description": "Token generated from Portal",
                  "in": "header",
                  "name": "X-API-KEY",
                  "required": true,
                  "type": "string"
               }
            ],
            "responses": {
               "200": {
                  "description": "return json with agents array and it informations"
               },
               "400": {
                  "description": "Bad Request"
               },
               "401": {
                  "description": "Unauthorized Access"
               },
               "404": {
                  "description": "Not found"
               }
            },
            "description": "Returns JSON",
            "operationId": "CRM6",
            "summary": "Get Available Agents and their id"
         }
      },
      "/Suspend": {
         "post": {
            "tags": [
               "Services"
            ],
            "produces": [
               "application/json"
            ],
            "parameters": [
               {
                  "description": "Token generated from Portal",
                  "in": "header",
                  "name": "X-API-KEY",
                  "required": true,
                  "type": "string"
               },
               {
                  "in": "body",
                  "name": "payload",
                  "description": "Serviceid of subscription",
                  "required": true,
                  "schema": {
                     "$ref": "#/definitions/Serviceid"
                  }
               }
            ],
            "responses": {
               "200": {
                  "description": "return json with usage array"
               },
               "400": {
                  "description": "Bad Request"
               },
               "401": {
                  "description": "Unauthorized Access"
               },
               "404": {
                  "description": "Not found"
               }
            },
            "description": "Returns JSON",
            "operationId": "CRM7",
            "summary": "Suspend A subscription"
         }
      },
      "/Resume": {
         "post": {
            "tags": [
               "Services"
            ],
            "produces": [
               "application/json"
            ],
            "parameters": [
               {
                  "description": "Token generated from Portal",
                  "in": "header",
                  "name": "X-API-KEY",
                  "required": true,
                  "type": "string"
               },
               {
                  "in": "body",
                  "name": "payload",
                  "description": "Serviceid of subscription",
                  "required": true,
                  "schema": {
                     "$ref": "#/definitions/Serviceid"
                  }
               }
            ],
            "responses": {
               "200": {
                  "description": "return json with usage array"
               },
               "400": {
                  "description": "Bad Request"
               },
               "401": {
                  "description": "Unauthorized Access"
               },
               "404": {
                  "description": "Not found"
               }
            },
            "description": "Returns JSON",
            "operationId": "CRM8",
            "summary": "Resume  A suspended subscription"
         }
      },
      "/InsertMsisdn": {
         "post": {
            "tags": [
               "Warehouse"
            ],
            "produces": [
               "application/json"
            ],
            "parameters": [
               {
                  "description": "Token generated from Portal",
                  "in": "header",
                  "name": "X-API-KEY",
                  "required": true,
                  "type": "string"
               },
               {
                  "in": "body",
                  "name": "payload",
                  "description": "MSISDN and Agent object",
                  "required": true,
                  "schema": {
                     "$ref": "#/definitions/InsertMsisdn"
                  }
               }
            ],
            "responses": {
               "200": {
                  "description": "return json with usage array"
               },
               "400": {
                  "description": "Bad Request"
               },
               "401": {
                  "description": "Unauthorized Access"
               },
               "404": {
                  "description": "Not found"
               }
            },
            "description": "Returns JSON",
            "operationId": "CRM9",
            "summary": "InsertMsisdn to portal and assign to a customer"
         }
      },
      "/AssignFreeMsisdntoAgent": {
         "post": {
            "tags": [
               "Warehouse"
            ],
            "produces": [
               "application/json"
            ],
            "parameters": [
               {
                  "description": "Token generated from Portal",
                  "in": "header",
                  "name": "X-API-KEY",
                  "required": true,
                  "type": "string"
               },
               {
                  "in": "body",
                  "name": "payload",
                  "description": "MSISDN and Agent object",
                  "required": true,
                  "schema": {
                     "$ref": "#/definitions/MsisdnAssignment"
                  }
               }
            ],
            "responses": {
               "200": {
                  "description": "return json with usage array"
               },
               "400": {
                  "description": "Bad Request"
               },
               "401": {
                  "description": "Unauthorized Access"
               },
               "404": {
                  "description": "Not found"
               }
            },
            "description": "Returns JSON",
            "operationId": "CRM10",
            "summary": "Reassign a free simcard to another reseller/agent"
         }
      },
      "/GetCdr": {
         "post": {
            "tags": [
               "Services"
            ],
            "produces": [
               "application/json"
            ],
            "parameters": [
               {
                  "description": "Token generated from Portal",
                  "in": "header",
                  "name": "X-API-KEY",
                  "required": true,
                  "type": "string"
               },
               {
                  "in": "body",
                  "name": "payload",
                  "description": "Serviceid of subscription",
                  "required": true,
                  "schema": {
                     "$ref": "#/definitions/CDR"
                  }
               }
            ],
            "responses": {
               "200": {
                  "description": "return json with usage array"
               },
               "400": {
                  "description": "Bad Request"
               },
               "401": {
                  "description": "Unauthorized Access"
               },
               "404": {
                  "description": "Not found"
               }
            },
            "description": "Returns JSON",
            "operationId": "CRM11",
            "summary": "Get Usage of the subscription"
         }
      },
      "/GetClient": {
         "post": {
            "tags": [
               "Customer"
            ],
            "produces": [
               "application/json"
            ],
            "parameters": [
               {
                  "description": "Token generated from Portal",
                  "in": "header",
                  "name": "X-API-KEY",
                  "required": true,
                  "type": "string"
               },
               {
                  "in": "body",
                  "name": "payload",
                  "description": "Clientid of customer",
                  "required": true,
                  "schema": {
                     "$ref": "#/definitions/Clientid"
                  }
               }
            ],
            "responses": {
               "200": {
                  "description": "return json with client information"
               },
               "400": {
                  "description": "Bad Request"
               },
               "401": {
                  "description": "Unauthorized Access"
               },
               "404": {
                  "description": "Not found"
               }
            },
            "description": "Returns JSON",
            "operationId": "CRM12",
            "summary": "Get Client Information"
         }
      },
      "/GetService": {
         "post": {
            "tags": [
               "Services"
            ],
            "produces": [
               "application/json"
            ],
            "parameters": [
               {
                  "description": "Token generated from Portal",
                  "in": "header",
                  "name": "X-API-KEY",
                  "required": true,
                  "type": "string"
               },
               {
                  "in": "body",
                  "name": "payload",
                  "description": "Clientid of customer",
                  "required": true,
                  "schema": {
                     "$ref": "#/definitions/Serviceid"
                  }
               }
            ],
            "responses": {
               "200": {
                  "description": "return json with Subscription information"
               },
               "400": {
                  "description": "Bad Request"
               },
               "401": {
                  "description": "Unauthorized Access"
               },
               "404": {
                  "description": "Not found"
               }
            },
            "description": "Returns JSON",
            "operationId": "CRM13",
            "summary": "Get Subscription Information"
         }
      },
      "/GetClientServices": {
         "post": {
            "tags": [
               "Customer"
            ],
            "produces": [
               "application/json"
            ],
            "parameters": [
               {
                  "description": "Token generated from Portal",
                  "in": "header",
                  "name": "X-API-KEY",
                  "required": true,
                  "type": "string"
               },
               {
                  "in": "body",
                  "name": "payload",
                  "description": "Serviceid of subscription",
                  "required": true,
                  "schema": {
                     "$ref": "#/definitions/Clientid"
                  }
               }
            ],
            "responses": {
               "200": {
                  "description": "return json with client subscriptions array"
               },
               "400": {
                  "description": "Bad Request"
               },
               "401": {
                  "description": "Unauthorized Access"
               },
               "404": {
                  "description": "Not found"
               }
            },
            "description": "Returns JSON",
            "operationId": "CRM14",
            "summary": "Get List of client subscriptions"
         }
      },
      "/GetClientInvoices": {
         "post": {
            "tags": [
               "Customer"
            ],
            "produces": [
               "application/json"
            ],
            "parameters": [
               {
                  "description": "Token generated from Portal",
                  "in": "header",
                  "name": "X-API-KEY",
                  "required": true,
                  "type": "string"
               },
               {
                  "in": "body",
                  "name": "payload",
                  "description": "Artilium id of customer",
                  "required": true,
                  "schema": {
                     "$ref": "#/definitions/Clientid"
                  }
               }
            ],
            "responses": {
               "200": {
                  "description": "return json with client invoices array"
               },
               "400": {
                  "description": "Bad Request"
               },
               "401": {
                  "description": "Unauthorized Access"
               },
               "404": {
                  "description": "Not found"
               }
            },
            "description": "Returns JSON",
            "operationId": "CRM15",
            "summary": "Get List of client invoices"
         }
      },
      "/GetInvoice": {
         "post": {
            "tags": [
               "Customer"
            ],
            "produces": [
               "application/json"
            ],
            "parameters": [
               {
                  "description": "Token generated from Portal",
                  "in": "header",
                  "name": "X-API-KEY",
                  "required": true,
                  "type": "string"
               },
               {
                  "in": "body",
                  "name": "payload",
                  "description": "Serviceid of subscription",
                  "required": true,
                  "schema": {
                     "$ref": "#/definitions/Invoiceid"
                  }
               }
            ],
            "responses": {
               "200": {
                  "description": "return Invoice informations and it items"
               },
               "400": {
                  "description": "Bad Request"
               },
               "401": {
                  "description": "Unauthorized Access"
               },
               "404": {
                  "description": "Not found"
               }
            },
            "description": "Returns JSON",
            "operationId": "CRM16",
            "summary": "Get Invoice Details"
         }
      },
      "/GetProducts": {
         "get": {
            "tags": [
               "Services"
            ],
            "produces": [
               "application/json"
            ],
            "parameters": [
               {
                  "description": "Token generated from Portal",
                  "in": "header",
                  "name": "X-API-KEY",
                  "required": true,
                  "type": "string"
               }
            ],
            "responses": {
               "200": {
                  "description": "return json with products array and it informations"
               },
               "400": {
                  "description": "Bad Request"
               },
               "401": {
                  "description": "Unauthorized Access"
               },
               "404": {
                  "description": "Not found"
               }
            },
            "description": "Returns JSON",
            "operationId": "CRM17",
            "summary": "Get Available Product for order"
         }
      },
      "/StopBundleRenewal": {
         "post": {
            "tags": [
               "Services"
            ],
            "produces": [
               "application/json"
            ],
            "parameters": [
               {
                  "description": "Token generated from Portal",
                  "in": "header",
                  "name": "X-API-KEY",
                  "required": true,
                  "type": "string"
               },
               {
                  "in": "body",
                  "name": "payload",
                  "description": "Client object data",
                  "required": true,
                  "schema": {
                     "$ref": "#/definitions/Bundle"
                  }
               }
            ],
            "responses": {
               "200": {
                  "description": "Response of the api"
               },
               "400": {
                  "description": "Bad Request"
               },
               "401": {
                  "description": "Unauthorized Access"
               },
               "404": {
                  "description": "Not found"
               }
            },
            "description": "Returns JSON",
            "operationId": "StopBundleRenewal",
            "summary": "Stop auto renewal of a Bundle"
         }
      },
      "/GetServiceByCli": {
         "post": {
            "tags": [
               "Services"
            ],
            "produces": [
               "application/json"
            ],
            "parameters": [
               {
                  "description": "Token generated from Portal",
                  "in": "header",
                  "name": "X-API-KEY",
                  "required": true,
                  "type": "string"
               },
               {
                  "in": "body",
                  "name": "payload",
                  "description": "Msisdn object data",
                  "required": true,
                  "schema": {
                     "$ref": "#/definitions/Msisdn"
                  }
               }
            ],
            "responses": {
               "200": {
                  "description": "Return json object"
               },
               "400": {
                  "description": "Bad Request"
               },
               "401": {
                  "description": "Unauthorized Access"
               },
               "404": {
                  "description": "Not found"
               }
            },
            "description": "Returns JSON",
            "operationId": "GetServiceByCli",
            "summary": "Get Serviceid and Clientid by Msisdn/CLI number"
         }
      },
      "/AddBundle": {
         "post": {
            "tags": [
               "Services"
            ],
            "produces": [
               "application/json"
            ],
            "parameters": [
               {
                  "description": "Token generated from Portal",
                  "in": "header",
                  "name": "X-API-KEY",
                  "required": true,
                  "type": "string"
               },
               {
                  "in": "body",
                  "name": "payload",
                  "description": "Client object data",
                  "required": true,
                  "schema": {
                     "$ref": "#/definitions/AddBundle"
                  }
               }
            ],
            "responses": {
               "200": {
                  "description": "Response OK with json returned"
               },
               "400": {
                  "description": "Bad Request"
               },
               "401": {
                  "description": "Unauthorized Access"
               },
               "404": {
                  "description": "Not found"
               }
            },
            "description": "Returns JSON",
            "operationId": "AddBundle",
            "summary": "Add Bundle to a subcriptions"
         }
      },
      "/ReloadCredit": {
         "post": {
            "tags": [
               "Services"
            ],
            "produces": [
               "application/json"
            ],
            "parameters": [
               {
                  "description": "Token generated from Portal",
                  "in": "header",
                  "name": "X-API-KEY",
                  "required": true,
                  "type": "string"
               },
               {
                  "in": "body",
                  "name": "payload",
                  "description": "Client object data",
                  "required": true,
                  "schema": {
                     "$ref": "#/definitions/Reload"
                  }
               }
            ],
            "responses": {
               "200": {
                  "description": "Response OK with json returned"
               },
               "400": {
                  "description": "Bad Request"
               },
               "401": {
                  "description": "Unauthorized Access"
               },
               "404": {
                  "description": "Not found"
               }
            },
            "description": "Returns JSON",
            "operationId": "ReloadCredit",
            "summary": "Add Bundle to a subcriptions"
         }
      }
   },
   "definitions": {
      "Serviceid": {
         "required": [
            "serviceid"
         ],
         "properties": {
            "serviceid": {
               "type": "integer",
               "format": "int32",
               "description": "Serviceid ID of the subscriptions"
            }
         }
      },
      "CDR": {
         "required": [
            "serviceid",
            "start",
            "end"
         ],
         "properties": {
            "serviceid": {
               "type": "integer",
               "format": "int32",
               "description": "Serviceid ID of the subscriptions"
            },
            "start": {
               "type": "string",
               "format": "full-date",
               "description": "Start date YYYY-MM-DD",
               "example": "2019-06-01"
            },
            "end": {
               "type": "string",
               "format": "full-date",
               "description": "End Date YYYY-MM-DD",
               "example": "2019-09-20"
            }
         }
      },
      "Clientid": {
         "required": [
            "clientid"
         ],
         "properties": {
            "clientid": {
               "type": "integer",
               "format": "int32",
               "example": 946413,
               "description": "Clientid of the customer"
            }
         }
      },
      "Bundle": {
         "required": [
            "clientid",
            "bundleid"
         ],
         "properties": {
            "serviceid": {
               "type": "integer",
               "format": "int32",
               "example": 946413,
               "description": "Service ID of the subscription"
            },
            "bundleid": {
               "type": "integer",
               "format": "int32",
               "example": 12,
               "description": "Bundle id of /GetAddons"
            }
         }
      },
      "Auth": {
         "required": [
            "email",
            "password"
         ],
         "properties": {
            "email": {
               "type": "string",
               "example": "email@pareteum.cloud",
               "description": "Email Address of the customer"
            },
            "password": {
               "type": "string",
               "example": "Password",
               "description": "Password of the customer"
            }
         }
      },
      "AddBundle": {
         "required": [
            "clientid",
            "addonid",
            "month"
         ],
         "properties": {
            "serviceid": {
               "type": "integer",
               "format": "int32",
               "example": 946413,
               "description": "Service ID of the subscription"
            },
            "addonid": {
               "type": "integer",
               "format": "int32",
               "example": 12,
               "description": "Bundle/Addon id of /GetAddons"
            },
            "month": {
               "type": "integer",
               "example": "1",
               "description": "Month auto renew if once enter 1",
               "enum": [
                  "1",
                  "3",
                  "6",
                  "12",
                  "24"
               ]
            }
         }
      },
      "Reload": {
         "required": [
            "serviceid",
            "amount"
         ],
         "properties": {
            "serviceid": {
               "type": "integer",
               "format": "int32",
               "example": 946413,
               "description": "Service ID of the subscription"
            },
            "amount": {
               "type": "number",
               "format": "float",
               "example": "12.00",
               "description": "Amount to load depend on the company currency"
            }
         }
      },
      "RenewAddon": {
         "required": [
            "serviceid",
            "bundleid",
            "month"
         ],
         "properties": {
            "serviceid": {
               "type": "integer",
               "format": "int32",
               "example": 946413,
               "description": "Service ID of the subscription"
            },
            "bundleid": {
               "type": "integer",
               "format": "int32",
               "example": "12702",
               "description": "Id of the bundle which can be retreived using /GetService of a subscription"
            },
            "month": {
               "type": "integer",
               "format": "int32",
               "example": "1",
               "description": "How many month the bundle will be auto renewed possible value 1, 3, 6, 12, 24"
            }
         }
      },
      "Invoiceid": {
         "required": [
            "invoiceid"
         ],
         "properties": {
            "invoiceid": {
               "type": "integer",
               "format": "int64",
               "description": "Invoice Number"
            }
         }
      },
      "InsertMsisdn": {
         "required": [
            "msisdn",
            "iccid",
            "imsi",
            "puk1",
            "puk2",
            "pin1",
            "agentid"
         ],
         "properties": {
            "msisdn": {
               "type": "integer",
               "format": "int64",
               "description": "Msisdn Number including country code"
            },
            "iccid": {
               "type": "integer",
               "format": "int64",
               "description": "iccid Number including"
            },
            "imsi": {
               "type": "integer",
               "format": "int64",
               "description": "IMSI Number"
            },
            "pin1": {
               "type": "integer",
               "format": "int64",
               "description": "PIN1"
            },
            "pin2": {
               "type": "integer",
               "format": "int64",
               "description": "PIN2"
            },
            "puk1": {
               "type": "integer",
               "format": "int64",
               "description": "PUK1"
            },
            "puk2": {
               "type": "integer",
               "format": "int64",
               "description": "PUK2"
            },
            "agentid": {
               "type": "integer",
               "format": "int32",
               "description": "Agent ID /GetAgents"
            }
         }
      },
      "MsisdnAssignment": {
         "required": [
            "msisdn",
            "agentid"
         ],
         "properties": {
            "msisdn": {
               "type": "integer",
               "format": "int64",
               "description": "Msisdn Number including country code"
            },
            "agentid": {
               "type": "integer",
               "format": "int64",
               "description": "Id of new Agents"
            }
         }
      },
      "Msisdn": {
         "required": [
            "msisdn"
         ],
         "properties": {
            "msisdn": {
               "type": "integer",
               "format": "int64",
               "description": "Msisdn Number including country code"
            }
         }
      },
      "Client": {
         "required": [
            "firstname",
            "lastname",
            "address1",
            "housenumber",
            "postcode",
            "city",
            "country",
            "language",
            "password2",
            "phonenumber",
            "email",
            "paymentmethod",
            "agentid",
            "id_type",
            "idcard_number"
         ],
         "properties": {
            "firstname": {
               "type": "string",
               "description": "Firstname"
            },
            "lastname": {
               "type": "string",
               "description": "Lastname"
            },
            "agentid": {
               "type": "integer",
               "format": "int64",
               "description": "Agent id can be retrived by getAgents "
            },
            "email": {
               "type": "string",
               "description": "Email address for login"
            },
            "password2": {
               "type": "string",
               "description": "Password for selfcare"
            },
            "address1": {
               "type": "string",
               "description": "Streetname"
            },
            "housenumber": {
               "type": "string",
               "description": "Housenumber"
            },
            "alphabet": {
               "type": "string",
               "description": "Alphabet"
            },
            "postcode": {
               "type": "string",
               "description": "Zipcode"
            },
            "city": {
               "type": "string",
               "description": "City"
            },
            "country": {
               "type": "string",
               "description": "iso2Code country of resident",
               "example": "BE"
            },
            "language": {
               "type": "string",
               "description": "Language interfaces for customer",
               "example": "english",
               "enum": [
                  "english",
                  "dutch",
                  "french",
                  "german",
                  "spanish"
               ]
            },
            "paymentmethod": {
               "type": "string",
               "example": "banktransfer",
               "description": "Payment method"
            },
            "idcard_number": {
               "type": "string",
               "description": "Firstname",
               "example": "0243534566924"
            },
            "id_type": {
               "type": "string",
               "example": "Passport",
               "description": "Identity Type",
               "enum": [
                  "ID",
                  "Passport",
                  "DrivingLicence",
                  "DNI",
                  "NIF",
                  "NIE",
                  "CIF",
                  "Visa"
               ]
            },
            "phonenumber": {
               "type": "string",
               "example": "023445234435"
            },
            "companyname": {
               "type": "string"
            },
            "vat": {
               "type": "string"
            },
            "initial": {
               "type": "string",
               "example": "A.J"
            },
            "salutation": {
               "type": "string",
               "example": "Mr."
            },
            "date_birth": {
               "type": "string",
               "example": "2000-01-01"
            },
            "iban": {
               "type": "string"
            }
         },
         "xml": {
            "name": "User"
         }
      },
      "ClientUpdate": {
         "required": [
            "clientid"
         ],
         "properties": {
            "clientid": {
               "type": "integer",
               "format": "int32",
               "description": "Client ID to be updated"
            },
            "firstname": {
               "type": "string",
               "description": "Firstname"
            },
            "lastname": {
               "type": "string",
               "description": "Lastname"
            },
            "agentid": {
               "type": "integer",
               "format": "int64",
               "description": "Agent id can be retrived by getAgents "
            },
            "email": {
               "type": "string",
               "description": "Email address for login"
            },
            "password2": {
               "type": "string",
               "description": "Password for selfcare"
            },
            "address1": {
               "type": "string",
               "description": "Streetname"
            },
            "housenumber": {
               "type": "string",
               "description": "Housenumber"
            },
            "alphabet": {
               "type": "string",
               "description": "Alphabet"
            },
            "postcode": {
               "type": "string",
               "description": "Zipcode"
            },
            "city": {
               "type": "string",
               "description": "City"
            },
            "country": {
               "type": "string",
               "description": "iso2Code country of resident",
               "example": "BE"
            },
            "language": {
               "type": "string",
               "description": "Language interfaces for customer",
               "example": "english",
               "enum": [
                  "english",
                  "dutch",
                  "french",
                  "german",
                  "spanish"
               ]
            },
            "paymentmethod": {
               "type": "string",
               "example": "banktransfer",
               "description": "Payment method"
            },
            "idcard_number": {
               "type": "string",
               "description": "Firstname"
            },
            "id_type": {
               "type": "string",
               "example": "Passport",
               "description": "Identity Type",
               "enum": [
                  "ID",
                  "Passport",
                  "DrivingLicence",
                  "DNI",
                  "NIF",
                  "NIE",
                  "CIF",
                  "Visa"
               ]
            },
            "phonenumber": {
               "type": "string"
            },
            "companyname": {
               "type": "string"
            },
            "vat": {
               "type": "string"
            },
            "initial": {
               "type": "string"
            },
            "salutation": {
               "type": "string"
            },
            "date_birth": {
               "type": "string"
            },
            "iban": {
               "type": "string"
            }
         },
         "xml": {
            "name": "User"
         }
      },
      "Category": {
         "properties": {
            "id": {
               "type": "integer",
               "format": "int64"
            },
            "name": {
               "type": "string"
            }
         },
         "xml": {
            "name": "Category"
         }
      },
      "Tag": {
         "properties": {
            "id": {
               "type": "integer",
               "format": "int64"
            },
            "name": {
               "type": "string"
            }
         },
         "xml": {
            "name": "Tag"
         }
      },
      "Order": {
         "required": [
            "clientid",
            "brand",
            "pid",
            "porting",
            "activate"
         ],
         "properties": {
            "clientid": {
               "type": "integer",
               "format": "int32",
               "description": "Clientid of the customer which order need to be assigned"
            },
            "brand": {
               "type": "integer",
               "format": "int32",
               "example": "1",
               "description": "Branding company, leave it 1 for non applicable company"
            },
            "pid": {
               "type": "integer",
               "format": "int32",
               "description": "Product id which can be retrieved on /GetProducts"
            },
            "porting": {
               "type": "boolean",
               "example": "0",
               "description": "1 = portability then you need to provide porting_msisdn and porting_accountnumber for UK based MVNO, may vary on different countries"
            },
            "activate": {
               "type": "boolean",
               "example": "0",
               "description": "If this is 1 then msisdn field is mandatory for auto provisoning"
            },
            "msisdn": {
               "type": "string",
               "description": "Msisdn Number that the order need to be activated"
            },
            "promocode": {
               "type": "string",
               "description": "Promotional code if any"
            },
            "addons": {
               "type": "integer",
               "format": "int32",
               "description": "Add 1 of list addons from /getAddons"
            },
            "porting_msisdn": {
               "type": "string",
               "example": "3248394869696",
               "description": "CLI that need to be ported in"
            },
            "porting_accountnumber": {
               "type": "string",
               "description": "PAC Number that should be provided by the current provider in order to be able to portout"
            }
         },
         "xml": {
            "name": "Order"
         }
      }
   }
}