{
    "basePath": "https://rest-api.united-telecom.be/v10106/partners/yonders",
    "swaggerVersion": "1.2",
    "apiVersion": "1.0",
    "resourcePath": "/Bundles",
    "apis": [
        {
            "path": "/Bundles",
            "description": "Get List Bundles",
            "operations": [
                {
                    "method": "GET",
                    "summary": "Get Available Bundles",
                    "nickname": "Bundles",
                    "parameters": [
                        {
                            "paramType": "header",
                            "name": "X-USERNAME",
                            "type": "string",
                            "required": true,
                            "description": "your username"
                        },
                        {
                            "paramType": "header",
                            "name": "X-PASSWORD",
                            "type": "string",
                            "required": true,
                            "description": "your password"
                        }
                    ],
                    "responseMessages": [
                        {
                            "code": 200,
                            "message": ""
                        },
                        {
                            "code": 400,
                            "message": "Bad Request"
                        },
                        {
                            "code": 401,
                            "message": "Unauthorized Access"
                        },
                        {
                            "code": 404,
                            "message": "Not found"
                        }
                    ],
                    "notes": "Returns JSON"
                }
            ]
        }
    ],
    "produces": [
        "application/json"
    ]
}