373;10178;31649409868;0;0;1;0
382;10512;31649406364;0;0;1;0
386;10648;31649485130;0;0;1;0
501;13734;31683943972;0;0;1;0
502;13735;31683944502;0;0;1;0
515;13805;31683946863;0;0;1;0
555;13996;31630018532;0;0;1;0
560;14057;31630025249;0;0;1;0
561;14057;31630025976;0;0;1;0
562;14057;31630026293;0;0;1;0
563;14057;31630026455;0;0;1;0
565;14057;31630026759;0;0;1;0
567;14057;31630027524;0;0;1;0
7;10860;31649485395;0;0;1;1
66;13926;31613556715;0;0;1;1
72;13930;31610011683;0;0;1;1
101;14134;31657832695;0;0;1;1
116;14447;31610011482;0;0;1;1
130;14056;31657800684;0;0;1;1
131;14056;31657800741;0;0;1;1
180;14141;31657832763;0;0;1;1
183;14198;31610010280;0;0;1;1
190;14233;31610010231;0;0;1;1
201;14012;31683957699;0;0;1;1
203;14067;31657801949;0;0;1;1
205;14109;31657829695;0;0;1;1
254;14405;31610010967;0;0;1;1
262;14490;31610011766;0;0;1;1
350;14279;31610010841;0;0;1;1
357;14342;31610010715;0;0;1;1
361;14471;31610011556;0;0;1;1
402;11274;31649487216;0;0;1;1
408;11408;31637009117;0;0;1;1
409;11411;31654326263;0;0;1;1
471;13434;31637009138;0;0;1;1
504;13742;31683946564;0;0;1;1
510;13782;31683945664;0;0;1;1
511;13783;31683945702;0;0;1;1
521;13819;31611166508;0;0;1;1
544;13922;31682744797;0;0;1;1
119;14023;31630031816;1;0;1;1
129;14055;31630035017;1;0;1;1
179;14126;31657830978;1;0;1;1
193;14293;31610010374;1;0;1;1
211;14277;31610010377;1;0;1;1
221;14436;31610011210;1;0;1;1
321;14443;31610011153;1;0;1;1
331;14216;31610000836;1;0;1;1
343;14218;31610001498;1;0;1;1
351;14301;31610010997;1;0;1;1
367;14425;31610011536;1;0;1;1
404;11327;31613509709;1;0;1;1
410;11458;31615538593;1;0;1;1
412;11470;31644270163;1;0;1;1
445;12996;31651639277;1;0;1;1
467;13312;31637089303;1;0;1;1
553;13974;31630017553;1;0;1;1
43;13732;31683943934;0;1;1;1
77;13938;31613554358;0;1;1;1
86;13960;31630002567;0;1;1;1
92;13976;31654955253;0;1;1;1
109;14341;31610010923;0;1;1;1
110;14357;31610005488;0;1;1;1
111;14367;31610005490;0;1;1;1
124;14051;31630032084;0;1;1;1
146;14459;31610011727;0;1;1;1
149;14085;31657802375;0;1;1;1
150;14035;31633786593;0;1;1;1
154;14115;31657831297;0;1;1;1
159;14226;31610010337;0;1;1;1
165;14184;31658755499;0;1;1;1
174;14060;31657802229;0;1;1;1
177;14098;31657830232;0;1;1;1
184;14201;31630155938;0;1;1;1
188;14219;31610000785;0;1;1;1
195;14377;31610010889;0;1;1;1
197;14414;31610011057;0;1;1;1
206;14155;31657836256;0;1;1;1
216;14317;31610010602;0;1;1;1
218;14371;31622009387;0;1;1;1
222;14441;31610011360;0;1;1;1
224;14442;31610011231;0;1;1;1
225;14223;31610001487;0;1;1;1
228;14227;31610000759;0;1;1;1
231;14073;31655945513;0;1;1;1
233;14106;31657830785;0;1;1;1
235;14148;31610001386;0;1;1;1
240;14193;31657842628;0;1;1;1
279;14027;31626893614;0;1;1;1
303;14210;31630156286;0;1;1;1
304;14228;31610005449;0;1;1;1
309;14281;31610010402;0;1;1;1
310;14302;31610010398;0;1;1;1
313;14332;31610011081;0;1;1;1
315;14382;31610011669;0;1;1;1
319;14433;31610011211;0;1;1;1
327;14095;31657831089;0;1;1;1
328;14149;31657836264;0;1;1;1
329;14151;31657836847;0;1;1;1
334;14400;31610011037;0;1;1;1
336;14430;31645386939;0;1;1;1
340;14175;31630156599;0;1;1;1
354;14303;31610010537;0;1;1;1
368;10031;31649410376;0;1;1;1
370;10075;31649409725;0;1;1;1
371;10077;31649409712;0;1;1;1
375;10203;31653894455;0;1;1;1
376;10256;31649409987;0;1;1;1
381;10476;31649406297;0;1;1;1
385;10627;31614914960;0;1;1;1
387;10689;31649487281;0;1;1;1
395;10985;31649485591;0;1;1;1
415;11543;31637008818;0;1;1;1
420;11713;31623678980;0;1;1;1
422;11769;31648341103;0;1;1;1
431;12389;31637008245;0;1;1;1
448;13038;31611180932;0;1;1;1
451;13070;31637009105;0;1;1;1
459;13213;31636105324;0;1;1;1
469;13405;31624897962;0;1;1;1
481;13491;31637103588;0;1;1;1
483;13515;31637095588;0;1;1;1
503;13742;31657802243;0;1;1;1
509;13778;31683945541;0;1;1;1
513;13793;31683945918;0;1;1;1
522;13827;31683947166;0;1;1;1
523;13828;31682538208;0;1;1;1
531;13892;31682744577;0;1;1;1
532;13905;31682743231;0;1;1;1
533;13908;31682743376;0;1;1;1
551;13968;31630015936;0;1;1;1
