szPinOrCLip;WarningLevel;BlockingLevel;UsageInclVAT;Ignore;StartDate
31649485501;72,00;80,00;19,23;;01/01/2019
31649485501;72,00;80,00;10,18;;01/02/2019
31649485501;72,00;80,00;3,48;;01/03/2019
31643350900;72,00;80,00;5,95;;01/03/2019
31643350900;72,00;80,00;9,15;;01/02/2019
31643350900;72,00;80,00;4,14;;01/01/2019
31646456050;72,00;80,00;3,85;;01/01/2019
31646456050;72,00;80,00;2,47;;01/02/2019
31646456050;72,00;80,00;1,60;;01/03/2019
31610914594;72,00;80,00;8,92;;01/03/2019
31610914594;72,00;80,00;8,03;;01/02/2019
31610914594;72,00;80,00;18,25;;01/01/2019
31649485395;72,00;80,00;1,28;;01/01/2019
31649485395;72,00;80,00;1,72;;01/02/2019
31649485395;72,00;80,00;0,00;;01/03/2019
31611319131;72,00;80,00;0,00;;01/03/2019
31611319131;72,00;80,00;0,65;;01/02/2019
31611319131;72,00;80,00;0,62;;01/01/2019
31653788081;72,00;80,00;0,36;;01/01/2019
31653788081;72,00;80,00;0,73;;01/02/2019
31653788081;72,00;80,00;0,00;;01/03/2019
31646008721;72,00;80,00;3,97;;01/03/2019
31646008721;72,00;80,00;2,93;;01/01/2019
31646008721;72,00;80,00;12,92;;01/02/2019
31655374148;72,00;80,00;0,00;;01/01/2019
31655374148;72,00;80,00;0,03;;01/02/2019
31655374148;72,00;80,00;0,00;;01/03/2019
31649409712;225,00;250,00;12,90;;01/03/2019
31649409712;225,00;250,00;19,66;;01/02/2019
31649409712;225,00;250,00;33,43;;01/01/2019
31649485207;72,00;80,00;30,63;;01/01/2019
31649485207;72,00;80,00;51,96;;01/02/2019
31649485207;72,00;80,00;39,59;;01/03/2019
31648762954;225,00;250,00;0,00;;01/03/2019
31648762954;225,00;250,00;0,00;;01/01/2019
31644270163;72,00;80,00;0,00;;01/01/2019
31644270163;72,00;80,00;0,00;;01/03/2019
31644270163;72,00;80,00;0,00;;01/02/2019
31616698372;225,00;250,00;12,39;;01/02/2019
31616698372;225,00;250,00;9,97;;01/03/2019
31616698372;225,00;250,00;5,98;;01/01/2019
31624897962;72,00;80,00;0,00;;01/01/2019
31624897962;72,00;80,00;2,01;;01/03/2019
31624897962;72,00;80,00;1,17;;01/02/2019
31642885655;72,00;80,00;1,09;;01/03/2019
31642885655;72,00;80,00;1,81;;01/02/2019
31642885655;72,00;80,00;2,29;;01/01/2019
31637008130;72,00;80,00;9,00;;01/01/2019
31637008130;72,00;80,00;2,39;;01/02/2019
31637008130;72,00;80,00;1,66;;01/03/2019
31611364557;72,00;80,00;0,00;;01/03/2019
31611364557;72,00;80,00;5,59;;01/02/2019
31611364557;72,00;80,00;15,19;;01/01/2019
31649485130;72,00;80,00;0,00;;01/01/2019
31649485130;72,00;80,00;0,00;;01/02/2019
31649485130;72,00;80,00;0,00;;01/03/2019
31625270148;18,00;20,00;0,00;;01/03/2019
31625270148;18,00;20,00;0,20;;01/02/2019
31625270148;72,00;80,00;3,68;;01/01/2019
31614914960;225,00;250,00;106,23;;01/01/2019
31614914960;225,00;250,00;180,93;;01/02/2019
31614914960;225,00;250,00;25,19;;01/03/2019
31625594136-R;72,00;80,00;3,71;;01/02/2019
31625594136-R;72,00;80,00;35,62;;01/01/2019
31651618191;72,00;80,00;20,99;;01/02/2019
31651618191;72,00;80,00;14,85;;01/01/2019
31651618191;72,00;80,00;4,79;;01/03/2019
31617900899;72,00;80,00;0,27;;01/02/2019
31617900899;72,00;80,00;3,51;;01/03/2019
31649406192;72,00;80,00;0,00;;01/02/2019
31637007605;225,00;250,00;0,00;;01/02/2019
31637007605;225,00;250,00;1,67;;01/01/2019
31637009319;72,00;80,00;3,06;;01/01/2019
31637009319;72,00;80,00;1,75;;01/02/2019
31637009319;72,00;80,00;1,07;;01/03/2019
31654214178;72,00;80,00;13,38;;01/03/2019
31654214178;72,00;80,00;0,97;;01/02/2019
31654214178;72,00;80,00;13,69;;01/01/2019
31653459650;72,00;80,00;10,92;;01/01/2019
31653459650;72,00;80,00;1,79;;01/02/2019
31653459650;72,00;80,00;5,40;;01/03/2019
31637089272;18,00;20,00;0,00;;01/03/2019
31637089272;20,00;20,00;79,90;;01/02/2019
31637089272;72,00;80,00;0,56;;01/01/2019
31650507937;72,00;80,00;16,34;;01/01/2019
31650507937;72,00;80,00;9,00;;01/02/2019
31650507937;72,00;80,00;9,66;;01/03/2019
31650507927;72,00;80,00;1,63;;01/03/2019
31650507927;72,00;80,00;7,04;;01/02/2019
31650507927;72,00;80,00;8,35;;01/01/2019
31637007743;72,00;80,00;0,22;;01/01/2019
31637007743;72,00;80,00;0,51;;01/02/2019
31637007743;72,00;80,00;0,00;;01/03/2019
31650507925;72,00;80,00;8,71;;01/03/2019
31650507925;72,00;80,00;8,24;;01/02/2019
31650507925;72,00;80,00;17,42;;01/01/2019
31637095630;225,00;250,00;56,56;;01/01/2019
31637095630;225,00;250,00;50,42;;01/02/2019
31637095630;225,00;250,00;92,64;;01/03/2019
31637008278;72,00;80,00;0,00;;01/03/2019
31637008278;72,00;80,00;0,00;;01/02/2019
31637008278;72,00;80,00;0,00;;01/01/2019
31637007020;72,00;80,00;0,00;;01/01/2019
31637007020;72,00;80,00;0,00;;01/02/2019
31637007020;72,00;80,00;0,00;;01/03/2019
31637009117;72,00;80,00;0,39;;01/02/2019
31637009117;72,00;80,00;0,00;;01/01/2019
31637008818;72,00;80,00;0,00;;01/01/2019
31637008818;72,00;80,00;2,61;;01/02/2019
31637008818;72,00;80,00;7,02;;01/03/2019
31637009392;72,00;80,00;0,44;;01/03/2019
31637009392;72,00;80,00;0,15;;01/02/2019
31637009392;72,00;80,00;2,40;;01/01/2019
31649409987;72,00;80,00;0,00;;01/01/2019
31615680923;72,00;80,00;15,44;;01/01/2019
31615680923;72,00;80,00;21,15;;01/02/2019
31615680923;72,00;80,00;4,27;;01/03/2019
31649485591;72,00;80,00;1,46;;01/03/2019
31649485591;72,00;80,00;6,91;;01/02/2019
31649485591;72,00;80,00;1,17;;01/01/2019
31619858282;72,00;80,00;0,00;;01/01/2019
31619858282;72,00;80,00;0,00;;01/02/2019
31619858282;72,00;80,00;0,00;;01/03/2019
31620960242;72,00;80,00;2,92;;01/01/2019
31637007676-R;72,00;80,00;1,43;;01/01/2019
31637007676-R;72,00;80,00;0,23;;01/02/2019
31637008432;72,00;80,00;16,72;;01/02/2019
31637008432;72,00;80,00;4,69;;01/03/2019
31637008432;72,00;80,00;13,23;;01/01/2019
31640414884;72,00;80,00;1,02;;01/01/2019
31640414884;72,00;80,00;13,18;;01/03/2019
31640414884;72,00;80,00;10,15;;01/02/2019
31637007848;18,00;20,00;0,00;;01/02/2019
31637007848;18,00;20,00;0,00;;01/03/2019
31637007848;72,00;80,00;26,85;;01/01/2019
31649409879;72,00;80,00;0,00;;01/01/2019
31649409879;72,00;80,00;0,00;;01/03/2019
31653894455;72,00;80,00;3,36;;01/03/2019
31653894455;72,00;80,00;18,86;;01/02/2019
31653894455;72,00;80,00;27,92;;01/01/2019
31653894455;72,00;80,00;27,92;;01/01/2019
31629072915;72,00;80,00;1,44;;01/01/2019
31629072915;72,00;80,00;0,00;;01/02/2019
31649487216;72,00;80,00;0,00;;01/03/2019
31649487216;72,00;80,00;1,52;;01/01/2019
31637007616;72,00;80,00;0,04;;01/01/2019
31637007616;72,00;80,00;0,04;;01/01/2019
31637007616;72,00;80,00;0,02;;01/03/2019
31637007616;72,00;80,00;0,56;;01/02/2019
31637095631;72,00;80,00;0,00;;01/03/2019
31637095631;72,00;80,00;0,09;;01/02/2019
31637095631;72,00;80,00;0,00;;01/01/2019
31649485838;72,00;80,00;0,73;;01/01/2019
31649485838;72,00;80,00;0,15;;01/02/2019
31649485838;72,00;80,00;0,58;;01/03/2019
31651339121;72,00;80,00;2,71;;01/03/2019
31651339121;72,00;80,00;17,44;;01/02/2019
31651339121;72,00;80,00;20,92;;01/01/2019
31618101825;72,00;80,00;0,00;;01/02/2019
31618101825;72,00;80,00;0,00;;01/01/2019
31618101825;72,00;80,00;0,00;;01/03/2019
31649409868;72,00;80,00;0,00;;01/02/2019
31649409868;72,00;80,00;0,00;;01/03/2019
31637009387;72,00;80,00;0,00;;01/02/2019
31631968259;72,00;80,00;0,00;;01/03/2019
31631968259;80,00;80,00;79,00;;01/01/2019
31631968259;72,00;80,00;0,00;;01/02/2019
31638233641;72,00;80,00;9,58;;01/01/2019
31638233641;72,00;80,00;0,00;;01/03/2019
31638233641;72,00;80,00;2,93;;01/02/2019
31637009138;72,00;80,00;0,00;;01/02/2019
31637009138;72,00;80,00;0,00;;01/03/2019
31637009138;72,00;80,00;3,59;;01/01/2019
31622607269;72,00;80,00;0,22;;01/02/2019
31622607269;72,00;80,00;5,93;;01/01/2019
31622607269;72,00;80,00;0,22;;01/03/2019
31651611381;72,00;80,00;0,00;;01/03/2019
31651611381;72,00;80,00;0,47;;01/01/2019
31651611381;72,00;80,00;0,00;;01/02/2019
31610595616;72,00;80,00;2,18;;01/01/2019
31610595616;72,00;80,00;2,47;;01/02/2019
31610595616;72,00;80,00;1,52;;01/03/2019
31613310232;225,00;250,00;3,78;;01/03/2019
31613310232;225,00;250,00;3,16;;01/02/2019
31613310232;225,00;250,00;0,05;;01/01/2019
31637089343;72,00;80,00;0,07;;01/01/2019
31637089343;72,00;80,00;0,00;;01/02/2019
31637089343;72,00;80,00;0,00;;01/03/2019
31613062382;72,00;80,00;10,38;;01/02/2019
31613062382;72,00;80,00;5,19;;01/03/2019
31613062382;72,00;80,00;3,81;;01/01/2019
31649485248;72,00;80,00;0,53;;01/01/2019
31649485248;72,00;80,00;32,69;;01/03/2019
31649485248;72,00;80,00;62,44;;01/02/2019
31616612108;72,00;80,00;1,43;;01/02/2019
31616612108;72,00;80,00;0,00;;01/03/2019
31616612108;72,00;80,00;0,00;;01/01/2019
31682741716;225,00;250,00;10,22;;01/01/2019
31682741716;225,00;250,00;0,00;;01/03/2019
31682741716;225,00;250,00;0,93;;01/02/2019
31637009072;72,00;80,00;0,00;;01/03/2019
31637009072;72,00;80,00;0,00;;01/01/2019
31637009072;72,00;80,00;0,00;;01/02/2019
31637008437;225,00;250,00;63,68;;01/01/2019
31637008437;225,00;250,00;51,41;;01/02/2019
31637008437;225,00;250,00;35,11;;01/03/2019
31646348633;72,00;80,00;13,44;;01/03/2019
31646348633;72,00;80,00;0,22;;01/02/2019
31646348633;72,00;80,00;10,06;;01/01/2019
31637009385;72,00;80,00;0,00;;01/02/2019
31637009385;72,00;80,00;0,00;;01/01/2019
31637009385;72,00;80,00;0,00;;01/03/2019
31625013461;72,00;80,00;0,00;;01/02/2019
31625013461;72,00;80,00;0,00;;01/03/2019
31682745302;72,00;80,00;0,00;;01/03/2019
31682745302;72,00;80,00;0,00;;01/01/2019
31682745302;72,00;80,00;0,00;;01/02/2019
31682744879;72,00;80,00;0,00;;01/01/2019
31682742012;72,00;80,00;3,04;;01/01/2019
31682742012;72,00;80,00;0,00;;01/02/2019
31682742012;72,00;80,00;0,00;;01/03/2019
31636105325-R;72,00;80,00;0,00;;01/02/2019
31636105325-R;72,00;80,00;0,82;;01/01/2019
31636105324-R;72,00;80,00;0,00;;01/01/2019
31636105324-R;72,00;80,00;0,00;;01/02/2019
31682745222;72,00;80,00;41,96;;01/01/2019
31682745222;72,00;80,00;0,00;;01/03/2019
31682745222;72,00;80,00;6,33;;01/02/2019
31637007735;72,00;80,00;0,13;;01/02/2019
31637007735;72,00;80,00;1,60;;01/03/2019
31637007735;72,00;80,00;0,02;;01/01/2019
31637095604;72,00;80,00;0,07;;01/01/2019
31637095604;72,00;80,00;0,00;;01/03/2019
31637095604;72,00;80,00;0,00;;01/02/2019
31613552282;225,00;250,00;0,00;;01/03/2019
31613552282;225,00;250,00;0,24;;01/01/2019
31613552282;225,00;250,00;0,00;;01/02/2019
31613553040;225,00;250,00;0,00;;01/02/2019
31613553040;225,00;250,00;0,16;;01/01/2019
31613553040;225,00;250,00;4,46;;01/03/2019
31613553101;225,00;250,00;0,00;;01/03/2019
31613553101;225,00;250,00;0,00;;01/01/2019
31613553101;225,00;250,00;0,00;;01/02/2019
31649409725;72,00;80,00;7,20;;01/01/2019
31649409725;72,00;80,00;4,45;;01/02/2019
31649409725;72,00;80,00;3,30;;01/03/2019
31682741232;225,00;250,00;0,53;;01/03/2019
31682741232;225,00;250,00;0,00;;01/02/2019
31682741232;225,00;250,00;0,00;;01/01/2019
31682744055;72,00;80,00;1,16;;01/01/2019
31682744055;72,00;80,00;0,73;;01/02/2019
31682744055;72,00;80,00;1,16;;01/03/2019
31655142618;72,00;80,00;2,07;;01/03/2019
31655142618;72,00;80,00;4,29;;01/02/2019
31655142618;72,00;80,00;3,14;;01/01/2019
31655142618;72,00;80,00;3,14;;01/01/2019
31637008283;72,00;80,00;0,10;;01/01/2019
31637008283;72,00;80,00;0,00;;01/02/2019
31637008283;72,00;80,00;0,24;;01/03/2019
31683946882;225,00;250,00;43,77;;01/03/2019
31683946882;225,00;250,00;52,91;;01/02/2019
31683946882;225,00;250,00;113,61;;01/01/2019
31654235258;72,00;80,00;0,02;;01/01/2019
31654235258;72,00;80,00;43,85;;01/03/2019
31654235258;72,00;80,00;0,00;;01/02/2019
31683944635;225,00;250,00;4,95;;01/03/2019
31683944635;225,00;250,00;12,64;;01/01/2019
31683944635;225,00;250,00;49,44;;01/02/2019
31683944644;225,00;250,00;3,19;;01/02/2019
31683944644;225,00;250,00;10,51;;01/01/2019
31683944644;225,00;250,00;12,17;;01/03/2019
31683948171;225,00;250,00;0,00;;01/03/2019
31683948171;225,00;250,00;0,00;;01/01/2019
31683948171;225,00;250,00;6,66;;01/02/2019
31622403378;225,00;250,00;152,07;;01/02/2019
31622403378;225,00;250,00;180,00;;01/01/2019
31622403378;225,00;250,00;181,86;;01/03/2019
31653931363;72,00;80,00;0,00;;01/03/2019
31653931363;72,00;80,00;0,00;;01/01/2019
31653931363;72,00;80,00;0,00;;01/02/2019
31646605706;72,00;80,00;20,88;;01/02/2019
31646605706;72,00;80,00;0,98;;01/01/2019
31646605706;72,00;80,00;0,00;;01/03/2019
31627233552;72,00;80,00;0,00;;01/03/2019
31627233552;72,00;80,00;2,98;;01/01/2019
31627233552;72,00;80,00;7,63;;01/02/2019
31683943934;72,00;80,00;1,86;;01/01/2019
31683943934;72,00;80,00;1,60;;01/02/2019
31683943934;72,00;80,00;0,00;;01/03/2019
31683943972;72,00;80,00;0,00;;01/03/2019
31683943972;72,00;80,00;0,00;;01/02/2019
31683943972;72,00;80,00;1,45;;01/01/2019
31649410376;72,00;80,00;16,11;;01/01/2019
31649410376;72,00;80,00;0,00;;01/02/2019
31649410376;72,00;80,00;0,00;;01/03/2019
31683944502;72,00;80,00;0,00;;01/02/2019
31637009188;72,00;80,00;0,14;;01/02/2019
31637009188;72,00;80,00;0,69;;01/03/2019
31637009188;72,00;80,00;0,12;;01/01/2019
31637008245;72,00;80,00;1,59;;01/01/2019
31637008245;72,00;80,00;0,00;;01/03/2019
31637008245;72,00;80,00;5,58;;01/02/2019
31653741296;72,00;80,00;0,00;;01/03/2019
31653741296;72,00;80,00;0,00;;01/02/2019
31653741296;72,00;80,00;11,12;;01/01/2019
31655143193;72,00;80,00;44,23;;01/01/2019
31655143193;72,00;80,00;26,62;;01/02/2019
31655143193;72,00;80,00;0,00;;01/03/2019
31648923065;225,00;250,00;0,00;;01/03/2019
31648923065;225,00;250,00;0,00;;01/02/2019
31648923065;225,00;250,00;0,00;;01/01/2019
31630921225;72,00;80,00;0,00;;01/01/2019
31630921225;72,00;80,00;0,00;;01/02/2019
31630921225;72,00;80,00;24,42;;01/03/2019
31647880381;72,00;80,00;3,15;;01/02/2019
31647880381;72,00;80,00;9,48;;01/03/2019
31647880381;72,00;80,00;8,49;;01/01/2019
31637095539;72,00;80,00;0,00;;01/01/2019
31637095539;72,00;80,00;0,00;;01/03/2019
31637095539;72,00;80,00;21,43;;01/02/2019
31649406225;72,00;80,00;0,87;;01/01/2019
31649406364;72,00;80,00;9,63;;01/01/2019
31649406364;72,00;80,00;2,01;;01/02/2019
31649406364;72,00;80,00;12,44;;01/03/2019
31630018276;72,00;80,00;0,00;;01/02/2019
31630018276;72,00;80,00;0,00;;01/01/2019
31654955253;72,00;80,00;0,00;;01/02/2019
31654955253;72,00;80,00;1,06;;01/01/2019
31654955253;72,00;80,00;0,00;;01/03/2019
31657840769;225,00;250,00;0,00;;01/03/2019
31657840769;225,00;250,00;0,00;;01/01/2019
31657840769;225,00;250,00;0,00;;01/02/2019
31657839252;225,00;250,00;0,00;;01/02/2019
31657839252;225,00;250,00;8,87;;01/01/2019
31657839252;225,00;250,00;8,87;;01/01/2019
31657839252;225,00;250,00;0,00;;01/03/2019
31610011050;72,00;80,00;0,00;;01/01/2019
31610011176;72,00;80,00;0,00;;01/01/2019
31610011176;72,00;80,00;0,00;;01/02/2019
31610011176;72,00;80,00;0,00;;01/03/2019
31637007957;72,00;80,00;1,08;;01/02/2019
31637007957;72,00;80,00;0,02;;01/03/2019
31637007957;72,00;80,00;15,85;;01/01/2019
31623678980;225,00;250,00;1,64;;01/01/2019
31623678980;225,00;250,00;2,33;;01/03/2019
31623678980;225,00;250,00;4,30;;01/02/2019
31610001419;72,00;80,00;2,20;;01/03/2019
31610001419;72,00;80,00;0,01;;01/01/2019
31610001419;72,00;80,00;0,67;;01/02/2019
31657839804;225,00;250,00;0,00;;01/02/2019
31657839804;225,00;250,00;0,00;;01/01/2019
31657839804;225,00;250,00;0,00;;01/03/2019
31653130456;72,00;80,00;0,00;;01/02/2019
31653130456;72,00;80,00;9,18;;01/01/2019
31649409786;72,00;80,00;15,59;;01/02/2019
31649409786;72,00;80,00;42,73;;01/01/2019
31649409786;72,00;80,00;2,79;;01/03/2019
31610011256;225,00;250,00;0,00;;01/03/2019
31610011256;225,00;250,00;0,00;;01/01/2019
31610011256;225,00;250,00;0,11;;01/02/2019
31630002567;72,00;80,00;0,00;;01/02/2019
31630002567;72,00;80,00;0,00;;01/01/2019
31630002567;72,00;80,00;0,00;;01/03/2019
31649406286;72,00;80,00;21,03;;01/03/2019
31649406286;72,00;80,00;0,00;;01/01/2019
31649406286;72,00;80,00;49,38;;01/02/2019
31637009042;72,00;80,00;0,00;;01/02/2019
31637009042;72,00;80,00;0,00;;01/01/2019
31637009042;72,00;80,00;0,00;;01/03/2019
31630002418;72,00;80,00;0,00;;01/03/2019
31630002418;72,00;80,00;0,00;;01/01/2019
31630002418;72,00;80,00;0,00;;01/02/2019
31642957265;72,00;80,00;1,86;;01/02/2019
31642957265;72,00;80,00;8,47;;01/01/2019
31642957265;72,00;80,00;0,80;;01/03/2019
31630017563;225,00;250,00;7,94;;01/03/2019
31630017563;225,00;250,00;10,76;;01/01/2019
31630017563;225,00;250,00;16,19;;01/02/2019
31637007651;72,00;80,00;0,00;;01/01/2019
31637007651;72,00;80,00;0,22;;01/02/2019
31637007651;72,00;80,00;0,00;;01/03/2019
31682744577;72,00;80,00;28,14;;01/03/2019
31682744577;72,00;80,00;7,26;;01/02/2019
31682744577;72,00;80,00;2,40;;01/01/2019
31642196704;72,00;80,00;0,00;;01/01/2019
31642196704;72,00;80,00;7,72;;01/02/2019
31642196704;72,00;80,00;0,00;;01/03/2019
31630001069;72,00;80,00;55,86;;01/02/2019
31630001069;72,00;80,00;0,00;;01/03/2019
31630001069;72,00;80,00;40,04;;01/01/2019
31611592592;225,00;250,00;0,03;;01/01/2019
31611592592;225,00;250,00;0,27;;01/02/2019
31611592592;225,00;250,00;19,66;;01/03/2019
31648923132;225,00;250,00;1,86;;01/03/2019
31648923132;225,00;250,00;0,00;;01/02/2019
31648923132;225,00;250,00;0,00;;01/01/2019
31648923133;225,00;250,00;0,92;;01/01/2019
31648923133;225,00;250,00;1,33;;01/02/2019
31648923133;225,00;250,00;0,00;;01/03/2019
31648923137;225,00;250,00;0,00;;01/03/2019
31648923137;225,00;250,00;1,17;;01/02/2019
31648923137;225,00;250,00;2,22;;01/01/2019
31648923138;225,00;250,00;0,00;;01/01/2019
31648923141;225,00;250,00;0,00;;01/01/2019
31648923141;225,00;250,00;0,00;;01/02/2019
31648923141;225,00;250,00;0,00;;01/03/2019
31648923142;225,00;250,00;0,00;;01/03/2019
31648923142;225,00;250,00;0,00;;01/02/2019
31648923142;225,00;250,00;0,00;;01/01/2019
31648923145;225,00;250,00;2,71;;01/01/2019
31648923145;225,00;250,00;0,00;;01/02/2019
31648923145;225,00;250,00;0,00;;01/03/2019
31648923146;225,00;250,00;3,51;;01/02/2019
31648923146;225,00;250,00;0,00;;01/03/2019
31648923146;225,00;250,00;1,06;;01/01/2019
31648923156;225,00;250,00;0,00;;01/01/2019
31648923156;225,00;250,00;9,71;;01/02/2019
31648923156;225,00;250,00;2,35;;01/03/2019
31648923157;225,00;250,00;0,00;;01/03/2019
31648923168;225,00;250,00;0,00;;01/03/2019
31648923168;225,00;250,00;3,46;;01/02/2019
31648923168;225,00;250,00;3,73;;01/01/2019
31648923169;225,00;250,00;0,00;;01/01/2019
31648923169;18,00;20,00;0,00;;01/02/2019
31648923169;18,00;20,00;0,00;;01/03/2019
31648923170;225,00;250,00;0,00;;01/03/2019
31648923170;225,00;250,00;0,00;;01/02/2019
31648923170;225,00;250,00;5,06;;01/01/2019
31648923172;225,00;250,00;0,00;;01/01/2019
31648923172;225,00;250,00;0,00;;01/02/2019
31648923172;225,00;250,00;0,00;;01/03/2019
31648923177;225,00;250,00;0,00;;01/03/2019
31648923177;225,00;250,00;0,00;;01/02/2019
31648923177;225,00;250,00;0,00;;01/01/2019
31648923178;225,00;250,00;0,00;;01/01/2019
31648923178;225,00;250,00;0,77;;01/02/2019
31648923178;225,00;250,00;0,00;;01/03/2019
31648923188;225,00;250,00;0,00;;01/03/2019
31648923188;225,00;250,00;0,09;;01/02/2019
31648923188;225,00;250,00;0,00;;01/01/2019
31648923190;225,00;250,00;0,79;;01/01/2019
31648923190;225,00;250,00;0,00;;01/03/2019
31648923190;225,00;250,00;8,54;;01/02/2019
31648923192;225,00;250,00;0,00;;01/03/2019
31648923192;225,00;250,00;0,00;;01/02/2019
31648923192;225,00;250,00;0,00;;01/01/2019
31648923194;225,00;250,00;0,00;;01/01/2019
31648923194;225,00;250,00;0,00;;01/02/2019
31648923201;225,00;250,00;0,00;;01/03/2019
31648923202;225,00;250,00;0,00;;01/03/2019
31648923208;225,00;250,00;1,06;;01/03/2019
31648923208;225,00;250,00;0,15;;01/02/2019
31648923208;225,00;250,00;0,00;;01/01/2019
31648923210;225,00;250,00;13,58;;01/01/2019
31648923210;225,00;250,00;7,31;;01/02/2019
31648923210;225,00;250,00;0,00;;01/03/2019
31648923215;225,00;250,00;0,00;;01/03/2019
31648923215;225,00;250,00;0,00;;01/01/2019
31648923215;225,00;250,00;0,00;;01/02/2019
31648923216;225,00;250,00;0,00;;01/01/2019
31648923216;225,00;250,00;0,80;;01/02/2019
31648923216;225,00;250,00;0,00;;01/03/2019
31648923221;225,00;250,00;0,00;;01/03/2019
31648923221;225,00;250,00;0,00;;01/02/2019
31648923221;225,00;250,00;0,00;;01/01/2019
31648923222;225,00;250,00;0,09;;01/01/2019
31648923222;225,00;250,00;0,18;;01/02/2019
31648923222;225,00;250,00;0,00;;01/03/2019
31648923223;225,00;250,00;0,00;;01/03/2019
31648923223;225,00;250,00;0,00;;01/02/2019
31648923223;225,00;250,00;0,00;;01/01/2019
31648923224;225,00;250,00;0,73;;01/01/2019
31648923224;225,00;250,00;0,28;;01/02/2019
31648923224;225,00;250,00;49,72;;01/03/2019
31648923225;225,00;250,00;40,73;;01/03/2019
31648923225;225,00;250,00;0,00;;01/02/2019
31648923225;225,00;250,00;4,25;;01/01/2019
31648923226;225,00;250,00;31,01;;01/01/2019
31648923226;225,00;250,00;12,78;;01/02/2019
31648923226;225,00;250,00;0,00;;01/03/2019
31648923227;225,00;250,00;1,36;;01/03/2019
31648923227;225,00;250,00;4,26;;01/02/2019
31648923227;225,00;250,00;6,12;;01/01/2019
31648923229;225,00;250,00;0,00;;01/01/2019
31648923229;225,00;250,00;0,00;;01/02/2019
31648923229;225,00;250,00;0,00;;01/03/2019
31648923235;225,00;250,00;1,33;;01/03/2019
31648923235;225,00;250,00;0,53;;01/02/2019
31648923235;225,00;250,00;0,00;;01/01/2019
31648923240;225,00;250,00;3,99;;01/01/2019
31648923240;225,00;250,00;5,19;;01/02/2019
31648923240;225,00;250,00;0,00;;01/03/2019
31648923243;225,00;250,00;49,14;;01/03/2019
31648923243;225,00;250,00;16,01;;01/02/2019
31648923243;225,00;250,00;0,00;;01/01/2019
31648923247;225,00;250,00;0,00;;01/01/2019
31648923247;225,00;250,00;0,00;;01/02/2019
31648923247;225,00;250,00;0,00;;01/03/2019
31648923251;225,00;250,00;0,00;;01/03/2019
31648923251;225,00;250,00;0,17;;01/01/2019
31648923251;225,00;250,00;3,07;;01/02/2019
31648923252;225,00;250,00;4,26;;01/01/2019
31648923252;225,00;250,00;18,62;;01/03/2019
31648923252;225,00;250,00;5,24;;01/02/2019
31648923253;225,00;250,00;0,00;;01/03/2019
31648923253;225,00;250,00;0,00;;01/01/2019
31648923253;225,00;250,00;0,00;;01/02/2019
31648923257;225,00;250,00;0,00;;01/01/2019
31648923257;225,00;250,00;0,00;;01/03/2019
31648923257;225,00;250,00;0,00;;01/02/2019
31648923259;225,00;250,00;0,00;;01/02/2019
31648923259;225,00;250,00;0,00;;01/01/2019
31648923263;225,00;250,00;0,00;;01/01/2019
31648923263;225,00;250,00;0,00;;01/02/2019
31648923263;225,00;250,00;0,00;;01/03/2019
31648923266;225,00;250,00;34,97;;01/02/2019
31648923266;225,00;250,00;2,54;;01/03/2019
31648923266;225,00;250,00;0,00;;01/01/2019
31648923270;225,00;250,00;0,00;;01/01/2019
31648923270;225,00;250,00;0,00;;01/02/2019
31648923270;225,00;250,00;7,34;;01/03/2019
31648923271;225,00;250,00;0,00;;01/03/2019
31648923271;225,00;250,00;0,00;;01/02/2019
31648923271;225,00;250,00;0,01;;01/01/2019
31648923272;225,00;250,00;0,00;;01/01/2019
31648923272;225,00;250,00;4,79;;01/02/2019
31648923272;225,00;250,00;0,00;;01/03/2019
31648923274;225,00;250,00;0,00;;01/03/2019
31648923274;225,00;250,00;0,00;;01/01/2019
31648923274;225,00;250,00;0,00;;01/02/2019
31648923277;225,00;250,00;0,00;;01/01/2019
31648923277;225,00;250,00;0,00;;01/03/2019
31648923277;225,00;250,00;0,00;;01/02/2019
31648923278;225,00;250,00;0,00;;01/03/2019
31648923278;225,00;250,00;0,00;;01/01/2019
31648923278;225,00;250,00;0,00;;01/02/2019
31648923279;225,00;250,00;0,00;;01/01/2019
31648923279;225,00;250,00;0,00;;01/03/2019
31648923279;225,00;250,00;0,00;;01/02/2019
31648923284;225,00;250,00;1,86;;01/02/2019
31648923284;225,00;250,00;9,20;;01/03/2019
31648923286;225,00;250,00;0,00;;01/02/2019
31648923286;225,00;250,00;0,00;;01/03/2019
31648923289;225,00;250,00;0,00;;01/03/2019
31648923289;225,00;250,00;0,00;;01/02/2019
31648923292;225,00;250,00;0,00;;01/02/2019
31648923292;225,00;250,00;0,00;;01/03/2019
31648923296;225,00;250,00;0,00;;01/02/2019
31648923296;225,00;250,00;0,00;;01/03/2019
31648923303;225,00;250,00;2,93;;01/03/2019
31648923303;225,00;250,00;10,38;;01/02/2019
31648923305;225,00;250,00;0,66;;01/02/2019
31648923305;225,00;250,00;0,00;;01/03/2019
31648923313;225,00;250,00;0,00;;01/02/2019
31648923313;225,00;250,00;0,00;;01/03/2019
31648923316;225,00;250,00;22,67;;01/02/2019
31648923316;225,00;250,00;0,00;;01/03/2019
31648923320;225,00;250,00;0,00;;01/02/2019
31648923320;225,00;250,00;0,00;;01/03/2019
31648923325;225,00;250,00;0,00;;01/03/2019
31648923325;225,00;250,00;0,00;;01/02/2019
31648923328;225,00;250,00;0,00;;01/02/2019
31648923328;225,00;250,00;0,00;;01/03/2019
31648923333;225,00;250,00;0,00;;01/03/2019
31648923336;225,00;250,00;0,00;;01/03/2019
31648923346;225,00;250,00;0,00;;01/03/2019
31648923347;225,00;250,00;0,00;;01/03/2019
31648923352;225,00;250,00;0,00;;01/03/2019
31648923353;225,00;250,00;0,00;;01/03/2019
31648923354;225,00;250,00;0,00;;01/03/2019
31648923355;225,00;250,00;0,00;;01/03/2019
31648923358;225,00;250,00;0,00;;01/03/2019
31648923359;225,00;250,00;0,00;;01/03/2019
31648923364;225,00;250,00;0,00;;01/03/2019
31648923365;225,00;250,00;0,00;;01/03/2019
31648923367;225,00;250,00;0,00;;01/03/2019
31648923369;225,00;250,00;0,00;;01/03/2019
31648923372;225,00;250,00;0,00;;01/03/2019
31648923373;225,00;250,00;0,00;;01/03/2019
31648923389;225,00;250,00;0,00;;01/03/2019
31648923389;225,00;250,00;0,00;;01/01/2019
31648923389;225,00;250,00;0,00;;01/02/2019
31648923397;225,00;250,00;0,53;;01/03/2019
31648923397;225,00;250,00;0,00;;01/02/2019
31648923399;225,00;250,00;0,00;;01/02/2019
31648923399;225,00;250,00;0,00;;01/03/2019
31648923400;225,00;250,00;0,00;;01/02/2019
31648923400;225,00;250,00;0,00;;01/03/2019
31648923402;225,00;250,00;0,00;;01/02/2019
31648923402;225,00;250,00;70,93;;01/03/2019
31648923403;225,00;250,00;0,00;;01/03/2019
31648923403;225,00;250,00;0,00;;01/02/2019
31648923404;225,00;250,00;0,22;;01/02/2019
31648923404;225,00;250,00;0,00;;01/03/2019
31648923406;225,00;250,00;0,00;;01/02/2019
31648923406;225,00;250,00;0,00;;01/03/2019
31648923409;225,00;250,00;0,00;;01/03/2019
31648923409;225,00;250,00;0,00;;01/02/2019
31648923410;225,00;250,00;0,00;;01/02/2019
31648923410;225,00;250,00;0,53;;01/03/2019
31648923411;225,00;250,00;0,00;;01/03/2019
31648923411;225,00;250,00;0,00;;01/02/2019
31648923417;225,00;250,00;0,00;;01/02/2019
31648923417;225,00;250,00;0,00;;01/03/2019
31648923418;225,00;250,00;0,00;;01/03/2019
31648923425;225,00;250,00;0,00;;01/03/2019
31648923426;225,00;250,00;0,00;;01/03/2019
31648923468;225,00;250,00;0,00;;01/03/2019
31648923779;225,00;250,00;0,00;;01/03/2019
31648923780;225,00;250,00;0,45;;01/03/2019
31648923783;225,00;250,00;0,00;;01/03/2019
31648923786;225,00;250,00;0,00;;01/03/2019
31648923794;225,00;250,00;0,00;;01/03/2019
31648923799;225,00;250,00;0,00;;01/03/2019
31648923802;225,00;250,00;0,00;;01/03/2019
31648923812;225,00;250,00;7,62;;01/03/2019
31648923812;225,00;250,00;41,02;;01/02/2019
31648923812;225,00;250,00;36,74;;01/01/2019
31648923821;225,00;250,00;50,68;;01/02/2019
31648923821;225,00;250,00;54,16;;01/01/2019
31648923821;225,00;250,00;50,00;;01/03/2019
31648923823;225,00;250,00;0,00;;01/03/2019
31648923827;225,00;250,00;0,00;;01/03/2019
31648923827;225,00;250,00;0,00;;01/01/2019
31648923827;225,00;250,00;0,00;;01/02/2019
31648923832;225,00;250,00;6,37;;01/01/2019
31648923832;225,00;250,00;0,04;;01/02/2019
31648923832;225,00;250,00;0,00;;01/03/2019
31648923834;225,00;250,00;2,17;;01/03/2019
31648923834;225,00;250,00;4,46;;01/02/2019
31648923834;225,00;250,00;2,34;;01/01/2019
31648923841;225,00;250,00;0,00;;01/03/2019
31648923845;225,00;250,00;0,00;;01/03/2019
31648923852;225,00;250,00;1,27;;01/03/2019
31648923857;225,00;250,00;0,00;;01/03/2019
31648923863;225,00;250,00;0,00;;01/03/2019
31648923863;225,00;250,00;1,33;;01/02/2019
31648923863;225,00;250,00;5,06;;01/01/2019
31648923864;225,00;250,00;0,00;;01/01/2019
31648923864;225,00;250,00;0,00;;01/02/2019
31648923864;225,00;250,00;0,00;;01/03/2019
31643435416;225,00;250,00;0,00;;01/03/2019
31643435416;225,00;250,00;0,27;;01/01/2019
31643435416;225,00;250,00;1,89;;01/02/2019
31648923869;225,00;250,00;0,00;;01/02/2019
31648923869;225,00;250,00;0,00;;01/01/2019
31648923869;225,00;250,00;3,46;;01/03/2019
31648923870;18,00;20,00;0,00;;01/02/2019
31648923870;18,00;20,00;0,00;;01/03/2019
31648923870;225,00;250,00;38,51;;01/01/2019
31648923871;225,00;250,00;0,00;;01/01/2019
31648923871;225,00;250,00;0,00;;01/02/2019
31648923871;225,00;250,00;0,00;;01/03/2019
31648923875;18,00;20,00;0,00;;01/02/2019
31648923875;18,00;20,00;0,00;;01/03/2019
31648923875;225,00;250,00;0,00;;01/01/2019
31648923876;72,00;80,00;10,37;;01/01/2019
31648923876;18,00;20,00;1,60;;01/03/2019
31648923876;18,00;20,00;1,74;;01/02/2019
31648923877;18,00;20,00;0,00;;01/02/2019
31648923877;18,00;20,00;0,00;;01/03/2019
31648923877;225,00;250,00;0,00;;01/01/2019
31648923878;225,00;250,00;0,00;;01/01/2019
31648923878;18,00;20,00;0,00;;01/03/2019
31648923878;18,00;20,00;0,00;;01/02/2019
31639370723;225,00;250,00;0,00;;01/03/2019
31639370723;225,00;250,00;8,91;;01/01/2019
31639370723;225,00;250,00;0,00;;01/02/2019
31682743215;225,00;250,00;0,36;;01/02/2019
31682743215;225,00;250,00;0,00;;01/01/2019
31682743215;225,00;250,00;7,08;;01/03/2019
31630017545;72,00;80,00;3,34;;01/03/2019
31630017545;72,00;80,00;0,80;;01/02/2019
31630017545;72,00;80,00;11,83;;01/01/2019
31630018532;72,00;80,00;0,00;;01/01/2019
31630018532;72,00;80,00;0,00;;01/02/2019
31630018532;72,00;80,00;0,09;;01/03/2019
31654326263;72,00;80,00;9,22;;01/02/2019
31654326263;72,00;80,00;13,36;;01/01/2019
31651639277;72,00;80,00;10,19;;01/01/2019
31651639277;72,00;80,00;10,05;;01/02/2019
31651639277;72,00;80,00;4,79;;01/03/2019
31626066348;225,00;250,00;5,88;;01/03/2019
31626066348;225,00;250,00;1,05;;01/01/2019
31626066348;225,00;250,00;7,45;;01/02/2019
31651832710;72,00;80,00;0,00;;01/02/2019
31651832710;72,00;80,00;0,00;;01/01/2019
31651832710;72,00;80,00;0,00;;01/03/2019
31637008751;72,00;80,00;0,00;;01/01/2019
31640061179;72,00;80,00;0,58;;01/01/2019
31640061179;72,00;80,00;0,00;;01/02/2019
31640061179;72,00;80,00;0,00;;01/03/2019
31637009105;72,00;80,00;0,00;;01/02/2019
31637009105;72,00;80,00;0,00;;01/01/2019
31637007721;72,00;80,00;1,69;;01/01/2019
31637007721;72,00;80,00;1,69;;01/02/2019
31637007721;72,00;80,00;3,34;;01/03/2019
31637008142;72,00;80,00;0,00;;01/03/2019
31637008142;72,00;80,00;0,00;;01/02/2019
31637008142;72,00;80,00;0,00;;01/01/2019
31640023015;72,00;80,00;0,00;;01/01/2019
31640023015;72,00;80,00;0,00;;01/02/2019
31649406297;72,00;80,00;6,49;;01/02/2019
31649406297;72,00;80,00;3,56;;01/03/2019
31649406297;72,00;80,00;3,19;;01/01/2019
31642083318;225,00;250,00;97,46;;01/01/2019
31642083318;18,00;20,00;2,40;;01/03/2019
31642083318;18,00;20,00;2,29;;01/02/2019
31623874205;72,00;80,00;0,00;;01/02/2019
31623874205;72,00;80,00;0,00;;01/03/2019
31623874205;72,00;80,00;0,00;;01/01/2019
31648923919;225,00;250,00;0,00;;01/01/2019
31648923919;225,00;250,00;0,00;;01/02/2019
31648923919;225,00;250,00;0,00;;01/03/2019
31620553904;72,00;80,00;0,00;;01/02/2019
31620553904;72,00;80,00;0,00;;01/03/2019
31620553904;72,00;80,00;0,00;;01/01/2019
31610596020;72,00;80,00;0,00;;01/03/2019
31610596020;72,00;80,00;0,00;;01/02/2019
31649487281;225,00;250,00;84,84;;01/02/2019
31649487281;225,00;250,00;54,45;;01/03/2019
31649487281;225,00;250,00;104,46;;01/01/2019
31610001487;72,00;80,00;0,00;;01/01/2019
31610001487;72,00;80,00;0,00;;01/03/2019
31610001487;72,00;80,00;0,54;;01/02/2019
31648923943;225,00;250,00;0,00;;01/02/2019
31648923943;225,00;250,00;0,00;;01/03/2019
31648923943;225,00;250,00;0,00;;01/01/2019
31630030953;225,00;250,00;0,00;;01/01/2019
31630030953;225,00;250,00;2,06;;01/02/2019
31630030953;225,00;250,00;0,00;;01/03/2019
31613066416;225,00;250,00;0,00;;01/03/2019
31613066416;225,00;250,00;0,00;;01/02/2019
31613066416;225,00;250,00;0,08;;01/01/2019
31683717725;225,00;250,00;24,35;;01/01/2019
31683717725;225,00;250,00;81,90;;01/02/2019
31683717725;225,00;250,00;3,34;;01/03/2019
31648923972;225,00;250,00;0,00;;01/03/2019
31648923972;225,00;250,00;0,03;;01/01/2019
31648923972;225,00;250,00;0,00;;01/02/2019
31615625920;72,00;80,00;0,00;;01/03/2019
31648923974;225,00;250,00;0,00;;01/03/2019
31648923974;225,00;250,00;0,00;;01/02/2019
31648923974;225,00;250,00;0,00;;01/01/2019
31657830878;72,00;80,00;0,80;;01/01/2019
31657830878;72,00;80,00;2,93;;01/02/2019
31657830878;72,00;80,00;0,00;;01/03/2019
31648923981;225,00;250,00;0,00;;01/03/2019
31648923981;225,00;250,00;0,00;;01/01/2019
31648923981;225,00;250,00;0,00;;01/02/2019
31610011081;72,00;80,00;0,52;;01/02/2019
31610011081;72,00;80,00;2,02;;01/01/2019
31610011081;72,00;80,00;0,00;;01/03/2019
31610011231;72,00;80,00;1,06;;01/03/2019
31610011231;72,00;80,00;23,98;;01/01/2019
31610011231;72,00;80,00;1,69;;01/02/2019
31610011678;72,00;80,00;2,93;;01/02/2019
31610011678;72,00;80,00;0,00;;01/01/2019
31610011635;72,00;80,00;0,00;;01/01/2019
31610011635;72,00;80,00;0,00;;01/02/2019
31610011635;72,00;80,00;0,00;;01/03/2019
31610011669;18,00;20,00;0,00;;01/02/2019
31610011669;225,00;250,00;0,00;;01/01/2019
31685321481;72,00;80,00;9,85;;01/01/2019
31685321481;72,00;80,00;1,70;;01/02/2019
31685321481;72,00;80,00;34,78;;01/03/2019
31610011766;225,00;250,00;0,00;;01/03/2019
31610011766;225,00;250,00;0,00;;01/02/2019
31610011766;225,00;250,00;0,00;;01/01/2019
31610011865;225,00;250,00;0,69;;01/01/2019
31610011865;225,00;250,00;14,46;;01/02/2019
31610011865;225,00;250,00;0,00;;01/03/2019
31610011730;225,00;250,00;0,00;;01/03/2019
31610011730;225,00;250,00;0,00;;01/02/2019
31610011730;225,00;250,00;0,07;;01/01/2019
31610011846;225,00;250,00;2,93;;01/01/2019
31610011846;225,00;250,00;0,00;;01/02/2019
31610011773;225,00;250,00;0,00;;01/02/2019
31610011773;225,00;250,00;13,84;;01/01/2019
31610011739;225,00;250,00;0,00;;01/01/2019
31610011739;225,00;250,00;0,00;;01/02/2019
31610011739;225,00;250,00;0,00;;01/03/2019
31610011556-R;72,00;80,00;0,00;;01/02/2019
31610011556-R;72,00;80,00;0,00;;01/01/2019
31610011707;225,00;250,00;0,00;;01/01/2019
31610011707;225,00;250,00;0,00;;01/02/2019
31610011707;225,00;250,00;0,00;;01/03/2019
31645386939;225,00;250,00;1,60;;01/01/2019
31610011727;225,00;250,00;0,00;;01/01/2019
31610011727;225,00;250,00;0,00;;01/02/2019
31610011727;225,00;250,00;0,00;;01/03/2019
31610011889;225,00;250,00;0,00;;01/03/2019
31610011889;225,00;250,00;7,41;;01/02/2019
31610011889;225,00;250,00;0,03;;01/01/2019
31629349444;225,00;250,00;4,79;;01/01/2019
31629349444;225,00;250,00;3,47;;01/02/2019
31629349444;225,00;250,00;4,40;;01/03/2019
31615447823;225,00;250,00;103,69;;01/03/2019
31615447823;225,00;250,00;103,02;;01/02/2019
31615447823;225,00;250,00;84,10;;01/01/2019
31610011870;225,00;250,00;0,00;;01/01/2019
31610011870;225,00;250,00;0,00;;01/02/2019
31610011870;225,00;250,00;0,00;;01/03/2019
31682744441;72,00;80,00;5,59;;01/02/2019
31682744441;72,00;80,00;0,00;;01/03/2019
31682744441;72,00;80,00;4,53;;01/01/2019
31657835893;72,00;80,00;1,17;;01/01/2019
31657835893;72,00;80,00;3,65;;01/02/2019
31657835893;72,00;80,00;7,13;;01/03/2019
31621545033-R;72,00;80,00;2,88;;01/01/2019
31637007007;72,00;80,00;14,64;;01/01/2019
31637007007;72,00;80,00;18,10;;01/02/2019
31637007007;72,00;80,00;4,92;;01/03/2019
31657802717;72,00;80,00;12,57;;01/03/2019
31657802717;72,00;80,00;0,25;;01/02/2019
31657802717;72,00;80,00;2,68;;01/01/2019
31648924083;225,00;250,00;0,00;;01/01/2019
31648924083;18,00;20,00;0,00;;01/02/2019
31648924083;18,00;20,00;0,00;;01/03/2019
31648924084;18,00;20,00;0,00;;01/03/2019
31648924084;20,00;20,00;162,04;;01/02/2019
31648924084;225,00;250,00;175,70;;01/01/2019
31648924086;225,00;250,00;7,19;;01/01/2019
31648924086;225,00;250,00;0,00;;01/02/2019
31648924086;225,00;250,00;0,00;;01/03/2019
31648924087;225,00;250,00;0,00;;01/03/2019
31648924087;225,00;250,00;6,95;;01/01/2019
31648924087;225,00;250,00;0,19;;01/02/2019
31648924088;225,00;250,00;0,42;;01/02/2019
31648924088;225,00;250,00;2,19;;01/01/2019
31648924088;225,00;250,00;0,00;;01/03/2019
31630018653;72,00;80,00;1,60;;01/01/2019
31630018653;72,00;80,00;0,00;;01/02/2019
31630026619;72,00;80,00;0,53;;01/02/2019
31630026619;72,00;80,00;0,57;;01/01/2019
31630026619;72,00;80,00;0,00;;01/03/2019
31657838961;18,00;20,00;0,00;;01/03/2019
31657838961;72,00;80,00;0,00;;01/01/2019
31657838961;18,00;20,00;0,00;;01/02/2019
31610001513;72,00;80,00;0,00;;01/01/2019
31610010409;72,00;80,00;0,00;;01/01/2019
31610010409;18,00;20,00;0,00;;01/02/2019
31610010409;18,00;20,00;0,00;;01/03/2019
31610005490;72,00;80,00;0,26;;01/03/2019
31610005490;72,00;80,00;0,00;;01/02/2019
31610005490;72,00;80,00;0,00;;01/01/2019
31657840573;72,00;80,00;5,10;;01/01/2019
31657840573;72,00;80,00;0,54;;01/02/2019
31657840573;72,00;80,00;0,00;;01/03/2019
31648924115;225,00;250,00;14,71;;01/03/2019
31648924115;225,00;250,00;1,99;;01/02/2019
31648924115;225,00;250,00;7,10;;01/01/2019
31648924115;225,00;250,00;7,10;;01/01/2019
31630156853;72,00;80,00;18,02;;01/01/2019
31630156853;72,00;80,00;0,00;;01/02/2019
31630156853;72,00;80,00;0,00;;01/03/2019
31610010854;72,00;80,00;0,00;;01/03/2019
31610010854;72,00;80,00;0,00;;01/02/2019
31610010854;72,00;80,00;1,06;;01/01/2019
31610001428;72,00;80,00;1,39;;01/01/2019
31610001428;18,00;20,00;0,00;;01/02/2019
31610001428;18,00;20,00;0,00;;01/03/2019
31613545813;72,00;80,00;0,00;;01/03/2019
31613545813;72,00;80,00;1,86;;01/02/2019
31613545813;72,00;80,00;0,00;;01/01/2019
31610001383;225,00;250,00;7,36;;01/01/2019
31610001383;225,00;250,00;0,02;;01/02/2019
31610001383;225,00;250,00;0,00;;01/03/2019
31657840319;72,00;80,00;0,00;;01/03/2019
31657840319;72,00;80,00;0,12;;01/01/2019
31657840319;72,00;80,00;0,05;;01/02/2019
31610011531;225,00;250,00;12,37;;01/02/2019
31610011531;225,00;250,00;7,85;;01/01/2019
31610011531;225,00;250,00;0,40;;01/03/2019
31610010399;72,00;80,00;0,00;;01/03/2019
31610010399;72,00;80,00;1,86;;01/01/2019
31610010399;72,00;80,00;0,00;;01/02/2019
31633499789;72,00;80,00;0,00;;01/01/2019
31633499789;72,00;80,00;0,00;;01/02/2019
31633499789;72,00;80,00;0,00;;01/03/2019
31610010228;72,00;80,00;0,00;;01/03/2019
31610010228;72,00;80,00;0,00;;01/01/2019
31610010228;72,00;80,00;0,00;;01/02/2019
31613066976;225,00;250,00;19,25;;01/02/2019
31613066976;225,00;250,00;13,43;;01/01/2019
31613066976;225,00;250,00;52,62;;01/03/2019
31610011873;225,00;250,00;0,00;;01/03/2019
31610011873;225,00;250,00;20,48;;01/01/2019
31610011873;225,00;250,00;2,60;;01/02/2019
31657830469;72,00;80,00;0,00;;01/01/2019
31610011874;225,00;250,00;0,00;;01/01/2019
31610011874;18,00;20,00;0,00;;01/02/2019
31610011874;18,00;20,00;0,00;;01/03/2019
31610011013;72,00;80,00;0,00;;01/02/2019
31610011013;72,00;80,00;29,94;;01/03/2019
31610011013;72,00;80,00;0,00;;01/01/2019
31610011012;72,00;80,00;0,02;;01/01/2019
31610011012;72,00;80,00;1,23;;01/03/2019
31610011012;72,00;80,00;0,56;;01/02/2019
31610010997;72,00;80,00;3,21;;01/02/2019
31610010997;72,00;80,00;0,00;;01/03/2019
31610010997;72,00;80,00;1,86;;01/01/2019
31610005449;72,00;80,00;2,67;;01/01/2019
31610005449;72,00;80,00;2,42;;01/02/2019
31610005449;72,00;80,00;0,00;;01/03/2019
31657829695;72,00;80,00;0,00;;01/03/2019
31657829695;72,00;80,00;0,00;;01/02/2019
31657829695;72,00;80,00;1,60;;01/01/2019
31657831475;72,00;80,00;0,00;;01/01/2019
31657831475;72,00;80,00;3,46;;01/02/2019
31657831475;72,00;80,00;0,00;;01/03/2019
31657842538;72,00;80,00;8,93;;01/03/2019
31657842538;72,00;80,00;1,22;;01/02/2019
31657842538;72,00;80,00;0,00;;01/01/2019
31657842584;72,00;80,00;0,00;;01/01/2019
31657842584;72,00;80,00;0,03;;01/02/2019
31657842584;72,00;80,00;0,59;;01/03/2019
31630033132;72,00;80,00;0,00;;01/03/2019
31630033132;72,00;80,00;0,00;;01/02/2019
31630033132;72,00;80,00;0,27;;01/01/2019
31630034077;72,00;80,00;4,26;;01/01/2019
31630034077;72,00;80,00;0,00;;01/02/2019
31630034077;72,00;80,00;0,00;;01/03/2019
31630023685;72,00;80,00;0,00;;01/03/2019
31630023685;72,00;80,00;10,41;;01/02/2019
31630023685;72,00;80,00;0,00;;01/01/2019
31630034311;72,00;80,00;0,59;;01/01/2019
31630034311;72,00;80,00;0,00;;01/02/2019
31630034311;72,00;80,00;0,00;;01/03/2019
31610010214;72,00;80,00;0,00;;01/03/2019
31610010214;72,00;80,00;0,39;;01/02/2019
31610010214;72,00;80,00;0,05;;01/01/2019
31657829222;72,00;80,00;15,70;;01/01/2019
31657829222;72,00;80,00;0,78;;01/02/2019
31657829222;72,00;80,00;0,00;;01/03/2019
31657802229;72,00;80,00;0,00;;01/03/2019
31657802229;72,00;80,00;0,25;;01/02/2019
31657802229;72,00;80,00;0,03;;01/01/2019
31610001511;72,00;80,00;50,36;;01/01/2019
31610001511;72,00;80,00;0,32;;01/02/2019
31610001511;72,00;80,00;0,00;;01/03/2019
31649869736;72,00;80,00;26,80;;01/03/2019
31649869736;72,00;80,00;10,97;;01/02/2019
31649869736;72,00;80,00;1,36;;01/01/2019
31630017553;225,00;250,00;0,13;;01/01/2019
31630017553;225,00;250,00;0,62;;01/02/2019
31630017553;225,00;250,00;0,00;;01/03/2019
31630017314;225,00;250,00;0,00;;01/03/2019
31630017314;225,00;250,00;1,60;;01/02/2019
31630017314;225,00;250,00;0,00;;01/01/2019
31613509709;225,00;250,00;0,00;;01/01/2019
31613509709;225,00;250,00;0,00;;01/02/2019
31613509709;225,00;250,00;0,00;;01/03/2019
31630016622;225,00;250,00;0,00;;01/03/2019
31630016622;225,00;250,00;0,96;;01/02/2019
31630016622;225,00;250,00;0,18;;01/01/2019
31630015936;225,00;250,00;0,00;;01/01/2019
31630015936;225,00;250,00;0,00;;01/02/2019
31630015936;225,00;250,00;0,00;;01/03/2019
31646076097;225,00;250,00;0,00;;01/03/2019
31646076097;225,00;250,00;0,18;;01/02/2019
31646076097;225,00;250,00;0,00;;01/01/2019
31630000331;225,00;250,00;2,95;;01/01/2019
31630000331;225,00;250,00;0,12;;01/02/2019
31630000331;225,00;250,00;2,95;;01/03/2019
31613557432;225,00;250,00;0,00;;01/03/2019
31613557432;225,00;250,00;0,62;;01/02/2019
31613557432;225,00;250,00;23,84;;01/01/2019
31613556380;225,00;250,00;6,49;;01/01/2019
31613556380;225,00;250,00;0,13;;01/02/2019
31613556380;225,00;250,00;0,00;;01/03/2019
31613556280;225,00;250,00;0,00;;01/02/2019
31613556280;225,00;250,00;0,00;;01/03/2019
31610011683;225,00;250,00;0,00;;01/03/2019
31610011683;225,00;250,00;0,00;;01/02/2019
31610011683;225,00;250,00;0,00;;01/01/2019
31648924226;225,00;250,00;0,00;;01/01/2019
31648924226;225,00;250,00;0,00;;01/02/2019
31648924226;225,00;250,00;0,00;;01/03/2019
31610011514;225,00;250,00;0,00;;01/03/2019
31610011514;225,00;250,00;0,20;;01/02/2019
31610011514;225,00;250,00;0,00;;01/01/2019
31610010743;675,00;750,00;28,85;;01/01/2019
31610010743;675,00;750,00;28,85;;01/01/2019
31610010743;675,00;750,00;28,85;;01/01/2019
31610010743;675,00;750,00;28,85;;01/01/2019
31610010743;675,00;750,00;28,85;;01/01/2019
31610010743;675,00;750,00;28,85;;01/01/2019
31610010743;675,00;750,00;28,85;;01/01/2019
31610010743;675,00;750,00;28,31;;01/02/2019
31610010743;675,00;750,00;0,00;;01/03/2019
31610010741;72,00;80,00;0,00;;01/03/2019
31610010741;72,00;80,00;0,00;;01/01/2019
31610010741;72,00;80,00;0,00;;01/02/2019
31610005447;225,00;250,00;0,00;;01/02/2019
31610005447;225,00;250,00;0,00;;01/01/2019
31610005447;225,00;250,00;0,00;;01/03/2019
31610010302;225,00;250,00;0,00;;01/03/2019
31610010302;225,00;250,00;0,00;;01/01/2019
31610010302;225,00;250,00;0,12;;01/02/2019
31610010282;225,00;250,00;0,00;;01/02/2019
31610010282;225,00;250,00;0,00;;01/01/2019
31610010282;225,00;250,00;0,00;;01/03/2019
31610000767;225,00;250,00;0,00;;01/03/2019
31610000767;225,00;250,00;3,50;;01/01/2019
31610000767;225,00;250,00;0,00;;01/02/2019
31610000758;225,00;250,00;0,00;;01/02/2019
31610000758;225,00;250,00;0,00;;01/01/2019
31610000758;225,00;250,00;0,00;;01/03/2019
31610000759;225,00;250,00;0,00;;01/03/2019
31610000759;225,00;250,00;0,02;;01/01/2019
31610000759;225,00;250,00;0,02;;01/01/2019
31610000759;225,00;250,00;0,60;;01/02/2019
31657803230;225,00;250,00;1,74;;01/02/2019
31657803230;225,00;250,00;0,48;;01/01/2019
31657803230;225,00;250,00;0,00;;01/03/2019
31630155635;225,00;250,00;0,00;;01/03/2019
31630155635;225,00;250,00;0,81;;01/01/2019
31630155635;225,00;250,00;3,60;;01/02/2019
31630155682;225,00;250,00;0,00;;01/02/2019
31630155682;225,00;250,00;0,00;;01/01/2019
31630155682;225,00;250,00;0,00;;01/03/2019
31657835941;225,00;250,00;0,00;;01/03/2019
31657835941;225,00;250,00;0,00;;01/01/2019
31657835941;225,00;250,00;0,00;;01/02/2019
31657832701;225,00;250,00;0,02;;01/02/2019
31657832701;225,00;250,00;0,00;;01/01/2019
31657832701;225,00;250,00;0,00;;01/03/2019
31657803462;225,00;250,00;0,00;;01/03/2019
31657803462;225,00;250,00;0,27;;01/01/2019
31657803462;225,00;250,00;0,00;;01/02/2019
31657803187;225,00;250,00;0,00;;01/01/2019
31657803187;225,00;250,00;0,02;;01/02/2019
31657803187;225,00;250,00;0,00;;01/03/2019
31615071920-R;225,00;250,00;0,00;;01/03/2019
31615071920-R;225,00;250,00;3,15;;01/01/2019
31615071920-R;225,00;250,00;0,69;;01/02/2019
31657802472;225,00;250,00;0,03;;01/02/2019
31657802472;225,00;250,00;11,39;;01/01/2019
31657802472;225,00;250,00;0,00;;01/03/2019
31657802375;225,00;250,00;0,00;;01/03/2019
31657802375;225,00;250,00;0,00;;01/01/2019
31657802375;225,00;250,00;0,00;;01/02/2019
31657802243;225,00;250,00;0,00;;01/02/2019
31657802243;225,00;250,00;0,59;;01/01/2019
31657802243;225,00;250,00;0,00;;01/03/2019
31657803200;225,00;250,00;50,00;;01/03/2019
31657803200;225,00;250,00;0,00;;01/01/2019
31657803200;225,00;250,00;0,00;;01/02/2019
31657802778;225,00;250,00;0,34;;01/01/2019
31657802778;225,00;250,00;3,39;;01/02/2019
31657802778;225,00;250,00;1,56;;01/03/2019
31630029793;225,00;250,00;0,00;;01/02/2019
31630029793;225,00;250,00;0,28;;01/01/2019
31630029389;225,00;250,00;0,00;;01/02/2019
31630027524;225,00;250,00;0,48;;01/02/2019
31630027524;225,00;250,00;0,28;;01/03/2019
31630027524;225,00;250,00;0,00;;01/01/2019
31630027146;225,00;250,00;0,00;;01/01/2019
31630027146;225,00;250,00;0,00;;01/02/2019
31630026710;225,00;250,00;0,28;;01/03/2019
31630026455;225,00;250,00;1,10;;01/02/2019
31630025976;225,00;250,00;0,00;;01/02/2019
31630025976;225,00;250,00;0,28;;01/03/2019
31630025249;225,00;250,00;0,28;;01/03/2019
31630024079;225,00;250,00;0,00;;01/03/2019
31630024079;225,00;250,00;0,00;;01/02/2019
31630024079;225,00;250,00;0,00;;01/01/2019
31630025023;225,00;250,00;0,00;;01/01/2019
31630025023;225,00;250,00;0,00;;01/02/2019
31630025023;225,00;250,00;0,00;;01/03/2019
31657800741;225,00;250,00;0,00;;01/03/2019
31657800741;225,00;250,00;0,01;;01/02/2019
31657800741;225,00;250,00;0,00;;01/01/2019
31657800684;225,00;250,00;0,00;;01/01/2019
31657800684;225,00;250,00;0,00;;01/02/2019
31657800684;225,00;250,00;0,00;;01/03/2019
31630035017;225,00;250,00;0,53;;01/03/2019
31630035017;225,00;250,00;0,05;;01/02/2019
31630035017;225,00;250,00;0,01;;01/01/2019
31630034495;225,00;250,00;0,02;;01/01/2019
31630034495;225,00;250,00;0,56;;01/02/2019
31630034495;225,00;250,00;0,00;;01/03/2019
31630033554;225,00;250,00;0,00;;01/03/2019
31630033554;225,00;250,00;0,00;;01/02/2019
31630033554;225,00;250,00;0,24;;01/01/2019
31630032685;225,00;250,00;0,00;;01/01/2019
31630032685;225,00;250,00;0,00;;01/02/2019
31630032685;225,00;250,00;0,00;;01/03/2019
31630032566;225,00;250,00;0,00;;01/03/2019
31630032566;225,00;250,00;0,12;;01/02/2019
31630032566;225,00;250,00;0,00;;01/01/2019
31630032566;225,00;250,00;0,00;;01/01/2019
31630032566;225,00;250,00;0,00;;01/01/2019
31630032394;225,00;250,00;0,00;;01/01/2019
31630032394;225,00;250,00;0,00;;01/02/2019
31630032394;225,00;250,00;0,00;;01/03/2019
31630030219;225,00;250,00;0,00;;01/03/2019
31630030219;225,00;250,00;0,00;;01/02/2019
31630030219;225,00;250,00;0,00;;01/01/2019
31630030141;225,00;250,00;0,00;;01/01/2019
31630030141;225,00;250,00;0,00;;01/02/2019
31630030141;225,00;250,00;0,00;;01/03/2019
31630032084;225,00;250,00;0,00;;01/03/2019
31630032084;225,00;250,00;0,00;;01/02/2019
31630032084;225,00;250,00;0,00;;01/01/2019
31630031437;225,00;250,00;1,86;;01/01/2019
31630031437;225,00;250,00;0,00;;01/02/2019
31630031437;225,00;250,00;0,00;;01/03/2019
31630029814;225,00;250,00;0,59;;01/03/2019
31630029814;225,00;250,00;0,00;;01/02/2019
31630029814;225,00;250,00;0,00;;01/01/2019
31630020370;225,00;250,00;3,66;;01/01/2019
31630020370;225,00;250,00;0,49;;01/02/2019
31630020370;225,00;250,00;42,45;;01/03/2019
31630022318;225,00;250,00;0,00;;01/03/2019
31630022318;225,00;250,00;1,06;;01/02/2019
31630022318;225,00;250,00;2,13;;01/01/2019
31630024831;225,00;250,00;0,00;;01/01/2019
31630024831;225,00;250,00;0,03;;01/02/2019
31630024831;225,00;250,00;0,00;;01/03/2019
31630019786;225,00;250,00;0,00;;01/03/2019
31630019786;225,00;250,00;0,00;;01/02/2019
31630019786;225,00;250,00;0,74;;01/01/2019
31657801871;225,00;250,00;0,72;;01/01/2019
31657801871;225,00;250,00;10,53;;01/02/2019
31657801871;225,00;250,00;12,28;;01/03/2019
31683945386;225,00;250,00;0,00;;01/03/2019
31683945386;225,00;250,00;0,00;;01/02/2019
31683945386;225,00;250,00;0,00;;01/01/2019
31683945281;225,00;250,00;0,58;;01/01/2019
31683945281;225,00;250,00;0,49;;01/02/2019
31683945281;225,00;250,00;53,66;;01/03/2019
31683945006;225,00;250,00;0,00;;01/03/2019
31683945006;225,00;250,00;0,00;;01/02/2019
31683945006;225,00;250,00;0,00;;01/01/2019
31681405792;225,00;250,00;0,00;;01/01/2019
31681405792;225,00;250,00;0,53;;01/02/2019
31681405792;225,00;250,00;0,00;;01/03/2019
31683944926;225,00;250,00;1,15;;01/03/2019
31683944926;225,00;250,00;0,00;;01/02/2019
31683944926;225,00;250,00;1,29;;01/01/2019
31683946739;225,00;250,00;0,00;;01/01/2019
31683946739;225,00;250,00;2,49;;01/02/2019
31683946739;225,00;250,00;0,00;;01/03/2019
31683946836;225,00;250,00;22,41;;01/03/2019
31683946836;225,00;250,00;0,00;;01/02/2019
31683946836;225,00;250,00;0,27;;01/01/2019
31683946827;225,00;250,00;0,27;;01/01/2019
31683946827;225,00;250,00;0,80;;01/02/2019
31683946827;225,00;250,00;0,59;;01/03/2019
31683946064;225,00;250,00;8,93;;01/03/2019
31683946064;225,00;250,00;0,00;;01/02/2019
31683946064;225,00;250,00;0,00;;01/01/2019
31683945918;225,00;250,00;0,59;;01/01/2019
31683945918;225,00;250,00;13,52;;01/02/2019
31683945918;225,00;250,00;0,00;;01/03/2019
31683946166;225,00;250,00;0,00;;01/03/2019
31683946166;225,00;250,00;0,00;;01/02/2019
31683946166;225,00;250,00;0,27;;01/01/2019
31683945702;225,00;250,00;0,07;;01/01/2019
31683945702;225,00;250,00;0,19;;01/02/2019
31683945702;225,00;250,00;0,00;;01/03/2019
31683945664;225,00;250,00;0,00;;01/03/2019
31683945664;225,00;250,00;0,00;;01/02/2019
31683945664;225,00;250,00;1,36;;01/01/2019
31683945541;225,00;250,00;0,00;;01/01/2019
31683945541;225,00;250,00;0,00;;01/02/2019
31683945541;225,00;250,00;0,00;;01/03/2019
31683945487;225,00;250,00;43,04;;01/02/2019
31683945487;225,00;250,00;69,59;;01/03/2019
31683945487;225,00;250,00;48,98;;01/01/2019
31683945394;225,00;250,00;0,02;;01/01/2019
31683945394;225,00;250,00;0,66;;01/02/2019
31683945394;225,00;250,00;0,00;;01/03/2019
31682740703;225,00;250,00;0,00;;01/03/2019
31682740703;225,00;250,00;0,11;;01/02/2019
31682740703;225,00;250,00;1,26;;01/01/2019
31682542814;225,00;250,00;4,17;;01/01/2019
31682542814;225,00;250,00;0,36;;01/02/2019
31682542814;225,00;250,00;0,00;;01/03/2019
31682541736;225,00;250,00;0,00;;01/03/2019
31682541736;225,00;250,00;0,01;;01/02/2019
31682541736;225,00;250,00;0,00;;01/01/2019
31683946743;225,00;250,00;7,32;;01/01/2019
31683946743;225,00;250,00;0,00;;01/02/2019
31683946743;225,00;250,00;0,00;;01/03/2019
31682541535;225,00;250,00;1,80;;01/02/2019
31682541535;225,00;250,00;1,21;;01/03/2019
31682541535;225,00;250,00;0,34;;01/01/2019
31682540581;225,00;250,00;0,12;;01/02/2019
31682540581;225,00;250,00;0,02;;01/01/2019
31682540581;225,00;250,00;0,00;;01/03/2019
31682538208;225,00;250,00;0,00;;01/03/2019
31682538208;225,00;250,00;0,00;;01/01/2019
31682538208;225,00;250,00;0,00;;01/02/2019
31683947166;225,00;250,00;0,00;;01/02/2019
31683947166;225,00;250,00;0,00;;01/01/2019
31683947166;225,00;250,00;0,00;;01/03/2019
31613068404;225,00;250,00;0,00;;01/03/2019
31613068404;225,00;250,00;0,00;;01/01/2019
31613068404;225,00;250,00;0,00;;01/02/2019
31683946976;225,00;250,00;0,00;;01/02/2019
31683946976;225,00;250,00;0,00;;01/01/2019
31683946976;225,00;250,00;0,00;;01/03/2019
31637096060;675,00;750,00;85,60;;01/03/2019
31637096060;675,00;750,00;91,50;;01/01/2019
31637096060;675,00;750,00;113,18;;01/02/2019
31683946972;675,00;750,00;50,55;;01/02/2019
31683946972;675,00;750,00;291,85;;01/01/2019
31683946972;675,00;750,00;40,31;;01/03/2019
31611166508;225,00;250,00;0,00;;01/03/2019
31611166508;225,00;250,00;6,39;;01/01/2019
31611166508;225,00;250,00;0,00;;01/02/2019
31611282359;225,00;250,00;4,88;;01/02/2019
31611282359;225,00;250,00;11,88;;01/01/2019
31611282359;225,00;250,00;56,02;;01/03/2019
31683946856;225,00;250,00;1,04;;01/02/2019
31683946856;225,00;250,00;9,23;;01/03/2019
31683946856;225,00;250,00;0,28;;01/01/2019
31610743588;225,00;250,00;0,28;;01/01/2019
31682743140;72,00;80,00;50,00;;01/02/2019
31682743140;225,00;250,00;15,26;;01/01/2019
31682740879;225,00;250,00;0,00;;01/01/2019
31682740879;225,00;250,00;0,00;;01/02/2019
31682740879;225,00;250,00;0,00;;01/03/2019
31682539783;225,00;250,00;0,00;;01/03/2019
31682539783;225,00;250,00;29,02;;01/02/2019
31682539783;225,00;250,00;10,03;;01/01/2019
31682539053;225,00;250,00;0,68;;01/01/2019
31613556107;225,00;250,00;0,00;;01/01/2019
31613556107;225,00;250,00;0,00;;01/02/2019
31613556107;225,00;250,00;0,00;;01/03/2019
31613555643;225,00;250,00;0,14;;01/02/2019
31613555643;225,00;250,00;0,00;;01/03/2019
31613555643;225,00;250,00;0,00;;01/01/2019
31631974557;225,00;250,00;0,00;;01/01/2019
31631974557;225,00;250,00;3,18;;01/02/2019
31631974557;225,00;250,00;0,00;;01/03/2019
31613554358;225,00;250,00;53,25;;01/03/2019
31613554358;225,00;250,00;0,15;;01/02/2019
31613554358;225,00;250,00;0,06;;01/01/2019
31613553417;225,00;250,00;0,00;;01/01/2019
31613553417;225,00;250,00;0,00;;01/02/2019
31613553417;225,00;250,00;0,00;;01/03/2019
31613552590;225,00;250,00;0,00;;01/03/2019
31613552590;225,00;250,00;0,00;;01/02/2019
31613552590;225,00;250,00;13,31;;01/01/2019
31613552436;225,00;250,00;0,00;;01/01/2019
31613552436;225,00;250,00;0,00;;01/02/2019
31613552436;225,00;250,00;0,00;;01/03/2019
31637095588;225,00;250,00;17,10;;01/03/2019
31637095588;225,00;250,00;3,22;;01/02/2019
31637095588;225,00;250,00;2,07;;01/01/2019
31682745379;225,00;250,00;0,12;;01/01/2019
31682745379;225,00;250,00;0,08;;01/02/2019
31682745379;225,00;250,00;0,00;;01/03/2019
31637089280;225,00;250,00;0,02;;01/02/2019
31637089280;225,00;250,00;0,00;;01/03/2019
31637089280;225,00;250,00;0,03;;01/01/2019
31682744797;225,00;250,00;0,00;;01/01/2019
31682744797;225,00;250,00;1,72;;01/02/2019
31682744797;225,00;250,00;0,00;;01/03/2019
31630023297;225,00;250,00;0,00;;01/03/2019
31630023297;225,00;250,00;1,55;;01/02/2019
31630023297;225,00;250,00;0,31;;01/01/2019
31682744604;225,00;250,00;0,00;;01/01/2019
31682744604;225,00;250,00;0,00;;01/02/2019
31682744604;225,00;250,00;0,00;;01/03/2019
31682744356;225,00;250,00;0,00;;01/03/2019
31682744356;225,00;250,00;0,00;;01/02/2019
31682744356;225,00;250,00;0,00;;01/01/2019
31637095567;225,00;250,00;0,00;;01/03/2019
31682744310;675,00;750,00;0,00;;01/03/2019
31682744310;675,00;750,00;30,66;;01/01/2019
31682744310;675,00;750,00;0,01;;01/02/2019
31682744305;225,00;250,00;3,73;;01/02/2019
31682744305;225,00;250,00;0,00;;01/01/2019
31682744305;225,00;250,00;0,00;;01/03/2019
31682743815;225,00;250,00;0,00;;01/03/2019
31682743815;225,00;250,00;10,56;;01/01/2019
31682743815;225,00;250,00;0,00;;01/02/2019
31682743525;225,00;250,00;0,00;;01/02/2019
31682743525;225,00;250,00;0,00;;01/01/2019
31682743525;225,00;250,00;0,00;;01/03/2019
31682743837;225,00;250,00;0,00;;01/03/2019
31682743837;225,00;250,00;0,00;;01/01/2019
31682743837;225,00;250,00;0,00;;01/02/2019
31682743990;225,00;250,00;4,13;;01/02/2019
31682743990;225,00;250,00;4,39;;01/01/2019
31682743990;225,00;250,00;7,03;;01/03/2019
31682744287;225,00;250,00;9,93;;01/03/2019
31682744287;225,00;250,00;0,00;;01/01/2019
31682744287;225,00;250,00;0,24;;01/02/2019
31682744027;225,00;250,00;0,00;;01/02/2019
31682744027;225,00;250,00;0,00;;01/01/2019
31682744027;225,00;250,00;0,00;;01/03/2019
31682743412;225,00;250,00;0,00;;01/03/2019
31682743412;225,00;250,00;0,00;;01/01/2019
31682743412;225,00;250,00;0,00;;01/02/2019
31682743376;225,00;250,00;0,00;;01/02/2019
31682743376;225,00;250,00;0,88;;01/01/2019
31682743376;225,00;250,00;0,00;;01/03/2019
31682743231;225,00;250,00;7,19;;01/03/2019
31682743231;225,00;250,00;99,93;;01/01/2019
31682743231;225,00;250,00;142,13;;01/02/2019
31648924435;225,00;250,00;0,00;;01/02/2019
31648924435;225,00;250,00;0,00;;01/01/2019
31648924435;225,00;250,00;0,00;;01/03/2019
31682743166;225,00;250,00;7,67;;01/03/2019
31682743166;225,00;250,00;0,09;;01/01/2019
31682743166;225,00;250,00;0,32;;01/02/2019
31683946564;225,00;250,00;0,12;;01/02/2019
31683946564;225,00;250,00;24,81;;01/01/2019
31683946564;225,00;250,00;0,00;;01/03/2019
31613542231;225,00;250,00;0,00;;01/03/2019
31613542231;225,00;250,00;0,01;;01/01/2019
31613542231;225,00;250,00;0,00;;01/02/2019
31613533883;225,00;250,00;22,89;;01/02/2019
31613533883;225,00;250,00;0,07;;01/01/2019
31613533883;225,00;250,00;11,80;;01/03/2019
31613542961;225,00;250,00;0,00;;01/03/2019
31613542961;225,00;250,00;1,58;;01/01/2019
31613542961;225,00;250,00;0,00;;01/02/2019
31613508734;225,00;250,00;0,59;;01/02/2019
31613508734;225,00;250,00;0,19;;01/01/2019
31613508734;225,00;250,00;0,00;;01/03/2019
31613310793;225,00;250,00;0,00;;01/03/2019
31613310793;225,00;250,00;2,93;;01/01/2019
31613310793;225,00;250,00;0,00;;01/02/2019
31637095596;225,00;250,00;0,14;;01/02/2019
31637095596;225,00;250,00;0,00;;01/01/2019
31637095596;225,00;250,00;9,53;;01/03/2019
31637009184;225,00;250,00;0,00;;01/03/2019
31637009184;225,00;250,00;12,17;;01/01/2019
31637009184;225,00;250,00;0,15;;01/02/2019
31637089303;225,00;250,00;1,86;;01/02/2019
31637089303;225,00;250,00;4,42;;01/01/2019
31637089303;225,00;250,00;2,12;;01/03/2019
31637009380;225,00;250,00;2,41;;01/03/2019
31637009380;225,00;250,00;7,37;;01/01/2019
31637009380;225,00;250,00;8,34;;01/02/2019
31649485829;225,00;250,00;14,35;;01/01/2019
31649485829;225,00;250,00;8,14;;01/02/2019
31649485829;225,00;250,00;4,68;;01/03/2019
31637008803;225,00;250,00;0,07;;01/03/2019
31637008803;225,00;250,00;0,59;;01/02/2019
31637008803;225,00;250,00;3,91;;01/01/2019
31648924464;225,00;250,00;0,00;;01/02/2019
31648924464;225,00;250,00;0,00;;01/01/2019
31648924464;225,00;250,00;0,00;;01/03/2019
31637096040;225,00;250,00;1,90;;01/02/2019
31637096040;225,00;250,00;2,05;;01/03/2019
31637096040;225,00;250,00;4,42;;01/01/2019
31648341103;225,00;250,00;0,00;;01/03/2019
31648341103;225,00;250,00;0,00;;01/02/2019
31611180932;225,00;250,00;0,00;;01/03/2019
31611180932;225,00;250,00;0,09;;01/02/2019
31611180932;225,00;250,00;2,99;;01/01/2019
31637008589;225,00;250,00;117,11;;01/01/2019
31637008589;225,00;250,00;2,71;;01/02/2019
31637008589;250,00;250,00;249,94;;01/03/2019
31627421617;225,00;250,00;0,23;;01/01/2019
31637003588;225,00;250,00;25,37;;01/02/2019
31637003588;225,00;250,00;9,46;;01/01/2019
31637003588;225,00;250,00;4,53;;01/03/2019
31615538593;225,00;250,00;2,43;;01/02/2019
31615538593;225,00;250,00;7,02;;01/03/2019
31615538593;225,00;250,00;8,46;;01/01/2019
31637103588;225,00;250,00;0,24;;01/03/2019
31637103588;225,00;250,00;0,49;;01/02/2019
31637008246;225,00;250,00;0,00;;01/03/2019
31637008246;225,00;250,00;31,57;;01/02/2019
31637008246;225,00;250,00;97,27;;01/01/2019
31637009329;225,00;250,00;0,00;;01/01/2019
31637009329;225,00;250,00;0,05;;01/02/2019
31637009329;225,00;250,00;0,00;;01/03/2019
31637095580;225,00;250,00;0,00;;01/03/2019
31637095580;225,00;250,00;0,00;;01/02/2019
31637095580;225,00;250,00;2,31;;01/01/2019
31613557411;72,00;80,00;5,62;;01/01/2019
31613557411;72,00;80,00;0,00;;01/02/2019
31613557411;72,00;80,00;0,00;;01/03/2019
31610011173;72,00;80,00;53,40;;01/03/2019
31610011173;72,00;80,00;0,05;;01/02/2019
31610011173;72,00;80,00;0,00;;01/01/2019
31610011105;72,00;80,00;48,30;;01/01/2019
31610011105;72,00;80,00;0,00;;01/02/2019
31610011105;72,00;80,00;0,00;;01/03/2019
31610011210;72,00;80,00;2,66;;01/03/2019
31610011210;72,00;80,00;0,33;;01/02/2019
31610011210;72,00;80,00;2,14;;01/01/2019
31610011241;72,00;80,00;0,00;;01/01/2019
31610011241;18,00;20,00;0,00;;01/02/2019
31610011241;18,00;20,00;0,00;;01/03/2019
31610011142;72,00;80,00;0,00;;01/03/2019
31610011142;72,00;80,00;0,00;;01/02/2019
31610011142;72,00;80,00;0,00;;01/01/2019
31610011536;225,00;250,00;0,09;;01/01/2019
31610011536;225,00;250,00;0,00;;01/02/2019
31610011536;225,00;250,00;0,00;;01/03/2019
31610010959;72,00;80,00;0,00;;01/03/2019
31610010959;72,00;80,00;0,00;;01/01/2019
31610010959;72,00;80,00;0,00;;01/02/2019
31610011037;72,00;80,00;0,53;;01/01/2019
31610011037;72,00;80,00;0,38;;01/02/2019
31610011037;72,00;80,00;0,00;;01/03/2019
31610011055;18,00;20,00;0,00;;01/03/2019
31610011055;72,00;80,00;0,00;;01/01/2019
31610011055;18,00;20,00;0,00;;01/02/2019
31610010850;72,00;80,00;1,06;;01/02/2019
31610010850;72,00;80,00;0,00;;01/01/2019
31610010850;72,00;80,00;0,00;;01/03/2019
31610011057;72,00;80,00;0,00;;01/03/2019
31610011057;72,00;80,00;0,15;;01/01/2019
31610011057;72,00;80,00;0,00;;01/02/2019
31610010923;18,00;20,00;0,00;;01/02/2019
31610010923;72,00;80,00;0,00;;01/01/2019
31610010923;18,00;20,00;0,00;;01/03/2019
31648924507;225,00;250,00;0,00;;01/03/2019
31648924507;225,00;250,00;0,00;;01/01/2019
31648924507;225,00;250,00;0,00;;01/02/2019
31610010948;18,00;20,00;0,00;;01/02/2019
31610010948;225,00;250,00;0,47;;01/01/2019
31610010948;18,00;20,00;0,00;;01/03/2019
31610011172;72,00;80,00;2,54;;01/03/2019
31610011172;72,00;80,00;2,93;;01/01/2019
31610011172;72,00;80,00;0,00;;01/02/2019
31610011211;225,00;250,00;1,33;;01/02/2019
31610011211;225,00;250,00;45,12;;01/01/2019
31610011211;225,00;250,00;45,12;;01/01/2019
31610011211;225,00;250,00;45,12;;01/01/2019
31610011211;225,00;250,00;45,12;;01/01/2019
31610011211;225,00;250,00;1,06;;01/03/2019
31610011505;72,00;80,00;0,00;;01/03/2019
31610011505;72,00;80,00;2,93;;01/01/2019
31610011505;72,00;80,00;0,06;;01/02/2019
31610011510;72,00;80,00;0,00;;01/02/2019
31610011510;72,00;80,00;0,00;;01/01/2019
31610011510;72,00;80,00;0,00;;01/03/2019
31610011153;72,00;80,00;0,00;;01/03/2019
31610011153;72,00;80,00;0,00;;01/01/2019
31610011153;72,00;80,00;0,00;;01/02/2019
31610011371;72,00;80,00;0,00;;01/01/2019
31610011371;72,00;80,00;0,00;;01/03/2019
31610011371;72,00;80,00;0,00;;01/02/2019
31610011138;72,00;80,00;0,03;;01/02/2019
31610011138;72,00;80,00;0,00;;01/03/2019
31610011138;72,00;80,00;0,00;;01/01/2019
31610011391;72,00;80,00;0,00;;01/01/2019
31610011391;72,00;80,00;0,00;;01/02/2019
31610011391;72,00;80,00;0,00;;01/03/2019
31610011472;72,00;80,00;0,00;;01/03/2019
31610011472;72,00;80,00;0,00;;01/02/2019
31610011472;72,00;80,00;48,94;;01/01/2019
31610005513;72,00;80,00;0,00;;01/01/2019
31610005513;72,00;80,00;0,00;;01/02/2019
31610005513;72,00;80,00;0,00;;01/03/2019
31610005472;72,00;80,00;0,00;;01/01/2019
31610005488;72,00;80,00;0,28;;01/01/2019
31610005488;72,00;80,00;5,91;;01/02/2019
31610005488;72,00;80,00;0,00;;01/03/2019
31610005473;72,00;80,00;0,00;;01/03/2019
31610005473;72,00;80,00;0,36;;01/02/2019
31610005473;72,00;80,00;2,72;;01/01/2019
31610010715;72,00;80,00;3,62;;01/01/2019
31610010715;72,00;80,00;24,77;;01/02/2019
31610010715;72,00;80,00;0,00;;01/03/2019
31610010849;72,00;80,00;4,79;;01/03/2019
31610010849;72,00;80,00;0,83;;01/01/2019
31610010849;72,00;80,00;0,80;;01/02/2019
31610010824;72,00;80,00;0,90;;01/02/2019
31610010824;72,00;80,00;0,03;;01/01/2019
31610010824;72,00;80,00;0,00;;01/03/2019
31610010889;72,00;80,00;0,00;;01/03/2019
31610010889;72,00;80,00;13,24;;01/01/2019
31610010889;72,00;80,00;0,00;;01/02/2019
31684899668;225,00;250,00;0,00;;01/02/2019
31684899668;225,00;250,00;0,00;;01/01/2019
31684899668;225,00;250,00;0,00;;01/03/2019
31610010857;72,00;80,00;0,00;;01/03/2019
31610010857;72,00;80,00;18,23;;01/01/2019
31610010857;72,00;80,00;3,79;;01/02/2019
31610010807;72,00;80,00;42,58;;01/02/2019
31610010807;72,00;80,00;4,30;;01/01/2019
31610010807;72,00;80,00;54,94;;01/03/2019
31610010825;72,00;80,00;0,00;;01/03/2019
31610010825;72,00;80,00;6,12;;01/02/2019
31610010825;72,00;80,00;12,20;;01/01/2019
31610010820;72,00;80,00;0,80;;01/01/2019
31610010820;18,00;20,00;0,00;;01/02/2019
31610010820;18,00;20,00;0,00;;01/03/2019
31622009387;72,00;80,00;12,71;;01/03/2019
31622009387;72,00;80,00;18,63;;01/02/2019
31622009387;72,00;80,00;0,82;;01/01/2019
31610005497;72,00;80,00;0,00;;01/01/2019
31610010604;72,00;80,00;0,00;;01/01/2019
31610010604;72,00;80,00;0,00;;01/01/2019
31610010604;72,00;80,00;4,97;;01/02/2019
31610010604;72,00;80,00;0,19;;01/03/2019
31610010664;72,00;80,00;0,00;;01/03/2019
31610010664;72,00;80,00;36,38;;01/02/2019
31610010664;72,00;80,00;9,35;;01/01/2019
31610010698;72,00;80,00;0,77;;01/01/2019
31610010698;72,00;80,00;0,00;;01/02/2019
31610010698;72,00;80,00;0,00;;01/03/2019
31610010915;72,00;80,00;0,00;;01/01/2019
31610005457;80,00;80,00;80,00;;01/01/2019
31610005457;80,00;80,00;80,00;;01/02/2019
31610005457;72,00;80,00;0,00;;01/03/2019
31610005454;18,00;20,00;0,00;;01/03/2019
31610005454;20,00;20,00;33,54;;01/02/2019
31610005454;72,00;80,00;1,33;;01/01/2019
31610010712;72,00;80,00;3,50;;01/01/2019
31610010712;72,00;80,00;3,50;;01/01/2019
31610010712;72,00;80,00;37,74;;01/02/2019
31610010712;72,00;80,00;0,00;;01/03/2019
31610010747;72,00;80,00;5,06;;01/03/2019
31610010747;72,00;80,00;0,00;;01/02/2019
31610010747;72,00;80,00;45,02;;01/01/2019
31610005482;72,00;80,00;11,20;;01/01/2019
31610005482;72,00;80,00;0,00;;01/02/2019
31610005482;72,00;80,00;0,00;;01/03/2019
31610005461;72,00;80,00;0,00;;01/03/2019
31610005461;72,00;80,00;5,32;;01/02/2019
31610005461;72,00;80,00;5,09;;01/01/2019
31610005528;72,00;80,00;0,00;;01/01/2019
31610010568;72,00;80,00;0,75;;01/01/2019
31610010568;72,00;80,00;0,00;;01/02/2019
31610010568;72,00;80,00;0,00;;01/03/2019
31610010528;72,00;80,00;0,00;;01/03/2019
31610010528;72,00;80,00;0,00;;01/02/2019
31610010528;72,00;80,00;0,00;;01/01/2019
31610005480;72,00;80,00;0,00;;01/01/2019
31610005480;72,00;80,00;1,13;;01/02/2019
31610005480;72,00;80,00;0,00;;01/03/2019
31610010537;72,00;80,00;1,06;;01/02/2019
31610010537;72,00;80,00;0,00;;01/03/2019
31610010537;72,00;80,00;0,02;;01/01/2019
31610010566;72,00;80,00;1,21;;01/01/2019
31610010566;72,00;80,00;0,25;;01/02/2019
31610010566;72,00;80,00;0,00;;01/03/2019
31610011071;72,00;80,00;47,23;;01/03/2019
31610011071;72,00;80,00;3,68;;01/02/2019
31610011071;72,00;80,00;6,17;;01/01/2019
31610010602;72,00;80,00;0,00;;01/01/2019
31610010602;72,00;80,00;49,90;;01/02/2019
31610010602;72,00;80,00;0,00;;01/03/2019
31610010398;72,00;80,00;0,00;;01/03/2019
31610010398;72,00;80,00;13,32;;01/02/2019
31610010398;72,00;80,00;0,04;;01/01/2019
31610010567;72,00;80,00;0,00;;01/01/2019
31610010567;72,00;80,00;0,00;;01/02/2019
31610010567;72,00;80,00;0,00;;01/03/2019
31610010738;72,00;80,00;0,00;;01/01/2019
31610010407;72,00;80,00;0,04;;01/01/2019
31610010407;72,00;80,00;0,04;;01/02/2019
31610010407;72,00;80,00;0,00;;01/03/2019
31610010517;72,00;80,00;0,00;;01/03/2019
31610010517;72,00;80,00;0,00;;01/02/2019
31610010517;72,00;80,00;0,16;;01/01/2019
31613003645;72,00;80,00;5,06;;01/01/2019
31613003645;72,00;80,00;0,00;;01/02/2019
31613003645;72,00;80,00;20,05;;01/03/2019
31648924616;225,00;250,00;0,00;;01/03/2019
31648924616;225,00;250,00;0,00;;01/02/2019
31648924616;225,00;250,00;0,00;;01/01/2019
31610010374;72,00;80,00;0,52;;01/01/2019
31610010374;72,00;80,00;4,35;;01/02/2019
31610010374;72,00;80,00;1,62;;01/03/2019
31610010400;72,00;80,00;0,00;;01/03/2019
31610010400;72,00;80,00;0,00;;01/02/2019
31610010400;72,00;80,00;3,40;;01/01/2019
31610010392;72,00;80,00;0,83;;01/01/2019
31610010392;72,00;80,00;0,00;;01/02/2019
31610010392;72,00;80,00;0,00;;01/03/2019
31610010402;72,00;80,00;0,00;;01/03/2019
31610010402;72,00;80,00;2,01;;01/02/2019
31610010402;72,00;80,00;0,00;;01/01/2019
31610010316;72,00;80,00;0,00;;01/01/2019
31610010316;72,00;80,00;0,00;;01/02/2019
31610010316;72,00;80,00;0,00;;01/03/2019
31610010264;18,00;20,00;0,00;;01/02/2019
31610010264;72,00;80,00;14,58;;01/01/2019
31610010212;72,00;80,00;0,00;;01/01/2019
31610010212;72,00;80,00;12,25;;01/02/2019
31610010212;72,00;80,00;0,00;;01/03/2019
31610000802;72,00;80,00;0,00;;01/03/2019
31610000802;72,00;80,00;0,00;;01/02/2019
31610000802;72,00;80,00;31,94;;01/01/2019
31610001495;72,00;80,00;24,48;;01/01/2019
31610001495;72,00;80,00;20,69;;01/02/2019
31610001495;72,00;80,00;10,89;;01/03/2019
31648924632;225,00;250,00;0,00;;01/02/2019
31648924632;225,00;250,00;0,00;;01/03/2019
31648924632;225,00;250,00;0,00;;01/01/2019
31610010357;72,00;80,00;0,00;;01/01/2019
31610010357;72,00;80,00;0,00;;01/03/2019
31610010357;72,00;80,00;0,00;;01/02/2019
31610010377;72,00;80,00;0,00;;01/01/2019
31610010345;72,00;80,00;24,78;;01/01/2019
31610010345;72,00;80,00;66,21;;01/02/2019
31610010345;72,00;80,00;0,68;;01/03/2019
31610010549;225,00;250,00;0,00;;01/03/2019
31610010549;225,00;250,00;0,00;;01/01/2019
31610010549;225,00;250,00;0,00;;01/02/2019
31610010352;72,00;80,00;0,00;;01/01/2019
31610010226-R;72,00;80,00;0,00;;01/02/2019
31610010226-R;72,00;80,00;0,01;;01/01/2019
31610010502;72,00;80,00;0,00;;01/01/2019
31610010502;72,00;80,00;0,00;;01/02/2019
31610010502;72,00;80,00;0,00;;01/03/2019
31610001466;72,00;80,00;0,00;;01/03/2019
31610001466;72,00;80,00;5,21;;01/01/2019
31610001466;80,00;80,00;79,98;;01/02/2019
31610001441;72,00;80,00;0,00;;01/02/2019
31610001441;72,00;80,00;69,26;;01/01/2019
31610001441;72,00;80,00;9,98;;01/03/2019
31610000782;72,00;80,00;2,14;;01/03/2019
31610000782;72,00;80,00;0,00;;01/01/2019
31610000782;72,00;80,00;0,69;;01/02/2019
31610000844;72,00;80,00;0,00;;01/02/2019
31610000844;72,00;80,00;0,00;;01/01/2019
31610000844;72,00;80,00;0,00;;01/03/2019
31610010317;72,00;80,00;0,00;;01/03/2019
31610010317;72,00;80,00;0,00;;01/01/2019
31610010317;72,00;80,00;0,00;;01/02/2019
31610010231;72,00;80,00;9,58;;01/02/2019
31610010231;72,00;80,00;5,49;;01/01/2019
31610010231;72,00;80,00;5,49;;01/01/2019
31610010231;72,00;80,00;5,49;;01/01/2019
31610010231;72,00;80,00;5,49;;01/01/2019
31610010231;72,00;80,00;5,49;;01/01/2019
31610010231;72,00;80,00;5,49;;01/01/2019
31610010231;72,00;80,00;0,00;;01/03/2019
31641171831;72,00;80,00;0,00;;01/03/2019
31641171831;72,00;80,00;0,48;;01/01/2019
31641171831;72,00;80,00;2,95;;01/02/2019
31610010519;72,00;80,00;0,09;;01/02/2019
31610010519;72,00;80,00;0,00;;01/01/2019
31610010519;72,00;80,00;0,00;;01/03/2019
31610000784;72,00;80,00;8,25;;01/03/2019
31610000784;72,00;80,00;0,00;;01/01/2019
31610000784;72,00;80,00;0,00;;01/02/2019
31610000823;72,00;80,00;0,00;;01/02/2019
31610000823;80,00;80,00;80,00;;01/01/2019
31610000823;72,00;80,00;0,00;;01/03/2019
31610010337;72,00;80,00;0,00;;01/03/2019
31610010337;72,00;80,00;2,93;;01/01/2019
31610010337;72,00;80,00;1,06;;01/02/2019
31648924661;225,00;250,00;0,00;;01/02/2019
31648924661;225,00;250,00;0,00;;01/01/2019
31648924661;225,00;250,00;0,00;;01/03/2019
31630156046;72,00;80,00;0,00;;01/03/2019
31630156046;72,00;80,00;0,00;;01/01/2019
31630156046;72,00;80,00;0,00;;01/02/2019
31630156286;72,00;80,00;9,76;;01/02/2019
31630156286;72,00;80,00;2,19;;01/01/2019
31630156286;72,00;80,00;0,00;;01/03/2019
31630156941;72,00;80,00;0,00;;01/03/2019
31630156941;72,00;80,00;0,00;;01/01/2019
31630156941;72,00;80,00;0,00;;01/02/2019
31630155945;72,00;80,00;2,66;;01/02/2019
31630155945;72,00;80,00;3,19;;01/01/2019
31630155945;72,00;80,00;6,66;;01/03/2019
31648924666;225,00;250,00;0,00;;01/03/2019
31648924666;225,00;250,00;0,00;;01/01/2019
31648924666;225,00;250,00;0,00;;01/02/2019
31610001498;72,00;80,00;0,80;;01/01/2019
31610001498;72,00;80,00;0,00;;01/03/2019
31610001498;72,00;80,00;0,00;;01/02/2019
31610000785;72,00;80,00;0,00;;01/03/2019
31610000785;72,00;80,00;0,00;;01/01/2019
31610000785;72,00;80,00;0,00;;01/02/2019
31610000757;72,00;80,00;0,29;;01/02/2019
31610000757;72,00;80,00;0,59;;01/01/2019
31610000836;72,00;80,00;2,66;;01/01/2019
31610000836;72,00;80,00;0,81;;01/02/2019
31610000836;72,00;80,00;0,00;;01/03/2019
31630156984;225,00;250,00;0,00;;01/03/2019
31630156984;225,00;250,00;80,01;;01/01/2019
31630156984;225,00;250,00;0,02;;01/02/2019
31610001417;72,00;80,00;15,00;;01/02/2019
31610001417;72,00;80,00;0,00;;01/01/2019
31610001417;72,00;80,00;0,00;;01/03/2019
31630155938;72,00;80,00;0,00;;01/03/2019
31630155938;72,00;80,00;0,00;;01/01/2019
31630155938;72,00;80,00;0,00;;01/02/2019
31610000807;72,00;80,00;5,80;;01/02/2019
31610000807;72,00;80,00;4,39;;01/01/2019
31610000807;72,00;80,00;30,72;;01/03/2019
31610010280;72,00;80,00;0,00;;01/03/2019
31610010280;72,00;80,00;0,00;;01/01/2019
31610010280;72,00;80,00;0,00;;01/02/2019
31610001454;72,00;80,00;0,00;;01/02/2019
31610001454;72,00;80,00;6,33;;01/01/2019
31610001454;72,00;80,00;0,00;;01/03/2019
31684520017;72,00;80,00;0,00;;01/01/2019
31610001395;72,00;80,00;0,00;;01/01/2019
31610001395;72,00;80,00;0,73;;01/02/2019
31610001395;72,00;80,00;0,00;;01/03/2019
31657839866;72,00;80,00;2,62;;01/03/2019
31657839866;72,00;80,00;1,65;;01/02/2019
31657839866;72,00;80,00;1,50;;01/01/2019
31657839866;72,00;80,00;1,50;;01/01/2019
31657839866;72,00;80,00;1,50;;01/01/2019
31657839866;72,00;80,00;1,50;;01/01/2019
31657842628;72,00;80,00;4,90;;01/01/2019
31657842628;72,00;80,00;0,54;;01/02/2019
31657842628;72,00;80,00;0,00;;01/03/2019
31657842481;72,00;80,00;0,00;;01/03/2019
31657842481;72,00;80,00;0,00;;01/02/2019
31657842481;72,00;80,00;55,20;;01/01/2019
31658755499;72,00;80,00;1,33;;01/01/2019
31658755499;72,00;80,00;1,06;;01/02/2019
31658755499;72,00;80,00;0,53;;01/03/2019
31657837043;72,00;80,00;0,00;;01/03/2019
31657837043;72,00;80,00;0,24;;01/02/2019
31657837043;72,00;80,00;0,82;;01/01/2019
31630156447;72,00;80,00;6,21;;01/01/2019
31630156447;72,00;80,00;0,53;;01/03/2019
31630156447;72,00;80,00;41,58;;01/02/2019
31630155693-R;72,00;80,00;0,00;;01/01/2019
31630155693-R;72,00;80,00;0,00;;01/01/2019
31630155693-R;72,00;80,00;0,00;;01/02/2019
31630156599;72,00;80,00;8,83;;01/01/2019
31630156599;72,00;80,00;28,53;;01/02/2019
31630156599;72,00;80,00;0,00;;01/03/2019
31657836575;72,00;80,00;0,00;;01/03/2019
31657836575;72,00;80,00;0,00;;01/01/2019
31657836575;72,00;80,00;48,40;;01/02/2019
31630155846-R;72,00;80,00;50,29;;01/02/2019
31630155846-R;72,00;80,00;47,35;;01/01/2019
31630155846-R;72,00;80,00;29,81;;01/03/2019
31657837063;72,00;80,00;0,00;;01/03/2019
31657837063;72,00;80,00;0,75;;01/02/2019
31657837063;72,00;80,00;3,76;;01/01/2019
31657837063;72,00;80,00;3,76;;01/01/2019
31610011052-R;72,00;80,00;7,25;;01/01/2019
31610011052-R;72,00;80,00;13,84;;01/02/2019
31610011025;72,00;80,00;3,65;;01/02/2019
31610011025;72,00;80,00;0,08;;01/01/2019
31610011025;72,00;80,00;53,19;;01/03/2019
31610010967;72,00;80,00;0,00;;01/03/2019
31610010967;72,00;80,00;1,86;;01/02/2019
31610010967;72,00;80,00;0,07;;01/01/2019
31610005470;72,00;80,00;1,54;;01/01/2019
31610005470;72,00;80,00;1,32;;01/02/2019
31610005470;72,00;80,00;26,62;;01/03/2019
31657836463;72,00;80,00;0,00;;01/03/2019
31657836463;72,00;80,00;0,46;;01/01/2019
31657836463;72,00;80,00;0,00;;01/02/2019
31648924714;225,00;250,00;0,00;;01/02/2019
31648924714;225,00;250,00;0,00;;01/01/2019
31648924714;225,00;250,00;0,00;;01/03/2019
31610001386-R;72,00;80,00;48,25;;01/01/2019
31610001386-R;72,00;80,00;0,00;;01/02/2019
31657835685;72,00;80,00;0,59;;01/02/2019
31657835685;72,00;80,00;0,27;;01/01/2019
31657835685;72,00;80,00;1,06;;01/03/2019
31657837163;72,00;80,00;0,00;;01/03/2019
31657837163;72,00;80,00;0,00;;01/01/2019
31657837163;72,00;80,00;0,00;;01/02/2019
31657836256;72,00;80,00;0,00;;01/02/2019
31657836256;72,00;80,00;0,00;;01/01/2019
31657834412;72,00;80,00;0,00;;01/01/2019
31657834412;72,00;80,00;0,00;;01/02/2019
31657834412;72,00;80,00;4,71;;01/03/2019
31657836847;72,00;80,00;29,60;;01/02/2019
31657836847;72,00;80,00;0,00;;01/03/2019
31657836847;72,00;80,00;0,00;;01/01/2019
31648924730;225,00;250,00;0,00;;01/01/2019
31648924730;225,00;250,00;0,00;;01/02/2019
31648924730;225,00;250,00;0,00;;01/03/2019
31657836264;72,00;80,00;1,32;;01/02/2019
31657836264;72,00;80,00;7,08;;01/03/2019
31657836264;72,00;80,00;0,00;;01/01/2019
31657830978;72,00;80,00;2,41;;01/01/2019
31657830978;72,00;80,00;0,13;;01/02/2019
31657830978;72,00;80,00;0,00;;01/03/2019
31657830924;72,00;80,00;0,00;;01/03/2019
31657830924;72,00;80,00;7,19;;01/02/2019
31657830924;72,00;80,00;0,80;;01/01/2019
31657831644;72,00;80,00;3,26;;01/01/2019
31657831644;72,00;80,00;0,76;;01/02/2019
31657831644;72,00;80,00;0,00;;01/03/2019
31657841281;72,00;80,00;3,19;;01/02/2019
31657841281;72,00;80,00;0,00;;01/03/2019
31657841281;72,00;80,00;0,00;;01/01/2019
31657832763;72,00;80,00;0,16;;01/01/2019
31657832763;72,00;80,00;0,16;;01/01/2019
31657832763;72,00;80,00;0,00;;01/02/2019
31657832763;72,00;80,00;0,00;;01/03/2019
31657833276;72,00;80,00;0,00;;01/03/2019
31657833276;72,00;80,00;6,97;;01/02/2019
31657833276;72,00;80,00;6,68;;01/01/2019
31657831297;72,00;80,00;0,00;;01/01/2019
31657831297;72,00;80,00;1,93;;01/02/2019
31657831297;72,00;80,00;0,00;;01/03/2019
31617383680;72,00;80,00;16,01;;01/03/2019
31617383680;72,00;80,00;0,00;;01/02/2019
31617383680;72,00;80,00;11,87;;01/01/2019
31657832879;72,00;80,00;5,32;;01/01/2019
31657832879;72,00;80,00;1,46;;01/02/2019
31657832879;72,00;80,00;0,00;;01/03/2019
31657830785;72,00;80,00;2,32;;01/03/2019
31657830785;72,00;80,00;2,03;;01/02/2019
31657830785;72,00;80,00;0,00;;01/01/2019
31657803767;72,00;80,00;0,61;;01/01/2019
31657803767;72,00;80,00;0,05;;01/02/2019
31657803767;72,00;80,00;2,82;;01/03/2019
31657804316;72,00;80,00;1,40;;01/03/2019
31657804316;72,00;80,00;1,72;;01/02/2019
31657804316;72,00;80,00;0,19;;01/01/2019
31657829437;72,00;80,00;1,00;;01/01/2019
31657829437;72,00;80,00;0,00;;01/02/2019
31657829437;72,00;80,00;0,00;;01/03/2019
31657833430;72,00;80,00;0,00;;01/03/2019
31657833430;72,00;80,00;0,37;;01/02/2019
31657833430;72,00;80,00;0,01;;01/01/2019
31657829261;72,00;80,00;0,00;;01/01/2019
31657829261;18,00;20,00;0,00;;01/02/2019
31657829261;18,00;20,00;0,00;;01/03/2019
31657830232;72,00;80,00;29,16;;01/03/2019
31657830232;72,00;80,00;5,06;;01/02/2019
31657830232;72,00;80,00;51,38;;01/01/2019
31657831089;72,00;80,00;10,67;;01/01/2019
31657831089;72,00;80,00;4,28;;01/02/2019
31657831089;72,00;80,00;5,06;;01/03/2019
31657833385;72,00;80,00;0,00;;01/03/2019
31657833385;72,00;80,00;1,04;;01/01/2019
31657833385;72,00;80,00;0,41;;01/02/2019
31657802643-R;72,00;80,00;0,00;;01/02/2019
31657802643-R;72,00;80,00;56,67;;01/01/2019
31657831049;72,00;80,00;15,92;;01/01/2019
31657831049;72,00;80,00;1,71;;01/02/2019
31657831049;72,00;80,00;0,00;;01/03/2019
31657832855;225,00;250,00;2,46;;01/02/2019
31657832855;225,00;250,00;5,32;;01/03/2019
31657832855;225,00;250,00;89,80;;01/01/2019
31657834002;72,00;80,00;1,66;;01/01/2019
31657834002;72,00;80,00;3,10;;01/02/2019
31657834002;72,00;80,00;1,06;;01/03/2019
31648924782;225,00;250,00;0,00;;01/03/2019
31648924782;225,00;250,00;0,00;;01/02/2019
31648924782;225,00;250,00;0,00;;01/01/2019
31655945513;72,00;80,00;5,06;;01/01/2019
31655945513;72,00;80,00;45,83;;01/02/2019
31655945513;72,00;80,00;0,00;;01/03/2019
31657832098;72,00;80,00;0,00;;01/03/2019
31657832098;72,00;80,00;0,12;;01/02/2019
31657832098;72,00;80,00;0,01;;01/01/2019
31657842332;72,00;80,00;0,04;;01/01/2019
31657842332;72,00;80,00;0,00;;01/02/2019
31657842332;72,00;80,00;0,00;;01/03/2019
31633786593;72,00;80,00;0,00;;01/03/2019
31633786593;72,00;80,00;7,57;;01/02/2019
31633786593;72,00;80,00;0,00;;01/01/2019
31657829919;72,00;80,00;0,00;;01/01/2019
31657829919;72,00;80,00;0,00;;01/02/2019
31657829919;72,00;80,00;0,00;;01/03/2019
31657801949;72,00;80,00;0,00;;01/03/2019
31657801949;72,00;80,00;0,00;;01/02/2019
31657801949;72,00;80,00;1,33;;01/01/2019
31630034927;72,00;80,00;12,51;;01/01/2019
31630034927;72,00;80,00;0,00;;01/02/2019
31630034927;72,00;80,00;21,49;;01/03/2019
31630034729;72,00;80,00;0,00;;01/03/2019
31630034729;72,00;80,00;0,00;;01/02/2019
31630034729;72,00;80,00;0,00;;01/01/2019
31630034535;72,00;80,00;0,93;;01/01/2019
31630034535;72,00;80,00;0,16;;01/02/2019
31630034535;72,00;80,00;0,00;;01/03/2019
31630022350;72,00;80,00;0,00;;01/03/2019
31630022350;72,00;80,00;1,09;;01/02/2019
31630022350;72,00;80,00;10,92;;01/01/2019
31626893614;72,00;80,00;0,53;;01/01/2019
31626893614;72,00;80,00;5,92;;01/02/2019
31626893614;72,00;80,00;13,31;;01/03/2019
31630031812;72,00;80,00;0,00;;01/03/2019
31630031812;72,00;80,00;2,69;;01/02/2019
31630031812;72,00;80,00;23,83;;01/01/2019
31630031816;72,00;80,00;39,93;;01/01/2019
31630031816;72,00;80,00;10,08;;01/02/2019
31630031816;72,00;80,00;0,00;;01/03/2019
31610010229;72,00;80,00;0,00;;01/03/2019
31610010229;72,00;80,00;4,46;;01/02/2019
31610010229;72,00;80,00;0,00;;01/01/2019
31619144449;72,00;80,00;0,00;;01/01/2019
31619144449;72,00;80,00;0,00;;01/02/2019
31683957699;72,00;80,00;0,00;;01/02/2019
31683957699;72,00;80,00;5,06;;01/01/2019
31683957699;72,00;80,00;0,00;;01/03/2019
31610001461;72,00;80,00;7,88;;01/03/2019
31610001461;72,00;80,00;0,00;;01/01/2019
31610001461;72,00;80,00;61,35;;01/02/2019
31657832695;72,00;80,00;0,35;;01/02/2019
31657832695;72,00;80,00;0,00;;01/01/2019
31657832695;72,00;80,00;0,00;;01/03/2019
31657831954;72,00;80,00;0,00;;01/03/2019
31657831954;72,00;80,00;0,00;;01/01/2019
31657831954;72,00;80,00;0,84;;01/02/2019
31655611365;72,00;80,00;4,64;;01/02/2019
31655611365;72,00;80,00;0,00;;01/01/2019
31655611365;72,00;80,00;0,00;;01/03/2019
31630033102;72,00;80,00;0,00;;01/03/2019
31630033102;72,00;80,00;0,00;;01/01/2019
31630033102;72,00;80,00;0,00;;01/02/2019
31630028850;18,00;20,00;0,00;;01/02/2019
31630028850;72,00;80,00;0,06;;01/01/2019
31630028850;18,00;20,00;0,00;;01/03/2019
31630033038;72,00;80,00;0,00;;01/03/2019
31630033038;72,00;80,00;0,00;;01/01/2019
31630033038;72,00;80,00;0,00;;01/02/2019
31630019282;72,00;80,00;6,14;;01/02/2019
31630019282;72,00;80,00;4,53;;01/01/2019
31630019282;72,00;80,00;0,00;;01/03/2019
31633694879-R;72,00;80,00;0,00;;01/03/2019
31633694879-R;72,00;80,00;0,00;;01/01/2019
31633694879-R;72,00;80,00;0,00;;01/02/2019
31630017863;225,00;250,00;0,00;;01/02/2019
31630017863;225,00;250,00;6,22;;01/01/2019
31630017863;225,00;250,00;0,89;;01/03/2019
31650869960;72,00;80,00;0,00;;01/03/2019
31650869960;80,00;80,00;77,87;;01/01/2019
31650869960;72,00;80,00;0,09;;01/02/2019
31610011242;72,00;80,00;0,00;;01/02/2019
31610011242;72,00;80,00;0,00;;01/01/2019
31610011242;72,00;80,00;13,21;;01/03/2019
31610011482;72,00;80,00;0,00;;01/03/2019
31610011482;72,00;80,00;0,07;;01/01/2019
31610011482;72,00;80,00;0,00;;01/02/2019
31610011363;72,00;80,00;0,00;;01/02/2019
31610011363;72,00;80,00;54,39;;01/01/2019
31610011363;72,00;80,00;0,00;;01/03/2019
31610011360;72,00;80,00;0,00;;01/03/2019
31610011360;72,00;80,00;0,04;;01/01/2019
31610011360;72,00;80,00;0,00;;01/02/2019
31610011348;225,00;250,00;113,34;;01/01/2019
31610011348;225,00;250,00;100,05;;01/02/2019
31610011348;225,00;250,00;2,91;;01/03/2019
31610011354;72,00;80,00;0,00;;01/03/2019
31610011354;72,00;80,00;1,86;;01/02/2019
31610011354;72,00;80,00;1,95;;01/01/2019
31610011376;72,00;80,00;0,72;;01/01/2019
31610011376;72,00;80,00;0,24;;01/02/2019
31610011376;72,00;80,00;0,00;;01/03/2019
31610011542;72,00;80,00;0,00;;01/03/2019
31610011542;72,00;80,00;0,00;;01/02/2019
31610011542;72,00;80,00;13,44;;01/01/2019
31610011565;72,00;80,00;1,54;;01/01/2019
31610011565;72,00;80,00;0,00;;01/02/2019
31610011565;72,00;80,00;0,00;;01/03/2019
31610011708;225,00;250,00;0,00;;01/03/2019
31610011708;225,00;250,00;49,91;;01/02/2019
31610011708;225,00;250,00;0,11;;01/01/2019
31613556715;72,00;80,00;65,60;;01/01/2019
31613556715;72,00;80,00;1,62;;01/02/2019
31613556715;72,00;80,00;0,00;;01/03/2019
31613557293;72,00;80,00;0,00;;01/02/2019
31613557293;72,00;80,00;1,47;;01/03/2019
31613557293;72,00;80,00;0,00;;01/01/2019
31613554080;72,00;80,00;27,34;;01/01/2019
31613554080;72,00;80,00;46,20;;01/02/2019
31613554080;72,00;80,00;0,29;;01/03/2019
31613553824;72,00;80,00;0,05;;01/03/2019
31613553824;72,00;80,00;0,26;;01/02/2019
31613553824;72,00;80,00;0,05;;01/01/2019
31613552237;72,00;80,00;18,81;;01/01/2019
31613552237;72,00;80,00;14,65;;01/02/2019
31613552237;72,00;80,00;0,00;;01/03/2019
31682745765;72,00;80,00;0,00;;01/03/2019
31682745765;72,00;80,00;0,00;;01/02/2019
31682745765;72,00;80,00;0,00;;01/01/2019
31613553827;72,00;80,00;25,33;;01/01/2019
31613553827;72,00;80,00;0,00;;01/02/2019
31613553827;72,00;80,00;0,00;;01/03/2019
31648924889;225,00;250,00;0,00;;01/03/2019
31648924889;225,00;250,00;0,00;;01/02/2019
31648924894;225,00;250,00;0,00;;01/01/2019
31648925118;225,00;250,00;2,18;;01/02/2019
31648925118;225,00;250,00;0,59;;01/01/2019
31648925118;225,00;250,00;0,00;;01/03/2019
31653874547;18,00;20,00;0,00;;01/03/2019
31653874547;18,00;20,00;0,13;;01/01/2019
31653874547;18,00;20,00;0,01;;01/02/2019
31647326192;675,00;750,00;6,39;;01/01/2019
31647326192;675,00;750,00;0,00;;01/03/2019
31647326192;675,00;750,00;20,01;;01/02/2019
31649410110;675,00;750,00;0,00;;01/03/2019
31649410110;675,00;750,00;13,71;;01/01/2019
31649410110;675,00;750,00;6,49;;01/02/2019
31649406494;225,00;250,00;0,00;;01/02/2019
31649406494;225,00;250,00;0,00;;01/01/2019
31649406494;225,00;250,00;0,00;;01/03/2019
31637009000;18,00;20,00;0,00;;01/03/2019
31637009000;18,00;20,00;0,00;;01/01/2019
31637009000;18,00;20,00;0,00;;01/02/2019
31648925271;225,00;250,00;0,00;;01/01/2019
31648925271;225,00;250,00;0,00;;01/02/2019
31648925271;225,00;250,00;0,00;;01/03/2019
