"CustomerNumber","IMSI","Productid","Start_date","End_Of_Contract","Date_Contract_Prolong","MRR","MRR_Discount","MRR_Discount_Duration","Date_Mutation","Brand"
"947566","","11","2019-08-14","","2019-09-14","20.0000","20.00","4","2019-08-14 00:09:41","Delta"
"947640","","10","2019-08-13","","2019-09-14","7.0000","","","2019-08-14 00:09:41","Delta"
"944509","204164750202428","10","2019-07-23","","2019-09-14","7.0000","","","2019-08-14 00:09:40","Delta"
"947675","","11","2019-08-14","","2019-09-14","20.0000","20.00","4","2019-08-14 00:09:42","Delta"
"946566","204164750201473","43","2019-08-14","","2019-09-14","25.0000","5.00","6","2019-08-14 00:09:41","Delta"
"945212","","11","2019-08-13","","2019-09-14","20.0000","","","2019-08-14 00:09:42","Delta"
"947251","","10","2019-08-04","2019-08-14","2019-09-14","7.0000","","","2019-08-14 11:05:08","Delta"
"947605","","11","2019-08-14","","2021-08-14","20.0000","20.00","4","2019-08-14 00:09:41","Delta"
"943007","","10","2019-08-13","","2019-09-14","7.0000","","","2019-08-14 00:09:41","Delta"
"945669","204164750200475","11","2019-08-14","","2019-09-14","20.0000","5.00","6","2019-08-14 00:09:40","Delta"
"947679","","11","2019-08-14","","2019-09-14","20.0000","20.00","4","2019-08-14 00:09:42","Delta"
"946729","204164750201090","11","2019-08-14","","2019-09-14","20.0000","5.00","6","2019-08-14 00:09:41","Delta"
"947467","","11","2019-08-14","","2019-09-14","20.0000","5.00","6","2019-08-14 00:09:41","Delta"
"947635","","11","2019-08-14","","2019-09-14","20.0000","20.00","4","2019-08-14 00:09:41","Delta"
"947671","","11","2019-08-14","","2019-09-14","20.0000","20.00","4","2019-08-14 00:09:42","Delta"
"946561","204164750200346","11","2019-08-14","","2019-09-14","20.0000","5.00","6","2019-08-14 00:09:40","Delta"
"947708","","11","2019-08-14","","2019-09-14","20.0000","20.00","4","2019-08-14 00:09:42","Delta"
"947211","","11","2019-08-14","","2019-09-14","20.0000","20.00","4","2019-08-14 00:09:41","Delta"
"947584","","11","2019-08-11","","2021-08-11","20.0000","20.00","4","2019-08-14 00:09:41","Delta"
"947659","","11","2019-08-13","","2019-09-14","20.0000","20.00","4","2019-08-14 00:09:41","Delta"
"945293","204164750202824","11","2019-08-14","","2019-09-14","20.0000","5.00","6","2019-08-14 00:09:40","Delta"
"947678","","11","2019-08-14","","2019-09-14","20.0000","20.00","4","2019-08-14 00:09:42","Delta"
"945212","204164750213046","43","2019-07-16","","2019-09-14","25.0000","","","2019-08-14 00:09:41","Delta"
"947388","","11","2019-08-14","","2019-09-14","20.0000","20.00","4","2019-08-14 00:09:41","Delta"
"947626","","11","2019-08-12","","2019-09-14","20.0000","20.00","4","2019-08-14 00:09:41","Delta"
"947668","","11","2019-08-14","","2019-09-14","20.0000","20.00","4","2019-08-14 00:09:42","Delta"
"946490","204164750201602","11","2019-07-16","","2021-07-16","20.0000","5.00","6","2019-08-14 00:09:40","Delta"
"947690","","11","2019-08-14","","2019-09-14","20.0000","20.00","4","2019-08-14 00:09:42","Delta"
"947008","","11","2019-07-29","","2019-09-14","20.0000","20.00","4","2019-08-14 00:09:41","Delta"
"947568","","11","2019-08-14","","2019-09-14","20.0000","5.00","6","2019-08-14 00:09:41","Delta"
"947655","","11","2019-08-14","","2019-09-14","20.0000","20.00","4","2019-08-14 00:09:41","Delta"
"944713","204164750202524","10","2019-08-14","","2019-09-14","7.0000","5.00","6","2019-08-14 00:09:40","Delta"
"947677","","11","2019-08-14","","2019-09-14","20.0000","20.00","4","2019-08-14 00:09:42","Delta"
"946568","204164750201474","11","2019-08-14","","2019-09-14","20.0000","5.00","6","2019-08-14 00:09:41","Delta"
"947254","","11","2019-08-13","","2019-09-14","20.0000","20.00","4","2019-08-14 00:09:41","Delta"
"947614","","11","2019-08-14","","2019-09-14","20.0000","20.00","4","2019-08-14 00:09:41","Delta"
"947667","","11","2019-08-14","","2019-09-14","20.0000","20.00","4","2019-08-14 00:09:42","Delta"
"945433","204164750201916","35","2019-07-16","","2021-07-16","22.5000","5.00","6","2019-08-14 00:09:40","Delta"
"947690","","11","2019-08-14","","2019-09-14","20.0000","20.00","4","2019-08-14 00:09:42","Delta"
"946741","204164750213419","11","2019-07-19","","2019-09-14","20.0000","20.00","4","2019-08-14 00:09:41","Delta"
