"CustomerNumber","IMSI","Productid","Start_date","End_Of_Contract","Date_Contract_Prolong","MRR","MRR_Discount","MRR_Discount_Duration","Date_Mutation","Brand"
"946614","204164750211476","43","2019-07-16","2019-09-22","2019-10-22","25.0000","20.00","4","2019-09-22 00:01:13","Delta"
"946614","204164750211485","43","2019-07-16","2019-09-22","2019-10-22","25.0000","20.00","4","2019-09-22 00:01:13","Delta"
