"CustomerNumber","IMSI","Productid","Start_date","End_Of_Contract","Date_Contract_Prolong","MRR","MRR_Discount","MRR_Discount_Duration","Date_Mutation","Brand"
"948585","204164750206798","82","2019-09-18","","2021-09-18","17.5000","","","2019-09-17 12:40:53","Caiway"
"948360","204164750206809","81","2019-09-18","","2021-09-18","12.5000","2.50","6","2019-09-17 08:00:59","Caiway"
"947801","204164750206945","82","2019-10-18","","2021-10-18","17.5000","2.50","6","2019-09-17 17:00:55","Caiway"
"946903","204164750207283","82","2019-08-01","2019-09-17","2021-08-01","17.5000","","","2019-09-17 17:02:41","Caiway"
"948881","204164750210960","6","2019-09-16","","2019-10-17","7.0000","","","2019-09-17 19:15:55","Delta"
"948949","204164750210786","11","2019-09-17","","2019-10-17","20.0000","20.00","4","2019-09-17 00:05:13","Delta"
"945447","204164750202971","11","2019-09-17","","2019-10-17","20.0000","5.00","6","2019-09-17 00:05:13","Delta"
"949058","204164750201214","11","2019-09-16","","2019-10-17","20.0000","20.00","4","2019-09-17 19:15:32","Delta"
"947846","204164750212814","11","2019-08-19","2019-09-17","2019-10-17","20.0000","20.00","4","2019-09-17 09:35:27","Delta"
"948923","204164750211264","11","2019-09-16","","2019-10-17","20.0000","20.00","4","2019-09-17 19:15:30","Delta"
"948987","204164750210776","11","2019-09-17","","2019-10-17","20.0000","20.00","4","2019-09-17 00:05:14","Delta"
"947698","204164750213094","11","2019-08-15","2019-09-16","2019-10-17","20.0000","20.00","4","2019-09-17 00:05:13","Delta"
"949115","","43","2019-09-17","","2021-09-17","25.0000","20.00","4","2019-09-17 00:05:14","Delta"
"948811","204164750210846","11","2019-09-16","","2019-10-17","20.0000","20.00","4","2019-09-17 00:05:13","Delta"
"948939","204164750210795","11","2019-09-17","","2019-10-17","20.0000","20.00","4","2019-09-17 14:55:24","Delta"
"945262","204164750201017","43","2019-09-08","","2019-10-17","25.0000","5.00","6","2019-09-17 14:25:59","Delta"
"949011","204164750210922","11","2019-09-17","","2019-10-17","20.0000","20.00","4","2019-09-17 00:05:14","Delta"
"947840","204164750212810","10","2019-09-17","","2019-10-17","7.0000","","","2019-09-17 00:05:13","Delta"
"949184","204164750200092","11","2019-09-17","","2019-10-17","20.0000","20.00","4","2019-09-17 15:23:46","Delta"
"948580","204164750211361","11","2019-09-17","","2019-10-17","20.0000","20.00","4","2019-09-17 00:05:13","Delta"
"948922","204164750210789","11","2019-09-17","","2019-10-17","20.0000","20.00","4","2019-09-17 00:05:13","Delta"
"948954","204164750210782","11","2019-09-17","","2019-10-17","20.0000","20.00","4","2019-09-17 00:05:14","Delta"
"947293","204164750201933","11","2019-10-14","","2019-11-14","20.0000","20.00","4","2019-09-17 17:40:12","Delta"
"949092","204164750201216","11","2019-09-16","","2019-10-17","20.0000","20.00","4","2019-09-17 19:16:38","Delta"
"948197","204164750200188","11","2019-09-17","","2019-10-17","20.0000","20.00","4","2019-09-17 19:16:25","Delta"
"948795","204164750210834","11","2019-09-17","","2019-10-17","20.0000","20.00","4","2019-09-17 00:05:13","Delta"
"948932","204164750200079","10","2019-09-16","","2019-10-17","7.0000","","","2019-09-17 00:05:13","Delta"
"800436","204164750202216","7","2018-11-07","2019-09-17","2019-10-17","20.0000","5.00","6","2019-09-17 11:43:07","Delta"
"948990","204164750200086","11","2019-09-13","","2019-10-17","20.0000","20.00","4","2019-09-17 19:13:10","Delta"
"949178","204164750200091","35","2019-09-17","","2019-10-17","22.5000","20.00","4","2019-09-17 14:25:42","Delta"
"948504","204164750211390","11","2019-08-31","","2019-10-17","20.0000","20.00","4","2019-09-17 19:16:50","Delta"
"948918","204164750210967","11","2019-09-17","","2019-10-17","20.0000","20.00","4","2019-09-17 00:05:13","Delta"
"948950","204164750210785","11","2019-09-17","","2019-10-17","20.0000","20.00","4","2019-09-17 00:05:14","Delta"
"949091","204164750200140","11","2019-09-16","","2019-10-17","20.0000","20.00","4","2019-09-17 18:58:43","Delta"
"948060","204164750211429","11","2019-09-17","","2019-10-17","20.0000","20.00","4","2019-09-17 18:58:45","Delta"
"948624","204164750210896","10","2019-09-17","","2019-10-17","7.0000","","","2019-09-17 19:16:14","Delta"
"948928","204164750210787","11","2019-09-17","","2019-10-17","20.0000","20.00","4","2019-09-17 00:05:13","Delta"
"947383","204164750211002","11","2019-09-17","","2019-10-17","20.0000","20.00","4","2019-09-17 18:47:04","Delta"
"947790","204164750211372","11","2019-09-17","","2019-10-17","20.0000","20.00","4","2019-09-17 00:05:13","Delta"
"949136","204164750212665","11","2019-09-17","","2019-10-17","20.0000","20","12","2019-09-17 00:05:14","Delta"
"948381","204164750212582","11","2019-09-09","2019-09-16","2019-10-17","20.0000","20.00","6","2019-09-17 00:05:13","Delta"
