"initial","salutation","firstname","middlename","lastname","id","deltaid","caiwayid","address1","housenumber","alphabet","postcode","city","country","delta_address1","delta_housenumber","delta_alphabet","delta_postcode","delta_city","delta_country","caiway_address1","caiway_housenumber","caiway_alphabet","caiway_postcode","caiway_city","caiway_country","email","phonenumber","phonenumber2","iban","brand","date_modified"
"","Mevr.","A M ","","Keijser Besemer","949893","M","","Beatrixstraat","7","","4554 CK","Westdorpe","NL","Beatrixstraat","7","","4554 CK","Westdorpe","NL","","","","","","","pringle@zeelandnet.nl","31115452036","","Nl81INGB0002149149","Delta","2019-09-27 09:31:38"
"","Dhr.","A.W.","","Van Hoeve","949895","M","","Graaf van vlaanderenstraat","26 ","","4553 CV","philippine","NL","Graaf van vlaanderenstraat","26 ","","4553 CV","philippine","NL","","","","","","","awvanhoeve@yahoo.com","31627213178","","NL63ABNA0415684099","Delta","2019-09-27 10:41:07"
"","Dhr.","J.","","van Belzen","949898","M117888","","Wielingen","33 ","","4341 LM","Arnemuiden","NL","Wielingen","33 ","","4341 LM","Arnemuiden","NL","","","","","","","tiero@zeelandnet.nl","0620349250","","NL67RABO0303811773","Delta","2019-09-27 11:58:15"
"","Mevr.","M.S.","","Poirters-Simons","949902","20089800","","Bosjesweg ","30  ","","4541 AP","Sluiskil","NL","Bosjesweg ","30  ","","4541 AP","Sluiskil","NL","","","","","","","marjansimons4@gmail.com","31115750389","","NL64ABNA0624055116","Delta","2019-09-27 13:14:43"
"","Dhr.","G.J.","","Schaijk","949903","M498943","","Wilgenstraat","23","","4581 AM","Vogelwaarde","NL","Wilgenstraat","23","","4581 AM","Vogelwaarde","NL","","","","","","","fictief_emailadres_4581am23@delta.nl","0639803684","","NL79ABNA0614032903","Delta","2019-09-27 13:33:17"
"","Mevr.","M.I.P.","","Vermeulen-Nuijten","949904","M378666","","A de Koningstraat","42 ","","4434 AH","Kwadendamme","NL","A de Koningstraat","42 ","","4434 AH","Kwadendamme","NL","","","","","","","isabart@zeelandnet.nl","31113649553","","NL92RABO0346062195","Delta","2019-09-27 14:15:04"
"","Dhr.","K","","van Belzen","949905","M115612VERLENGING","","Leeghwaterstraat","97 ","","4382 JM","Vlissingen","NL","Leeghwaterstraat","97 ","","4382 JM","Vlissingen","NL","","","","","","","peewee@zeelandnet.nl","31118412627","","NL24ABNA0555740579","Delta","2019-09-27 14:53:19"
"","Dhr.","W.J.","","Krijnsen","949906","K03405437","","Coolhofflaan","14 ","","4414 BK","Waarde","NL","Coolhofflaan","14 ","","4414 BK","Waarde","NL","","","","","","","krijnsen.rc@outlook.com","31113502017","","NL37RABO0333634381","Delta","2019-09-27 15:13:06"
"","Mevr.","M.A.","","Maijs-Gelderland","949908","M","","Boulevard","28","","4697 BC","Sint-Annaland","NL","Boulevard","28","","4697 BC","Sint-Annaland","NL","","","","","","","maaike.maijs@zeelandnet.nl","","","NL56RABO0309338352","Delta","2019-09-27 15:53:14"
"","Dhr.","D.H.","","van der  Knaap","949909","M320563","","Johnsonlaan","42 ","","4463 GW","Goes","NL","Johnsonlaan","42 ","","4463 GW","Goes","NL","","","","","","","dvdknaap@zeelandnet.nl","31113213354","","NL18INGB0006222925","Delta","2019-09-27 16:03:56"
"","Dhr.","C.L.","","Maijs","949910","M","","Sint-Annaland","28 ","","4697 BC","Sint-Annaland","NL","Sint-Annaland","28 ","","4697 BC","Sint-Annaland","NL","","","","","","","cormaijs@zeelandnet.nl","31621837555","","NL56RABO0309338352","Delta","2019-09-27 16:09:50"
"","Mevr.","M.E. ","","Louwerse-Vaes","949911","K03538164","","Ferdinand","Bollaan","","4401 SC","Yerseke","NL","Ferdinand","Bollaan","","4401 SC","Yerseke","NL","","","","","","","erik.louwerse@zeelandnet.nl","31113573251","","NL52ABNA0466490666","Delta","2019-09-27 16:53:05"
"","Dhr.","M.","","de Leeuw","949912","M111111","","Ambachtsstraat","10A ","","4431 BE","\'S-GRAVENPOLDER","NL","Ambachtsstraat","10A ","","4431 BE","\'S-GRAVENPOLDER","NL","","","","","","","mdeleeuw52@zeelandnet.nl","31113211243","","NL37INGB0003482915","Delta","2019-09-27 16:59:53"
"","Dhr.","J.","","Vreugdenhil","949913","M","","Kasteelstraat ","26 ","","4421 EJ","KAPELLE","NL","Kasteelstraat ","26 ","","4421 EJ","KAPELLE","NL","","","","","","","jaapenjess@gmail.com","31630257817","","NL13RABO0142766070","Delta","2019-09-27 17:14:06"
"","Dhr.","R.","","Boshoeve","949881","","1350605","De Smidse "," 2","","7681 BV","Vroomshoop","NL","","","","","","","De Smidse "," 2","","7681 BV","Vroomshoop","NL","bertusdiny@caiway.nl","546643574","","nl35abna0419445390","Caiway","2019-09-27 02:00:06"
"","Dhr.","John","","Vos","949882","","1416658","Churchillstraat","21","","7681 XR","Vroomshoop","NL","","","","","","","Churchillstraat","21","","7681 XR","Vroomshoop","NL","johnvos42@live.nl","","","Nl47rbrb0778234843","Caiway","2019-09-27 02:00:18"
"","Dhr.","F.C.","","Rudolfs","949883","","1152872","Lage Wei "," 14","","3844 NE","Harderwijk","NL","","","","","","","Lage Wei "," 14","","3844 NE","Harderwijk","NL","ferrie@rudolfs.nl","31341410310","","NL36INGB0002953895","Caiway","2019-09-27 02:00:29"
"","Dhr.","F.","","van der  Velde","949884","","1451519","Du Perronlaan"," 26","","1422 CR","Uithoorn","NL","","","","","","","Du Perronlaan"," 26","","1422 CR","Uithoorn","NL","fransv@ndervelde.com","","","nl59rabo0141326344","Caiway","2019-09-27 02:00:41"
"","Dhr.","J.","","Huiskens","949885","","904955","Filips van Bourgondiëstraat 21"," ","","3117 SB","Schiedam","NL","","","","","","","Filips van Bourgondiëstraat 21"," ","","3117 SB","Schiedam","NL","jocoro@kabelfoon.nl","","","nl19ingb0000789646","Caiway","2019-09-27 02:00:53"
"","Dhr.","W.L.P. ","","ten Brinke","949886","","1363707","Vixseboxsestraat","27","","7602 DD","Almelo","NL","","","","","","","Vixseboxsestraat","27","","7602 DD","Almelo","NL","harmonicawim@hotmail.nl","31546456644","","NL91RABO0102185395","Caiway","2019-09-27 02:01:04"
"","Dhr.","J.S.","","Anakotta","949887","","1446737","Lekdijk","28","","2921 AD","Krimpen aan den IJssel","NL","","","","","","","Lekdijk","28","","2921 AD","Krimpen aan den IJssel","NL","tjoa48@gmail.com","","","nl77rabo0351968989","Caiway","2019-09-27 02:01:22"
"","Dhr.","P.G.","","Arts","949888","","M","De Condor"," 43","","7609 HA","Almelo","NL","","","","","","","De Condor"," 43","","7609 HA","Almelo","NL","pgarts@kpnmail.nl","","","NL87TRIO0786851899","Caiway","2019-09-27 02:01:33"
"","Dhr.","M","","EL HADJI","949889","","1428993","Haya van Somerenstraat"," 12","","1433 PB","Kudelstaart","NL","","","","","","","Haya van Somerenstraat"," 12","","1433 PB","Kudelstaart","NL","hadji009@hotmail.com","","","NL73INGB0002647970","Caiway","2019-09-27 02:01:44"
"","Dhr.","R","","Noordzij","949890","","1484767","Bruidssluier","11","","3171 PK","Poortugaal","NL","","","","","","","Bruidssluier","11","","3171 PK","Poortugaal","NL","rnoordzij@gmail.com","","","NL97RABO0355310279","Caiway","2019-09-27 02:01:55"
"","Dhr.","R.P.","","Kalshoven","949891","","1429003","Loohof","24","","7478 BL","Diepenheim","NL","","","","","","","Loohof","24","","7478 BL","Diepenheim","NL","kals@ciaway.nl","31547373689","","NL71RBRB0782943276","Caiway","2019-09-27 02:02:07"
"","Dhr.","J","","Bultman","949892","","1482267","Koeweg","15","","8084 PN","\'t Harde","NL","","","","","","","Koeweg","15","","8084 PN","\'t Harde","NL","janharmkebultman@gmail.com","","","nl60rabo0314745351","Caiway","2019-09-27 02:02:18"
