"initial","salutation","firstname","middlename","lastname","id","deltaid","caiwayid","address1","housenumber","alphabet","postcode","city","country","delta_address1","delta_housenumber","delta_alphabet","delta_postcode","delta_city","delta_country","caiway_address1","caiway_housenumber","caiway_alphabet","caiway_postcode","caiway_city","caiway_country","email","phonenumber","phonenumber2","iban","brand","date_modified"
"","Dhr.","L.","","de Blaeij","950502","M133035","","Altenastraat","13","","4542 RZ","Hoek","NL","Altenastraat","13","","4542 RZ","Hoek","NL","","","","","","","ldeblaeij@zeelandnet.nl","31657843203","","NL53INGB0001807049","Delta","2019-10-14 09:33:33"
"","Mevr.","M.L.","","Koster - Paridaen","950503","M598334","","Romanlaan","26","","4527 BE","Aardenburg","NL","Romanlaan","26","","4527 BE","Aardenburg","NL","","","","","","","escaldaloes@gmail.com","0111749159","","NL35RABO0121128466","Delta","2019-10-14 09:55:17"
"","Mevr.","M.L.","","Koster - Paridaen","950504","M598334","","Romanlaan","26","","4527 BE","Aardenburg","NL","Romanlaan","26","","4527 BE","Aardenburg","NL","","","","","","","michelk44@gmail.com","3111749159","","NL35RABO0121128466","Delta","2019-10-14 10:02:07"
"","Dhr.","D.L.L.A.","","Noens","950505","M","","de Ruyterlaan 6 ","","","4567 CP","Clinge","NL","de Ruyterlaan 6 ","","","4567 CP","Clinge","NL","","","","","","","dirk947@hotmail.com","31616578740","","NL45ABNA0409631817","Delta","2019-10-14 10:17:44"
"","Mevr.","P.H.","","Tempel-de Groot","950506","M558614","","Wielingenstraat","66","","4301 XR","Zierikzee","NL","Wielingenstraat","66","","4301 XR","Zierikzee","NL","","","","","","","nejadja@zeelandnet.nl","0621469440","","NL47INGB0002804899","Delta","2019-10-14 11:01:30"
"","Mevr.","D.","","Heijnsdijk-van Liere","950507","M599824","","'s-Gravenpolderseweg","120","","4462 RA","Goes","NL","'s-Gravenpolderseweg","120","","4462 RA","Goes","NL","","","","","","","bas.diny@planet.nl","31625000050","","NL49RABO0334052041","Delta","2019-10-14 11:16:39"
"","Dhr.","S.","","Elshani","950510","M303285","","Schepenlaan","64","","4533 JR","Terneuzen","NL","Schepenlaan","64","","4533 JR","Terneuzen","NL","","","","","","","elshani67@hotmail.com","0115612183","","NL75ABNA0447538780","Delta","2019-10-14 13:30:42"
"","Dhr.","A.H.","","Wassink","950511","M311621","","Middelmeet","39","","4464 AX","Goes","NL","Middelmeet","39","","4464 AX","Goes","NL","","","","","","","wassink@zeelandnet.nl","31651149066","","NL49ABNA0823480402","Delta","2019-10-14 14:04:03"
"","Mevr.","J.J.J.M.","","van Overveld","950512","M","","Veerweg","67","","4493 AN","Kamperland","NL","Veerweg","67","","4493 AN","Kamperland","NL","","","","","","","overveld@zeelandnet.nl","31113372685","","NL76RABO0371444764","Delta","2019-10-14 14:06:37"
"","Dhr.","T.J.","","Huisman","950513","M368252","","Zuidwal","27","","4501 BW","Oostburg","NL","Zuidwal","27","","4501 BW","Oostburg","NL","","","","","","","tjhuisman@zeelandnet.nl","0117453642","","NL37RABO0139402357","Delta","2019-10-14 14:09:00"
"","Mevr.","M.A","","van Vooren - Wagenaar","950514","M","","Hoogvogelstraat 3 IJzendijke ","","","4515 DB","IJzendijke","NL","Hoogvogelstraat 3 IJzendijke ","","","4515 DB","IJzendijke","NL","","","","","","","cvanvooren@zeelandnet.nl","31117302156","","NL06RABO0369541235","Delta","2019-10-14 14:24:17"
"","Dhr.","M.D.","","Podsiadlo","950515","M473822","","Herman","Heijermansstraa","","4532 GH","Terneuzen","NL","Herman","Heijermansstraa","","4532 GH","Terneuzen","NL","","","","","","","marekpodsiadlo@gmail.com","31647746113","","NL78ABNA0829470212","Delta","2019-10-14 15:03:51"
"","Dhr.","L.A","","de Visser","950516","K20153704","","Bergstraat","12 ","","4365 BD","Meliskerke","NL","Bergstraat","12 ","","4365 BD","Meliskerke","NL","","","","","","","lowieb@live.nl","31642076273","","NL94RABO0314415521","Delta","2019-10-14 15:05:20"
"","Dhr.","L.G.","","Rynberg","950517","M308566","","Rubensstraat","8 ","","4561 KN","Hulst","NL","Rubensstraat","8 ","","4561 KN","Hulst","NL","","","","","","","lgrijnberg@zeelandnet.nl","0621964773","","NL82INGB0685604632","Delta","2019-10-14 15:46:53"
"","Dhr.","J.","","Steenaard","950518","M318974","","Touwbaan","2 ","","4331 VA","Middelburg","NL","Touwbaan","2 ","","4331 VA","Middelburg","NL","","","","","","","jsteenaard@zeelandnet.nl","0118625760","","NL42INGB0000056009","Delta","2019-10-14 16:21:23"
"","Mevr.","A.j.a.","","Van leeuwen","950519","M","","Jacob valckestraat 18","   ","","4451 AX","Heinkenszand","NL","Jacob valckestraat 18","   ","","4451 AX","Heinkenszand","NL","","","","","","","avleeuwen@zeelandnet.nl","","","Nl86ingb0003224595","Delta","2019-10-14 16:52:40"
"","Dhr.","M.","","Danckers","950522","M","","Liniestraat","303","","4561 ZW","Hulst","NL","Liniestraat","303","","4561 ZW","Hulst","NL","","","","","","","maximdanckers@gmail.com","","","Nl96ingb0688851843","Delta","2019-10-14 16:57:09"
"","Mevr.","S","","Van Belzen","950523","M","","Bluesroutebleus route 27"," ","","4337 WG","Middelburg","NL","Bluesroutebleus route 27"," ","","4337 WG","Middelburg","NL","","","","","","","svdh2010@live.nl","","","Nl71rabo0302070648","Delta","2019-10-14 17:09:22"
"","Dhr.","L.","","Joos","950524","M599695","","Klein","Kanaalweg","","4554 LP","Westdorpe","NL","Klein","Kanaalweg","","4554 LP","Westdorpe","NL","","","","","","","joos.lieven@telenet.be","31475895981","","BE37449277221128","Delta","2019-10-14 17:26:42"
"","Dhr.","Ll","","Verschuren","950525","M","","Poorterslaan","77","","4561 ZM","Hulst","NL","Poorterslaan","77","","4561 ZM","Hulst","NL","","","","","","","llverschuren@zeelandnet.nl","","","Nl58ingb0000592519","Delta","2019-10-14 17:35:49"
"","Dhr.","H.W.J.","","Verberk","950527","M","","Pasteurstraat","7 ","","4416 EB","Kruiningen","NL","Pasteurstraat","7 ","","4416 EB","Kruiningen","NL","","","","","","","4416eb7@delta.nl","31657378260","","NL62RABO0333609972","Delta","2019-10-14 17:47:02"
"","","Harry","","Duijnisveld","950501","","P0000430","Overschieseweg ","208","","3112 nb","Schiedam","NL","","","","","","","Overschieseweg ","208","","3112 nb","Schiedam","NL","h.duijnisveld@office.caiw.nl","0638613366","","NL75INGB0650365143","Caiway","2019-10-14 09:25:09"
"","Dhr.","P","","TEST","950508","","1","Testraat","2A","","1234 AB","Den Haag","NL","","","","","","","Testraat","2A","","1234 AB","Den Haag","NL","pturfb.oer@gmail.com","31123456789","","NL15INGB0650369424","Caiway","2019-10-14 11:37:26"
