"initial","salutation","firstname","middlename","lastname","id","deltaid","caiwayid","address1","housenumber","alphabet","postcode","city","country","delta_address1","delta_housenumber","delta_alphabet","delta_postcode","delta_city","delta_country","caiway_address1","caiway_housenumber","caiway_alphabet","caiway_postcode","caiway_city","caiway_country","email","phonenumber","phonenumber2","iban","brand","date_modified"
"","Dhr.","R","","Van de Vijver","947576","M","","Ghistelkerke","513","","4511 JN","Breskens","NL","Ghistelkerke","513","","4511 JN","Breskens","NL","","","","","","","rickyvdvijver@hotmail.com","","","NL59ABNA0584505493","Delta","2019-08-10 00:33:28"
"","Dhr.","K","","Boone","947579","M40024001","","Dorpsstraat","10","","4356 AJ","Oostkapelle","NL","Dorpsstraat","10","","4356 AJ","Oostkapelle","NL","","","","","","","kboone1@zeelandnet.nl","31118580514","","NL31RABO0324008694","Delta","2019-08-10 10:51:04"
"","Dhr.","A.","","Ebbens","947580","M113772","","Veerweg","42b","","4493 AT","Kamperland","NL","Veerweg","42b","","4493 AT","Kamperland","NL","","","","","","","aebbens@zeelandnet.nl","31113695253","","NL43RABO0312206003","Delta","2019-08-10 11:01:50"
"","Mevr.","M.","","Hoedeman","947581","K00246048","","Kastanjestraat","42","","4431 CV","\'s-Gravenpolder","NL","Kastanjestraat","42","","4431 CV","\'s-Gravenpolder","NL","","","","","","","lavieren@zeelandnet.nl","31113311882","","NL36RABO0103039015","Delta","2019-08-10 11:03:41"
"","Dhr.",".H.P.A.C","","de Waal","947582","M","","Klaproos","4","","4561 TJ","Hulst","NL","Klaproos","4","","4561 TJ","Hulst","NL","","","","","","","pollydewaal@gmail.com","31114851982","","NL35RABO0322602122","Delta","2019-08-10 11:05:29"
"","Dhr.","j.j.","","janse","947583","M","","Schonewal","18","","4416 HB","Kruiningen","NL","Schonewal","18","","4416 HB","Kruiningen","NL","","","","","","","johnhotmail@zeelandnet.nl","31113574031","","NL35INGB0005731314","Delta","2019-08-10 11:22:43"
"","Dhr.","R.C.L. ","","Pollet","947584","M311678","","Calandstraat","19","","4551 AT","Sas van Gent","NL","Calandstraat","19","","4551 AT","Sas van Gent","NL","","","","","","","rudypollet@zeelandnet.nl","31115451988","","NL06INGB0003165798","Delta","2019-08-10 11:35:04"
"","Dhr.","G.","","Bolding","947585","M399731","","Raadhuisstraat","43","","4431 AH","\'s-Gravenpolder","NL","Raadhuisstraat","43","","4431 AH","\'s-Gravenpolder","NL","","","","","","","joesanbold@zeelandnet.nl","31113850486","","NL82ABNA0464247195","Delta","2019-08-10 11:39:37"
"","Dhr.","J","","Hoogendoorn","947587","M","","Prunusstraat","104","","4431 DB","\'s-Gravenpolder","NL","Prunusstraat","104","","4431 DB","\'s-Gravenpolder","NL","","","","","","","hoogendoorn.felix@stipte.nl","31123456789","","NL19INGB0000063116","Delta","2019-08-10 12:04:37"
"","Mevr.","E.","","van Endhoven","947588","M318217","","Vivaldiplein","16","","4536 BH","Terneuzen","NL","Vivaldiplein","16","","4536 BH","Terneuzen","NL","","","","","","","demithor@zeelandnet.nl","31622697814","","NL24RABO0362314411","Delta","2019-08-10 12:17:11"
"","Mevr.","J.M.","","Jakobsen","947589","M482438'VERLENGEN","","Keldermanstraat","9","","4561 XN","Hulst","NL","Keldermanstraat","9","","4561 XN","Hulst","NL","","","","","","","lachma@zeelandnet.nl","31114851328","","NL40RABO0321303202","Delta","2019-08-10 12:21:43"
"","Mevr.","P.","","van  Gremberghe","947590","M374572","","Tapijtschelp","20","","4533 DS","Terneuzen","NL","Tapijtschelp","20","","4533 DS","Terneuzen","NL","","","","","","","mennogremberghe@gmail.com","31682220541","","NL75RABO0392491648","Delta","2019-08-10 12:33:43"
"","Dhr.","M.B.","","Vermaas","947592","M11111111","","Marshallstraat","64","","4463 CR","Goes","NL","Marshallstraat","64","","4463 CR","Goes","NL","","","","","","","markbv@zeelandnet.nl","31646807761","","NL23RABO0322277000","Delta","2019-08-10 13:36:26"
"","Dhr.","L.G.J","","Vogelzang","947593","M595494","","Couwervestraat","39","","4461 XB","Goes","NL","Couwervestraat","39","","4461 XB","Goes","NL","","","","","","","lodewijckvogelzang@msn.com","31642530867","","NL26RABO0119529971","Delta","2019-08-10 13:45:11"
"","Dhr.","M.P.","","Lerke","947594","M112773","","Spinellihof","42","","4463 GP","Goes","NL","Spinellihof","42","","4463 GP","Goes","NL","","","","","","","martinensusan@zeelandnet.nl","31611774742","","NL25RABO0331562774","Delta","2019-08-10 13:54:58"
"","Dhr.","R.A.","","Eenennaam","947596","M111111","","Driewegenhof","365","","4337 GH","Middelburg","NL","Driewegenhof","365","","4337 GH","Middelburg","NL","","","","","","","ruudjudith@zeelandnet.nl","311186352","","NL66ABNA0810877856","Delta","2019-08-10 14:17:05"
"","Mevr.","E.M.","","Tolen","947597","M111111","","Wijenburg","28","","4385 GP","Vlissingen","NL","Wijenburg","28","","4385 GP","Vlissingen","NL","","","","","","","angelatolen@hotmail.com","316484770","","NL09ABNA0811088693","Delta","2019-08-10 14:33:45"
"","Dhr.","B.","","van den Berge","947598","K00333211","","Karremansweidjes","3","","4464 JG","Goes","NL","Karremansweidjes","3","","4464 JG","Goes","NL","","","","","","","bvdberge@zeelandnet.nl","31113211221","","NL89RABO0320570746","Delta","2019-08-10 15:21:31"
"","Dhr.","M.M.E.","","Schalkx","947600","K10075812","","Hoogaarswerf","10","","4533 JG","Terneuzen","NL","Hoogaarswerf","10","","4533 JG","Terneuzen","NL","","","","","","","michielulrike@zeelandnet.nl","31627296529","","NL17RABO0150223552","Delta","2019-08-10 15:46:04"
"","Dhr.","A.J.","","Schotman","947591","","M","Grotestraat 45 a ","","","7683 BA","Den Ham","NL","","","","","","","Grotestraat 45 a ","","","7683 BA","Den Ham","NL","a.schotman51@gmail.com","","","NL36ABNA0987102079","Caiway","2019-08-10 12:44:26"
"","Dhr.","tj","","van de  camp","947595","","M","Het Reut 610  ","","","5351 TH","Berghem","NL","","","","","","","Het Reut 610  ","","","5351 TH","Berghem","NL","theovandecamp@caiway.nl","412761880","","NL27INGB0002850461","Caiway","2019-08-10 14:01:37"
"","Dhr.","J.A.J.","","van Cappelle","947599","","711795","Westblok","11","","2291 WZ","Wateringen","NL","","","","","","","Westblok","11","","2291 WZ","Wateringen","NL","capru@kabelfoon.nl","31","","NL49RABO0368144437","Caiway","2019-08-10 15:23:52"
