"CustomerNumber","IMSI","Productid","Start_date","End_Of_Contract","Date_Contract_Prolong","MRR","MRR_Discount","MRR_Discount_Duration","Date_Mutation","Brand"
"946011","204164750207144","85","2019-09-26","","2020-09-26","20.0000","","","2019-08-26 12:50:04","Caiway"
"946421","204164750201892","11","2019-08-26","","2019-09-26","20.0000","5.00","6","2019-08-26 00:15:12","Delta"
"947787","204164750212799","11","2019-08-17","2019-08-26","2019-09-26","20.0000","20.00","4","2019-08-26 15:31:54","Delta"
"946814","204164750213411","11","2019-08-26","","2019-09-26","20.0000","20.00","4","2019-08-26 00:15:13","Delta"
"948110","204164750211428","11","2019-08-26","","2019-09-26","20.0000","20.00","4","2019-08-26 00:15:14","Delta"
"946851","204164750213387","11","2019-08-26","","2019-09-26","20.0000","5.00","600","2019-08-26 00:15:13","Delta"
"946945","204164750200042","11","2019-08-26","","2019-09-26","20.0000","20.00","4","2019-08-26 00:15:13","Delta"
"945683","204164750201587","11","2019-06-11","2019-08-26","2019-09-26","20.0000","5.00","6","2019-08-26 00:15:12","Delta"
"947624","204164750213027","11","2019-08-26","","2019-09-26","20.0000","20.00","4","2019-08-26 00:15:14","Delta"
"946758","204164750213404","11","2019-08-26","","2019-09-26","20.0000","20.00","4","2019-08-26 00:15:13","Delta"
"947822","204164750211371","35","2019-08-26","","2021-08-26","22.5000","20.00","4","2019-08-26 00:15:14","Delta"
"946822","204164750213368","11","2019-08-26","","2019-09-26","20.0000","20.00","4","2019-08-26 00:15:13","Delta"
"948247","","10","2019-08-26","","2019-09-26","7.0000","","","2019-08-26 14:16:14","Delta"
"946899","204164750211523","11","2019-08-26","","2019-09-26","20.0000","20.00","4","2019-08-26 00:15:13","Delta"
"907116","204164750204966","11","2019-01-06","2019-09-13","2019-09-26","20.0000","5.00","6","2019-08-26 13:15:01","Delta"
"946992","204164750200041","11","2019-08-26","","2021-08-26","20.0000","20.00","4","2019-08-26 00:15:13","Delta"
"946364","204164750201117","11","2019-08-26","","2019-09-26","20.0000","20.00","4","2019-08-26 00:15:12","Delta"
"947696","204164750213474","11","2019-08-15","2019-08-26","2019-09-26","20.0000","20.00","4","2019-08-26 14:59:40","Delta"
"946716","204164750213466","11","2019-08-26","","2019-09-26","20.0000","20.00","4","2019-08-26 00:15:13","Delta"
"948092","204164750212657","11","2019-08-26","","2019-09-26","20.0000","20.00","4","2019-08-26 00:15:14","Delta"
"946855","204164750213444","11","2019-08-26","","2019-09-26","20.0000","20.00","4","2019-08-26 00:15:13","Delta"
"946941","204164750200043","11","2019-08-26","","2019-09-26","20.0000","20.00","4","2019-08-26 00:15:13","Delta"
"944484","204164750202343","10","2019-06-30","2019-08-26","2019-09-26","7.0000","","","2019-08-26 00:15:12","Delta"
"947347","204164750213049","11","2019-08-15","2019-08-26","2019-09-26","20.0000","20.00","6","2019-08-26 20:47:50","Delta"
"946541","204164750213291","43","2019-08-26","","2019-09-26","25.0000","20.00","4","2019-08-26 00:15:13","Delta"
"947814","204164750212737","11","2019-08-19","2019-08-26","2019-09-26","20.0000","20.00","4","2019-08-26 20:57:34","Delta"
"946836","204164750211528","35","2019-08-26","","2021-08-26","22.5000","20.00","4","2019-08-26 00:15:13","Delta"
"948245","","11","2019-08-26","","2019-09-26","20.0000","20.00","4","2019-08-26 11:07:00","Delta"
"946882","204164750200046","10","2019-08-26","","2019-09-26","7.0000","","","2019-08-26 00:15:13","Delta"
"946625","204164750213412","11","2019-08-26","","2019-09-26","20.0000","20.00","4","2019-08-26 00:15:13","Delta"
"946229","204164750201894","11","2019-08-26","","2019-09-26","20.0000","5.00","6","2019-08-26 00:15:12","Delta"
"947675","204164750212949","11","2019-08-14","2019-08-26","2019-09-26","20.0000","20.00","4","2019-08-26 20:30:57","Delta"
"946782","204164750201115","11","2019-08-26","","2019-09-26","20.0000","5.00","6","2019-08-26 00:15:13","Delta"
"948059","204164750212776","11","2019-08-26","","2019-09-26","20.0000","20.00","4","2019-08-26 00:15:14","Delta"
"946855","204164750213445","11","2019-08-26","","2019-09-26","20.0000","20.00","4","2019-08-26 00:15:13","Delta"
"946927","204164750213324","11","2019-08-26","","2019-09-26","20.0000","20.00","4","2019-08-26 00:15:13","Delta"
"943995","204164750200831","11","2019-04-23","2019-09-25","2019-09-26","20.0000","5.00","6","2019-08-26 11:30:01","Delta"
"947272","204164750213249","11","2019-08-07","2019-08-26","2019-09-26","20.0000","20.00","4","2019-08-26 11:45:53","Delta"
"946484","204164750201990","11","2019-08-26","","2019-09-26","20.0000","20.00","4","2019-08-26 00:15:12","Delta"
"947812","204164750212738","11","2019-08-19","2019-08-26","2019-09-26","20.0000","20.00","4","2019-08-26 20:24:16","Delta"
"946819","204164750213373","11","2019-08-26","","2019-09-26","20.0000","20.00","4","2019-08-26 00:15:13","Delta"
"948235","","7","2019-08-26","","2019-09-26","20.0000","5.00","6","2019-08-26 13:37:51","Delta"
"946881","204164750211524","43","2019-08-26","","2019-09-26","25.0000","20.00","4","2019-08-26 00:15:13","Delta"
"946955","204164750213332","11","2019-08-26","","2019-09-26","20.0000","20.00","4","2019-08-26 00:15:13","Delta"
"947629","204164750212906","11","2019-08-26","","2019-09-26","20.0000","20.00","4","2019-08-26 00:15:14","Delta"
"946766","204164750200255","11","2019-08-26","","2021-08-26","20.0000","20.00","4","2019-08-26 00:15:13","Delta"
"948058","204164750201068","35","2019-08-26","","2021-08-26","22.5000","20.00","4","2019-08-26 00:15:14","Delta"
"946855","204164750213446","11","2019-08-26","","2019-09-26","20.0000","20.00","4","2019-08-26 00:15:13","Delta"
"946907","204164750211521","11","2019-08-26","","2019-09-26","20.0000","20.00","4","2019-08-26 00:15:13","Delta"
"943995","204164750200830","11","2019-05-01","2019-09-25","2019-09-26","20.0000","5.00","6","2019-08-26 11:30:01","Delta"
"947134","204164750213494","10","2019-08-26","","2019-09-26","7.0000","","","2019-08-26 00:15:13","Delta"
