"CustomerNumber","IMSI","Productid","Start_date","End_Of_Contract","Date_Contract_Prolong","MRR","MRR_Discount","MRR_Discount_Duration","Date_Mutation","Brand"
"947293","204164750201933","11","2019-08-07","","2019-10-14","20.0000","20.00","4","2019-09-14 20:55:13","Delta"
"947636","204164750212915","11","2019-09-13","","2019-10-14","20.0000","20.00","4","2019-09-14 00:01:01","Delta"
"943595","204164750204272","11","2019-03-04","2019-09-13","2019-10-14","20.0000","5.00","6","2019-09-14 00:01:01","Delta"
"947596","204164750212999","11","2019-09-13","","2019-10-14","20.0000","20.00","4","2019-09-14 00:01:01","Delta"
"949046","","11","2019-09-14","","2021-09-14","20.0000","20.00","4","2019-09-14 15:30:54","Delta"
"947531","204164750212980","11","2019-08-09","","2019-10-14","20.0000","5.00","6","2019-09-14 00:01:01","Delta"
"948296","","10","2019-08-26","","2019-10-14","7.0000","","","2019-09-14 00:01:01","Delta"
