"CustomerNumber","IMSI","Productid","Start_date","End_Of_Contract","Date_Contract_Prolong","MRR","MRR_Discount","MRR_Discount_Duration","Date_Mutation","Brand"
"946528","204164750207330","82","2019-07-30","","2021-07-30","17.5000","","","2019-08-02 14:50:05","Caiway"
"946876","","81","2019-07-31","","2021-07-31","12.5000","","","2019-08-01 21:50:06","Caiway"
"947118","","11","2019-08-02","","2019-09-02","20.0000","20.00","4","2019-08-02 00:06:51","Delta"
"947174","","11","2019-08-02","","2019-09-02","20.0000","20.00","4","2019-08-02 11:42:50","Delta"
"943321","204164750204842","11","2019-03-04","","2019-09-02","20.0000","5.00","6","2019-08-02 15:50:04","Delta"
"945942","204164750201718","11","2019-08-01","","2019-09-02","20.0000","5.00","600","2019-08-02 11:50:01","Delta"
"947125","","11","2019-08-02","","2019-09-02","20.0000","20.00","4","2019-08-02 00:06:51","Delta"
"945438","204164750201412","11","2019-08-02","","2019-09-02","20.0000","5.00","6","2019-08-02 00:06:50","Delta"
"946214","204164750201766","11","2019-08-02","","2019-09-02","20.0000","5.00","600","2019-08-02 00:06:50","Delta"
"947098","","11","2019-08-01","2019-08-01","2019-09-02","20.0000","20.00","4","2019-08-02 00:06:51","Delta"
"947147","","11","2019-08-02","","2019-09-02","20.0000","20.00","4","2019-08-02 00:06:52","Delta"
"945212","204164750201707","43","2019-08-02","","2019-09-02","25.0000","","","2019-08-02 00:06:50","Delta"
"946243","204164750201734","11","2019-08-02","","2019-09-02","20.0000","5.00","6","2019-08-02 00:06:50","Delta"
"947123","","10","2019-08-02","","2019-09-02","7.0000","","","2019-08-02 00:06:51","Delta"
"947232","","11","2019-08-02","","2019-09-02","20.0000","20.00","4","2019-08-02 16:33:09","Delta"
"944652","204164750200757","11","2019-04-11","2019-08-01","2019-09-02","20.0000","5.00","6","2019-08-02 00:06:50","Delta"
"946190","204164750201848","11","2019-08-02","","2019-09-02","20.0000","5.00","6","2019-08-02 00:06:50","Delta"
"947146","","11","2019-08-02","","2019-09-02","20.0000","20.00","4","2019-08-02 00:06:52","Delta"
"945212","204164750201706","43","2019-08-02","","2019-09-02","25.0000","","","2019-08-02 00:06:50","Delta"
"946238","204164750201730","11","2019-08-02","","2019-09-02","20.0000","5.00","6","2019-08-02 00:06:50","Delta"
"947123","","11","2019-08-02","","2019-09-02","20.0000","20.00","4","2019-08-02 00:06:51","Delta"
"947183","","11","2019-08-02","","2019-09-02","20.0000","20.00","4","2019-08-02 13:01:17","Delta"
"943533","204164750200513","11","2019-03-13","2019-08-02","2019-09-02","20.0000","5.00","6","2019-08-02 00:06:50","Delta"
"945959","204164750204132","11","2019-08-02","","2019-09-02","20.0000","5.00","6","2019-08-02 00:06:50","Delta"
"946734","204164750200264","11","2019-08-02","","2019-09-02","20.0000","20.00","4","2019-08-01 21:50:04","Delta"
"947139","","11","2019-08-02","","2019-09-02","20.0000","20.00","4","2019-08-02 00:06:51","Delta"
"945733","204164750201638","11","2019-08-02","","2019-09-02","20.0000","5.00","6","2019-08-02 00:06:50","Delta"
"946223","204164750200364","10","2019-08-02","","2019-09-02","7.0000","","","2019-08-02 00:06:50","Delta"
