"initial","salutation","firstname","middlename","lastname","id","deltaid","caiwayid","address1","housenumber","alphabet","postcode","city","country","delta_address1","delta_housenumber","delta_alphabet","delta_postcode","delta_city","delta_country","caiway_address1","caiway_housenumber","caiway_alphabet","caiway_postcode","caiway_city","caiway_country","email","phonenumber","phonenumber2","iban","brand","date_modified"
"","Dhr.","mmw","","smolders","950212","M","","Anna van Saksenlaan 10"," ","","4303 AD","Zierikzee","NL","Anna van Saksenlaan 10"," ","","4303 AD","Zierikzee","NL","","","","","","","maliroma@zeelandnet.nl","","","NL17RABO0375176446","Delta","2019-10-06 09:35:45"
"","Dhr.","J","","Boom","950214","M","","Pinakel","1","","4336JG","MIDDELBURG","NL","Pinakel","1","","4336JG","MIDDELBURG","NL","","","","","","","johnnyboom@zeelandnet.nl","","","Nl21RABO0321318870","Delta","2019-10-06 13:06:30"
"","Mevr.","Vera","","de Koeyer","950217","M","","Debussyhof","175","","4536 BJ","Terneuzen","NL","Debussyhof","175","","4536 BJ","Terneuzen","NL","","","","","","","vdk@zeelandnet.nl","31115694291","","NL70ingb0003616472","Delta","2019-10-06 15:24:06"
"","Dhr.","J.","","Traas-Westdorp","950218","M332651","","Jacob","Valckestraat","","4451 AW","Heinkenszand","NL","Jacob","Valckestraat","","4451 AW","Heinkenszand","NL","","","","","","","traaswestd@zeelandnet.nl","31113561835","","NL07INGB0001624935","Delta","2019-10-06 15:42:46"
"","Mevr.","J.M.","","Gijzen","950219","M","","Wilhelminastraat","17","","4543 CS","Zaamslag","NL","Wilhelminastraat","17","","4543 CS","Zaamslag","NL","","","","","","","joan.gijzen@zeelandnet.nl","313111585077","","NL86INGB0752567152","Delta","2019-10-06 16:23:44"
