"initial","salutation","firstname","middlename","lastname","id","deltaid","caiwayid","address1","housenumber","alphabet","postcode","city","country","delta_address1","delta_housenumber","delta_alphabet","delta_postcode","delta_city","delta_country","caiway_address1","caiway_housenumber","caiway_alphabet","caiway_postcode","caiway_city","caiway_country","email","phonenumber","phonenumber2","iban","brand","date_modified"
"","Mevr.","C.C.","","Koolaard","948520","131652","","Plevierlaan","33 ","","4695 JC","Sint-Maartensdijk","NL","Plevierlaan","33 ","","4695 JC","Sint-Maartensdijk","NL","","","","","","","jankoolaard@gmail.com","31623465734","","NL63INGB0003616986","Delta","2019-08-31 09:29:51"
"","Mevr.","T","","De Clercq","948522","M","","van Milstraat 13"," ","","4551 TD","Sas van Gent","NL","van Milstraat 13"," ","","4551 TD","Sas van Gent","NL","","","","","","","kdeclercq@zeelandnet.nl","","","nl38ingb0660713381","Delta","2019-08-31 10:21:16"
"","Dhr.","A.P.","","van der Poel","948524","K03460006","","Doelstraat","71 ","","4413 BG","Krabbendijke","NL","Doelstraat","71 ","","4413 BG","Krabbendijke","NL","","","","","","","nynke@zeelandnet.nl","31113503797","","NL94INGB0005332455","Delta","2019-08-31 11:26:01"
"","Mevr.","V.J.D.","","Clement","948525","M470329-VERLENGING","","Noordweg","511 ","","4333 KG","Middelburg","NL","Noordweg","511 ","","4333 KG","Middelburg","NL","","","","","","","vivianclement@hotmail.com","31118641582","","NL75RABO0333617789","Delta","2019-08-31 11:27:42"
"","Mevr.","m","","van oeveren","948526","M","","Haven Noordzijde 7"," ","","4318 AB","Brouwershaven","NL","Haven Noordzijde 7"," ","","4318 AB","Brouwershaven","NL","","","","","","","moeveren@zeelandnet.nl","31111850612","","nl54rabo1098348028","Delta","2019-08-31 11:38:05"
"","Mevr.","J.J.","","Rhemrev","948529","P52568101","","wagnerlaan","16 ","","4462 KH","Goes","NL","wagnerlaan","16 ","","4462 KH","Goes","NL","","","","","","","rudi.vanderklooster@gmail.com","3113250785","","NL23ABNA0606537848","Delta","2019-08-31 12:26:11"
"","Mevr.","J.F.","","Rhemrev","948530","NIEUWE DELTA ALLES KLANT","","schubertlaan","27 ","","4462 KA","Goes","NL","schubertlaan","27 ","","4462 KA","Goes","NL","","","","","","","info@leeuwcomputers.nl","31638115339","","NL55RABO0373955405","Delta","2019-08-31 13:13:03"
"","Dhr.","R.L","","Suijk","948534","M128326","","Concordia","39 ","","4416 HC","Kruiningen","NL","Concordia","39 ","","4416 HC","Kruiningen","NL","","","","","","","suijkie@hotmail.com","31646718165","","NL18RABO0365214043","Delta","2019-08-31 14:41:36"
"","Dhr.","A.G. ","","Nauta","948536","M103317-VERLENGING","","Kerkhoflaan","40 ","","4371 CC","Koudekerke","NL","Kerkhoflaan","40 ","","4371 CC","Koudekerke","NL","","","","","","","nauta@zeelandnet.nl","31118552606","","NL91ABNA0473825686","Delta","2019-08-31 15:48:45"
"","Dhr.","R","","Verdonk","948537","M","","Breitnerstraat","97","","4462 SM","Goes","NL","Breitnerstraat","97","","4462 SM","Goes","NL","","","","","","","rens.verdonk@zeelandnet.nl","31113231029","","NL04RABO0380507412","Delta","2019-08-31 16:10:29"
"","Dhr.","Cl","","Van  Dijk","948538","M","","Burgemeester P Wissestraat 12"," ","","4494 NS","Geersdijk","NL","Burgemeester P Wissestraat 12"," ","","4494 NS","Geersdijk","NL","","","","","","","dikkel1@zeelandnet.nl","","","Nl81ABNA0498382192","Delta","2019-08-31 16:57:05"
"","Dhr.","R.C.M.","","Overdevest","948519","","1174925","Amalia van Solmsstraat ","6 ","","2675 AP","HONSELERSDIJK","NL","","","","","","","Amalia van Solmsstraat ","6 ","","2675 AP","HONSELERSDIJK","NL","roverd@gmail.com","3117473064","","NL31SNSB0922133107","Caiway","2019-08-31 09:16:07"
"","Mevr.","A.M.A.","","van den Boogaard","948521","","M","Vincent van Goghlaan 2"," ","","3401 ND","IJsselstein","NL","","","","","","","Vincent van Goghlaan 2"," ","","3401 ND","IJsselstein","NL","mhbes@kabelfoon.nl","","","NL67RABO0384273467","Caiway","2019-08-31 10:12:32"
"","Mevr.","Marijke","","de Groot","948523","","M","Hoorneweg","9","","3881 NK","Putten","NL","","","","","","","Hoorneweg","9","","3881 NK","Putten","NL","klaasm892@gmail.com","31577463321","","NL67ABNA0429526024","Caiway","2019-08-31 10:41:40"
"","Mevr.","C","","Lagerwij","948527","","M","Emmastraat","15 ","","2681 RL","Monster","NL","","","","","","","Emmastraat","15 ","","2681 RL","Monster","NL","dixy@kabelfoon.nl","31248729","","NL35RABO0342900730","Caiway","2019-08-31 11:56:54"
"","Dhr.","J.D","","Buurman","948528","","M","Wassenaer van Obdamstraat 17"," ","","3143 KJ","Maassluis","NL","","","","","","","Wassenaer van Obdamstraat 17"," ","","3143 KJ","Maassluis","NL","dick.buurman@kabelfoon.nl","","","NL14INGB0001741791","Caiway","2019-08-31 12:09:16"
"","Mevr.","C.","","Scheepstra","948531","","M","Drogerij","152","","1635 GR","DEN HOORN","NL","","","","","","","Drogerij","152","","1635 GR","DEN HOORN","NL","tieneke.scheepstra@gmail.com","","","NL14INGB0001741791","Caiway","2019-08-31 14:03:04"
"","Dhr.","Y.W.","","Hogendoorn","948532","","M","Prins Clausstraat 1","a ","","2291 WB","Wateringen","NL","","","","","","","Prins Clausstraat 1","a ","","2291 WB","Wateringen","NL","bhogendoornsr@gmail.com","","","NL05INGB0001381889","Caiway","2019-08-31 14:22:16"
"","Dhr.","H j","","van Wegen","948533","","M","Wencopperweg","9","","3771 PN","Barneveld","NL","","","","","","","Wencopperweg","9","","3771 PN","Barneveld","NL","hvanwege@caiway.nl","","","NL78INGB0005104599","Caiway","2019-08-31 14:35:32"
"","Mevr.","Wil","","Houët","948535","","M","Croylaan","1","","5735 PB","Aarle-Rixtel","NL","","","","","","","Croylaan","1","","5735 PB","Aarle-Rixtel","NL","wilhouet@outlook.com","31492382219","","nl44RABO0101411987","Caiway","2019-08-31 15:27:16"
"","Dhr.","MAJ","","de Brouwer","948539","","M","Koestraat","63","","5081 BT","Hilvarenbeek","NL","","","","","","","Koestraat","63","","5081 BT","Hilvarenbeek","NL","majdebr@kabelfoon.nl","31135053312","","NL75INGB0003742288","Caiway","2019-08-31 18:53:07"
"","Mevr.","N","","Boers","948540","","M","Sweelincklaan","100","","2692 BE","\'s-Gravenzande","NL","","","","","","","Sweelincklaan","100","","2692 BE","\'s-Gravenzande","NL","n_boers@hotmail.com","","","NL52RABO0323272959","Caiway","2019-08-31 18:57:49"
