"CustomerNumber","IMSI","Productid","Start_date","End_Of_Contract","Date_Contract_Prolong","MRR","MRR_Discount","MRR_Discount_Duration","Date_Mutation","Brand"
"947944","204164750206998","82","2019-08-23","","2019-09-23","17.5000","2.50","6","2019-08-22 12:55:04","Caiway"
"948168","204164750206837","86","2019-08-22","","2019-09-22","27.0000","","","2019-08-22 11:37:46","Caiway"
"946506","204164750207117","83","2019-08-23","","2021-08-23","24.5000","","","2019-08-22 12:45:04","Caiway"
"948165","204164750206839","82","2019-08-22","","2019-09-22","17.5000","","","2019-08-22 11:47:05","Caiway"
"948027","204164750212626","11","2019-08-22","","2019-09-22","20.0000","20.00","4","2019-08-22 00:07:17","Delta"
"948106","","11","2019-08-22","","2019-09-22","20.0000","20.00","4","2019-08-22 00:07:17","Delta"
"946719","204164750213508","11","2019-08-22","","2019-09-22","20.0000","20.00","4","2019-08-22 00:07:16","Delta"
"947499","204164750213093","11","2019-08-22","","2019-09-22","20.0000","20.00","6","2019-08-22 00:07:17","Delta"
"942958","204164750212778","10","2019-08-22","","2019-09-22","7.0000","","","2019-08-22 00:07:17","Delta"
"944958","204164750202681","43","2019-06-30","2019-08-22","2019-09-22","25.0000","5.00","6","2019-08-22 00:07:16","Delta"
"943072","204164750201460","11","2019-08-22","","2019-09-22","20.0000","20.00","4","2019-08-22 00:07:16","Delta"
"947826","204164750212731","11","2019-08-19","2019-08-22","2019-09-22","20.0000","20.00","4","2019-08-22 12:53:04","Delta"
"948019","204164750200198","10","2019-08-21","","2019-09-22","7.0000","","","2019-08-22 00:07:17","Delta"
"948086","204164750212793","11","2019-08-22","","2019-09-22","20.0000","20.00","4","2019-08-22 00:07:17","Delta"
"945849","204164750213477","11","2019-08-22","","2019-09-22","20.0000","5.00","6","2019-08-22 00:07:17","Delta"
"947933","204164750212641","11","2019-08-22","","2019-09-22","20.0000","20.00","4","2019-08-22 00:07:17","Delta"
"948063","","11","2019-08-21","","2019-09-22","20.0000","20.00","4","2019-08-22 00:07:17","Delta"
"944446","204164750200750","11","2019-04-28","2019-08-22","2019-09-22","20.0000","5.00","6","2019-08-22 00:07:16","Delta"
"946777","204164750200254","11","2019-08-22","","2021-08-22","20.0000","20.00","4","2019-08-22 00:07:16","Delta"
"947808","204164750212740","11","2019-08-19","2019-08-22","2019-09-22","20.0000","20.00","4","2019-08-22 10:06:30","Delta"
"947424","204164750211417","11","2019-08-22","","2019-09-22","20.0000","20.00","4","2019-08-22 00:07:17","Delta"
"948074","","10","2019-08-21","","2019-09-22","7.0000","","","2019-08-22 00:07:17","Delta"
"946419","204164750201750","10","2019-08-22","","2019-09-22","7.0000","","","2019-08-22 00:07:16","Delta"
"946843","204164750200015","11","2019-08-22","","2021-08-22","20.0000","20.00","4","2019-08-22 00:07:17","Delta"
"947851","204164750212816","11","2019-08-22","","2019-09-22","20.0000","20.00","4","2019-08-22 00:07:17","Delta"
"948056","204164750212774","11","2019-08-22","","2019-09-22","20.0000","5.00","6","2019-08-22 00:07:17","Delta"
"902693","204164750202045","11","2018-12-27","2019-08-22","2019-09-22","20.0000","5.00","6","2019-08-22 00:07:16","Delta"
"948131","204164750200233","11","2019-08-22","","2021-08-22","20.0000","20.00","4","2019-08-22 00:07:17","Delta"
"946760","204164750200258","11","2019-08-22","","2019-09-22","20.0000","5.00","6","2019-08-22 00:07:16","Delta"
"947730","204164750200001","11","2019-08-22","","2019-09-22","20.0000","5.00","6","2019-08-22 00:07:17","Delta"
"947968","204164750212835","11","2019-08-21","2019-08-22","2019-09-22","20.0000","20.00","4","2019-08-22 10:48:20","Delta"
"948065","204164750212779","11","2019-08-22","","2019-09-22","20.0000","20.00","4","2019-08-22 00:07:17","Delta"
"946077","204164750200390","11","2019-08-22","","2019-09-22","20.0000","5.00","6","2019-08-22 00:07:16","Delta"
"946655","204164750213468","11","2019-08-22","","2019-09-22","20.0000","20.00","4","2019-08-22 00:07:16","Delta"
"947828","204164750212730","11","2019-08-19","2019-08-22","2019-09-22","20.0000","20.00","4","2019-08-22 13:05:21","Delta"
