"CustomerNumber","IMSI","Productid","Start_date","End_Of_Contract","Date_Contract_Prolong","MRR","MRR_Discount","MRR_Discount_Duration","Date_Mutation","Brand"
"945147","204164750202566","11","2019-07-28","","2019-08-28","20.0000","5.00","6","2019-07-28 00:02:46","Delta"
"946174","204164750201770","11","2019-07-28","","2019-08-28","20.0000","5.00","6","2019-07-28 00:02:46","Delta"
"944952","204164750202556","11","2019-07-28","","2019-08-28","20.0000","5.00","600","2019-07-28 00:02:46","Delta"
"945428","204164750202673","11","2019-07-28","","2019-08-28","20.0000","5.00","6","2019-07-28 00:02:46","Delta"
"944699","204164750200692","11","2019-07-28","","2019-08-28","20.0000","","","2019-07-28 00:02:46","Delta"
"945209","204164750202275","11","2019-07-28","","2019-08-28","20.0000","5.00","6","2019-07-28 00:02:46","Delta"
