"CustomerNumber","IMSI","Productid","Start_date","End_Of_Contract","Date_Contract_Prolong","MRR","MRR_Discount","MRR_Discount_Duration","Date_Mutation","Brand"
"948622","204164750201366","11","2019-09-05","","2019-10-05","20.0000","20.00","4","2019-09-05 00:09:07","Delta"
"946195","204164750200359","43","2019-09-05","","2019-10-05","25.0000","5.00","6","2019-09-05 00:09:06","Delta"
"947206","204164750213086","13","2019-09-05","","2019-10-05","30.0000","20.00","4","2019-09-05 00:09:06","Delta"
"947274","204164750200053","11","2019-09-05","","2019-10-05","20.0000","20.00","4","2019-09-05 00:09:07","Delta"
"948473","204164750210545","11","2019-09-05","","2019-10-05","20.0000","20.00","4","2019-09-05 00:09:07","Delta"
"943924","204164750200642","11","2019-04-09","2019-09-04","2019-10-05","20.0000","5.00","6","2019-09-05 00:09:06","Delta"
"948680","204164750211385","11","2019-09-05","","2019-10-05","20.0000","20.00","4","2019-09-05 00:09:07","Delta"
"946916","204164750213393","11","2019-07-25","2019-09-05","2019-10-05","20.0000","20.00","4","2019-09-05 10:34:35","Delta"
"947257","204164750213495","11","2019-09-05","","2019-10-05","20.0000","20.00","4","2019-09-05 00:09:06","Delta"
"947327","204164750211511","11","2019-09-05","","2019-10-05","20.0000","20.00","4","2019-09-05 00:09:07","Delta"
"947362","","11","2019-09-05","","2019-10-05","20.0000","20.00","6","2019-09-05 00:09:07","Delta"
"945984","204164750201606","43","2019-09-05","","2019-10-05","25.0000","5.00","6","2019-09-05 00:09:06","Delta"
"947138","204164750213281","11","2019-08-01","2019-09-05","2019-10-05","20.0000","5.00","6","2019-09-05 00:09:06","Delta"
"947270","204164750213257","11","2019-09-05","","2019-10-05","20.0000","20.00","4","2019-09-05 00:09:07","Delta"
"948409","204164750212581","10","2019-09-05","","2019-10-05","7.0000","","","2019-09-05 00:09:07","Delta"
"902671","204164750200753","10","2019-03-27","2019-09-04","2019-10-05","7.0000","","","2019-09-05 00:09:06","Delta"
"948674","204164750200106","11","2019-09-05","","2021-09-05","20.0000","20.00","4","2019-09-05 00:09:07","Delta"
"946722","204164750213509","11","2019-09-05","","2019-10-05","20.0000","20.00","4","2019-09-05 00:09:06","Delta"
"947247","204164750213262","10","2019-09-05","","2019-10-05","7.0000","","","2019-09-05 00:09:06","Delta"
"947302","204164750200052","11","2019-09-05","","2019-10-05","20.0000","5.00","6","2019-09-05 00:09:07","Delta"
"948592","204164750210948","11","2019-09-05","","2019-10-05","20.0000","20.00","4","2019-09-05 00:09:07","Delta"
"945905","204164750201654","11","2019-09-05","","2019-10-05","20.0000","5.00","6","2019-09-05 00:09:06","Delta"
"948708","","11","2019-09-05","","2021-09-05","20.0000","20.00","4","2019-09-05 10:28:45","Delta"
"946976","204164750213359","11","2019-09-05","","2019-10-05","20.0000","20.00","4","2019-09-05 00:09:06","Delta"
"947268","204164750213499","11","2019-09-05","","2019-10-05","20.0000","20.00","4","2019-09-05 00:09:07","Delta"
"948208","204164750212551","11","2019-08-28","2019-09-05","2019-10-05","20.0000","20.00","4","2019-09-05 10:14:49","Delta"
"948664","204164750211376","11","2019-09-05","","2019-10-05","20.0000","20.00","4","2019-09-05 00:09:07","Delta"
"946268","204164750201861","11","2019-09-05","","2019-10-05","20.0000","5.00","6","2019-09-05 00:09:06","Delta"
"947210","204164750213115","11","2019-09-05","","2019-10-05","20.0000","20.00","4","2019-09-05 00:09:06","Delta"
"947274","204164750200313","11","2019-09-05","","2019-10-05","20.0000","20.00","4","2019-09-05 00:09:07","Delta"
"948565","204164750211377","11","2019-09-05","","2019-10-05","20.0000","20.00","4","2019-09-05 00:09:07","Delta"
"945044","204164750203731","10","2019-09-05","","2019-10-05","7.0000","","","2019-09-05 00:09:06","Delta"
"800064","204164750211015","13","2019-09-05","","2019-10-05","30.0000","","","2019-09-05 10:20:25","Delta"
"946954","204164750201288","43","2019-09-05","","2019-10-05","25.0000","20.00","4","2019-09-05 00:09:06","Delta"
"947260","204164750213496","11","2019-09-05","","2019-10-05","20.0000","20.00","4","2019-09-05 00:09:06","Delta"
"947181","204164750213047","10","2019-09-05","","2019-10-05","7.0000","","","2019-09-05 00:09:07","Delta"
