"initial","salutation","firstname","middlename","lastname","id","deltaid","caiwayid","address1","housenumber","alphabet","postcode","city","country","delta_address1","delta_housenumber","delta_alphabet","delta_postcode","delta_city","delta_country","caiway_address1","caiway_housenumber","caiway_alphabet","caiway_postcode","caiway_city","caiway_country","email","phonenumber","phonenumber2","iban","brand","date_modified"
"","Dhr.","C.J.","","Van der Linden","947614","M309112","","Aalbessestraat","46","E","4413 DE","Krabbendijke","NL","Aalbessestraat","46","E","4413 DE","Krabbendijke","NL","","","","","","","cjvdlinden@zeelandnet.nl","0113381801","","NL76INGB0001426395","Delta","2019-08-12 09:17:03"
"","Mevr.","A.G.M.","","van Toren","947616","M307574","","Vinkenhof","29","","4332 DM","Middelburg","NL","Vinkenhof","29","","4332 DM","Middelburg","NL","","","","","","","toren@zeelandnet.nl","0118612787","","NL87INGB0002832697","Delta","2019-08-12 10:33:43"
"","Mevr.","D.D. ","","de Koeijer","947617","M490762","","Oude Bosstraat ","1","","4421 AN","Kapelle","NL","Oude Bosstraat ","1","","4421 AN","Kapelle","NL","","","","","","","info@villavivazeeland.nl","0638241636","","NL27RABO0191915912","Delta","2019-08-12 10:36:18"
"","Mevr.","C.","","Roskam","947618","S456","","Kloetingseweg","14","","4462 BA","Goes","NL","Kloetingseweg","14","","4462 BA","Goes","NL","","","","","","","cieskaroskam@gmail.com","31641106078","","NL67RABO0315246715","Delta","2019-08-12 11:01:46"
"","Dhr.","R.J.G. ","","de Leeuw","947619","MALLESNIEUW","","Dorpsstraat","136","","4413 CG","Krabbendijke","NL","Dorpsstraat","136","","4413 CG","Krabbendijke","NL","","","","","","","rudydl@zeelandnet.nl","31638279292","","NL28RABO0333602145","Delta","2019-08-12 11:07:51"
"","Mevr.","B.C. ","","Pouwer","947622","K00772038","","J.F. de Millianostraat 99 ","","","4511 HL","Breskens","NL","J.F. de Millianostraat 99 ","","","4511 HL","Breskens","NL","","","","","","","bcpouwer@zeelandnet.nl","31615108446","","NL87INGB0004094570","Delta","2019-08-12 11:34:06"
"","Mevr.","I.L.","","Wolfert","947624","F456","","Waterfront","332","","4531 HZ","Terneuzen","NL","Waterfront","332","","4531 HZ","Terneuzen","NL","","","","","","","jwolfert@zeelandnet.nl","31115614948","","NL80INGB0002775399","Delta","2019-08-12 11:52:38"
"","Dhr.","Eddy","","Kaaisteker","947625","M","","Stoofheule","41","","4306 EG","Nieuwerkerk","NL","Stoofheule","41","","4306 EG","Nieuwerkerk","NL","","","","","","","kaaisteker@zeelandnet.nl","31111407344","","NL21RABO0114394881","Delta","2019-08-12 11:57:32"
"","Dhr.","G.","","van de Akker","947626","M-NIEUW","","Nieuwstraat","5","","4542 AD","Hoek","NL","Nieuwstraat","5","","4542 AD","Hoek","NL","","","","","","","civicstyl@hotmail.com","31123456789","","NL07INGB0700960597","Delta","2019-08-12 12:50:23"
"","Dhr.","D.","","Dikova","947627","K20142779","","Hoofstraat","32","","4583 SR","Terhole","NL","Hoofstraat","32","","4583 SR","Terhole","NL","","","","","","","dianadikova11@gmail.com","31638900581","","NL49RABO0324055900","Delta","2019-08-12 12:55:25"
"","Dhr.","L.R.","","Gillet","947628","M129","","Torentrans","159","","4336 KJ","Middelburg","NL","Torentrans","159","","4336 KJ","Middelburg","NL","","","","","","","lgillet@zeelandnet.nl","31118634186","","NL92INGB0002025082","Delta","2019-08-12 12:57:35"
"","Dhr.","J.","","Boogert","947629","K20124172","","Aakstraat","30","","4401 JA","Yerseke","NL","Aakstraat","30","","4401 JA","Yerseke","NL","","","","","","","kobogrt@zeelandnet.nl","31618398860","","NL46INGB0003895197","Delta","2019-08-12 12:58:53"
"","Mevr.","H B J ","","Davidse van Daele","947630","M","","Molenstraat","74","","4381 HX","Vlissingen","NL","Molenstraat","74","","4381 HX","Vlissingen","NL","","","","","","","hetmolen2@zeelandnet.nl","","","Nl13INGB0001742100","Delta","2019-08-12 13:00:48"
"","Mevr.","J.J.M","","Heemskerk","947631","M-NIEUWE KLANT","","\'t Keeten 10 ","","","4675 CW","Sint Philipsland","NL","\'t Keeten 10 ","","","4675 CW","Sint Philipsland","NL","","","","","","","harmengerwin@hotmail.com","31630126393","","NL29INGB0005420537","Delta","2019-08-12 13:01:58"
"","Dhr.","J.","","van Liere","947632","M111111","","Paspoortstraat","6","","4388 BH","Oost-Souburg","NL","Paspoortstraat","6","","4388 BH","Oost-Souburg","NL","","","","","","","vanliere@zeelandnet.nl","31620369584","","NL09RBRB0706421868","Delta","2019-08-12 13:03:35"
"","Dhr.","J.D.J","","de Bat","947633","K03001992","","Reuzenhoek 4 a  ","","","4543 NB","Zaamslag","NL","Reuzenhoek 4 a  ","","","4543 NB","Zaamslag","NL","","","","","","","jdebat@solcon.nl","31653313754","","NL77INGB0685307999","Delta","2019-08-12 13:04:59"
"","Mevr.","W.H.","","van Knossenburg","947634","M117851VERLENGING","","Oosterguitestraat","25","","4451 AN","Heinkenszand","NL","Oosterguitestraat","25","","4451 AN","Heinkenszand","NL","","","","","","","willeke64@zeelandnet.nl","31639491636","","NL05RABO0134235258","Delta","2019-08-12 13:14:23"
"","Mevr.","C.J.","","Capello","947635","M111111","","Hartoogstraat","8","","4401 GA","Yerseke","NL","Hartoogstraat","8","","4401 GA","Yerseke","NL","","","","","","","coracap@zeelandnet.nl","31650648326","","NL56RABO0320520609","Delta","2019-08-12 13:24:21"
"","Dhr.","W.V.","","van Dueren- den Hollander","947636","A456","","Aagje Dekenstraat 89 ","","","4381 RN","Vlissingen","NL","Aagje Dekenstraat 89 ","","","4381 RN","Vlissingen","NL","","","","","","","em.we@live.nl","31118411079","","NL43RABO0346729467","Delta","2019-08-12 13:33:31"
"","Mevr.","C.C.","","van  Veldhuizen ","947638","MALLESNIEUW","","Irisstraat","62","","4542 EH","Hoek","NL","Irisstraat","62","","4542 EH","Hoek","NL","","","","","","","someone3605@outlook.com","31648128353","","NL91RBRB0778119203","Delta","2019-08-12 13:40:56"
"","Dhr.","P.J.","","Hubregtse","947639","K00773667","","Dorpsstraat","35","","4504 AG","Nieuwvliet","NL","Dorpsstraat","35","","4504 AG","Nieuwvliet","NL","","","","","","","phk@zeelandnet.nl","31123654587","","NL13ABNA0811803317","Delta","2019-08-12 13:47:01"
"","Mevr.","F.","","van Leeuwen- de Groene","947640","K00258377","","Kamilleplein","17","","4451 LA","Heinkenszand","NL","Kamilleplein","17","","4451 LA","Heinkenszand","NL","","","","","","","leeu29@zeelandnet.nl","31113562930","","NL54RABO0346014476","Delta","2019-08-12 13:51:49"
"","Dhr.","J.","","de Ridder","947641","M111111","","Westdijkstraat   25 ","","","4341 EH","Arnemuiden","NL","Westdijkstraat   25 ","","","4341 EH","Arnemuiden","NL","","","","","","","truusderidder@gmail.com","31118601356","","NL49INGB0002073580","Delta","2019-08-12 13:55:48"
"","Dhr.","A","","de Beyn","947642","M347083 VERLENGING","","Poonhaven","7","","4543 PW","Zaamslag","NL","Poonhaven","7","","4543 PW","Zaamslag","NL","","","","","","","adebeyn7@zeelandnet.nl","31115620583","","NL77INGB0002399481","Delta","2019-08-12 14:08:24"
"","Dhr.","A.J.","","Krijger","947643","S123","","Land van Straub 3 ","","","4464 JR","Goes","NL","Land van Straub 3 ","","","4464 JR","Goes","NL","","","","","","","andrekrijger@hotmail.nl","31113230478","","NL90INGB0004203835","Delta","2019-08-12 14:13:39"
"","Mevr.","E.W.","","Wouters","947644","M129","","Oranjeplein","14","","4374 AH","Zoutelande","NL","Oranjeplein","14","","4374 AH","Zoutelande","NL","","","","","","","ewwouters@zeelandnet.nl","31118591882","","NL96RABO0365220981","Delta","2019-08-12 14:27:08"
"","Dhr.","P.C.","","Schoe-Maartense","947645","K03068097","","Binnenhof","6","","4481 BW","Kloetinge","NL","Binnenhof","6","","4481 BW","Kloetinge","NL","","","","","","","bluppy@zeelandnet.nl","31113213823","","NL94INGB0005339342","Delta","2019-08-12 14:30:27"
"","Dhr.","S.","","Meerman","947646","M333519","","Westerzicht","90","","4385 AN","Vlissingen","NL","Westerzicht","90","","4385 AN","Vlissingen","NL","","","","","","","stefans@zeelandnet.nl","31655584668","","NL18RABO0389348031","Delta","2019-08-12 14:37:31"
"","Dhr.","J.K.A. ","","DAgevos","947647","M1192321 ALLES VERLENGEN","","Zwaakseweg","7","","4424 NE","Wemeldinge","NL","Zwaakseweg","7","","4424 NE","Wemeldinge","NL","","","","","","","johdagevos@zeelandnet.nl","31123456799","","NL04RABO0368657698","Delta","2019-08-12 14:38:25"
"","Mevr.","C.G.","","Riemens","947648","M111111","","Hulsterseweg","55","","4571 RJ","Axel","NL","Hulsterseweg","55","","4571 RJ","Axel","NL","","","","","","","frituurmobiel@gmail.com","31114650762","","NL19INGB0001723465","Delta","2019-08-12 14:41:53"
"","Dhr.","K.","","t Hoen","947649","M111111","","Spuidijk","2","","4493 BL","Kamperland","NL","Spuidijk","2","","4493 BL","Kamperland","NL","","","","","","","kathoen@zeelandnet.nl","31646391243","","NL33INGB0007738862","Delta","2019-08-12 14:48:50"
"","Mevr.","Isabella","","Salerno","947650","M","","Geleenstraat","88","","2515 SX","\'s-Gravenhage","NL","Geleenstraat","88","","2515 SX","\'s-Gravenhage","NL","","","","","","","isabellasalerno1999@gmail.com","31703458383","","NL75ABNA0498699587","Delta","2019-08-12 14:49:08"
"","Mevr.","D.J.","","Boogaard","947651","K00310929","","Beukenstraat","138","","4462 CB","Goes","NL","Beukenstraat","138","","4462 CB","Goes","NL","","","","","","","opaboo@zeelandnet.nl","31113228068","","NL98ABNA0472104683","Delta","2019-08-12 15:19:08"
"","Mevr.","M.E.","","de Man-Zoetendaal","947655","M361908","","Gruttostraat","9","","4302 WD","Zierikzee","NL","Gruttostraat","9","","4302 WD","Zierikzee","NL","","","","","","","mavazoet@zeelandnet.nl","31641173176","","NL78SNSB0907595162","Delta","2019-08-12 15:46:12"
"","Dhr.","J","","Jansen","947656","M","","Montgomerystraat","57","","4463 KB","Goes","NL","Montgomerystraat","57","","4463 KB","Goes","NL","","","","","","","jdpjansen@hotmail.com","31113223130","","Nl70INGB0007279774","Delta","2019-08-12 15:54:52"
"","Dhr.","M","","Tajdary","947657","M1111","","Nassaustraat","14","","3171 AT","Poortugaal","NL","Nassaustraat","14","","3171 AT","Poortugaal","NL","","","","","","","tajadary@live.nl","31616828245","","NL08INGB0005403455","Delta","2019-08-12 16:01:50"
"","Dhr.","S","","van de Velde","947658","M","","Donze Visserstraat 46  ","","","4531 BE","Terneuzen","NL","Donze Visserstraat 46  ","","","4531 BE","Terneuzen","NL","","","","","","","sebastian.v.d.velde@gmail.com","","","NL97ABNA0616127197","Delta","2019-08-12 16:11:22"
"","Dhr.","A.F.","","Minnaard","947659","M111111","","Oostmolenweg","13","","4481 PJ","Kloetinge","NL","Oostmolenweg","13","","4481 PJ","Kloetinge","NL","","","","","","","andremin@zeelandnet.nl","31649838454","","NL46ABNA0425873285","Delta","2019-08-12 16:14:09"
"","Dhr.","R","","Meulmeester","947660","M","","Segeersweg","38","","4337 LD","Middelburg","NL","Segeersweg","38","","4337 LD","Middelburg","NL","","","","","","","ronmeulmeester@hotmail.nl","","","NL73RABO0385399723","Delta","2019-08-12 16:14:48"
"","Dhr.","G.J. ","","Ruissen","947661","M","","Groen van Prinstererlaan 80 ","","","4384 CJ","Vlissingen","NL","Groen van Prinstererlaan 80 ","","","4384 CJ","Vlissingen","NL","","","","","","","gjruissen@gmail.com","3118465306","","NL97RABO0389321680","Delta","2019-08-12 16:29:56"
"","Dhr.","M","","Tajdary","947662","M1111","","Nassaustraat","14","","3171 AT","Poortugaal","NL","Nassaustraat","14","","3171 AT","Poortugaal","NL","","","","","","","tajdary@live.nl","31616828245","","NL08INGB0005403455","Delta","2019-08-12 16:44:20"
"","Mevr.","B.L.","","Verbist-Verasselt","947665","413161","","Bossestraat","126a","","4581 BH","Vogelwaarde","NL","Bossestraat","126a","","4581 BH","Vogelwaarde","NL","","","","","","","cverbist@zeealndnet.nl","31114671289","","NL84INGB0655976140","Delta","2019-08-12 17:09:18"
"","Mevr.","N.E.","","den Dikken","947666","K02095084","","Oranjestraat","12","","4532 BS","Terneuzen","NL","Oranjestraat","12","","4532 BS","Terneuzen","NL","","","","","","","a3nlputter@zeelandnet.nl","31637434266","","NL46ABNA0823253961","Delta","2019-08-12 17:14:55"
"","Dhr.","J.","","Bos","947667","M111111","","Hofje de Pauw 7 ","","","4381 DA","Vlissingen","NL","Hofje de Pauw 7 ","","","4381 DA","Vlissingen","NL","","","","","","","conmigo@zeelandnet.nl","31647340833","","NL97ABNA0484313509","Delta","2019-08-12 17:29:30"
"","Dhr.","R.A.","","de Munck","947668","M129","","Polderweg","24","","4444 NB","\'s-Heer Abtskerke","NL","Polderweg","24","","4444 NB","\'s-Heer Abtskerke","NL","","","","","","","info@dupreetendu.nl","31683560432","","NL78RABO0320531368","Delta","2019-08-12 17:44:41"
"","Dhr.","W.J.","","de Zwart","947669","M","","Paauwenburgweg","113","","4384 JD","Vlissingen","NL","Paauwenburgweg","113","","4384 JD","Vlissingen","NL","","","","","","","wlsb@zeelandnet.nl","31118479361","","NL56INGB0002461842","Delta","2019-08-12 17:44:56"
"","Dhr.","A.A.M.","","van Houte","947670","K01929837","","Schoolstraat","25","","4566 AS","Heikant","NL","Schoolstraat","25","","4566 AS","Heikant","NL","","","","","","","mwegman@scalda.nl","31114313539","","NL24RABO0335008232","Delta","2019-08-12 17:45:24"
"","Dhr.","J.W.","","Molster","947671","M111111","","President Kennedylaan 51 ","","","4334 EH","Middelburg","NL","President Kennedylaan 51 ","","","4334 EH","Middelburg","NL","","","","","","","molsterj@zeelandnet.nl","31648001229","","NL50ABNA0609300407","Delta","2019-08-12 17:48:09"
"","Dhr.","C.T.J.L. ","","Vonk","947672","K00914599","","Molenstraat  12 ","","","4554 CG","Westdorpe","NL","Molenstraat  12 ","","","4554 CG","Westdorpe","NL","","","","","","","cees45@zeelandnet.nl","31612565816","","NL50SNSB0920418872","Delta","2019-08-12 17:59:54"
"","Dhr.","C.M.","","van der Jagt","947674","M111111","","Julianastraat","3","","4693 ED","Poortvliet","NL","Julianastraat","3","","4693 ED","Poortvliet","NL","","","","","","","itsememario@live.nl","31624803176","","NL22INGB0007560580","Delta","2019-08-12 19:05:48"
"","Dhr.","M.G.M.M.","","van Cauteren","947675","M111111","","Noppenstraat","14","","4561 MN","Hulst","NL","Noppenstraat","14","","4561 MN","Hulst","NL","","","","","","","mvcauteren@zeelandnet.nl","31641259159","","NL09ABNA0451028961","Delta","2019-08-12 20:08:18"
"","Mevr.","Britt","","Spithoven","947676","M","","Tuurdijk 18 A ","","","3997 MS","\'t Goy","NL","Tuurdijk 18 A ","","","3997 MS","\'t Goy","NL","","","","","","","despitjes@hotmail.com","31653177400","","NL21RABO0329880187","Delta","2019-08-12 20:11:25"
"","Dhr.","A.J.","","Steketee","947677","M129","","De Ommegank 2 ","","","4415 AM","Oostdijk","NL","De Ommegank 2 ","","","4415 AM","Oostdijk","NL","","","","","","","adrianencorina@zeelandnet.nl","31113268722","","NL61RABO0373932308","Delta","2019-08-12 20:20:04"
"","Mevr.","D.R.S.","","van der Meulen","947678","M111111","","Koestraat","8","","4571 GL","Axel","NL","Koestraat","8","","4571 GL","Axel","NL","","","","","","","dmeulen@zeelandnet.nl","31653676131","","NL65ABNA0443191905","Delta","2019-08-12 20:51:23"
"","Dhr.","J.","","de Bree","947679","M129","","Noordstraat","8","","4364 AW","Grijpskerke","NL","Noordstraat","8","","4364 AW","Grijpskerke","NL","","","","","","","idebree46@zeelandnet.nl","31118592377","","NL34RABO0324054521","Delta","2019-08-12 20:51:42"
"","Mevr.","C.A.E.","","Spreen","947610","","M","Patalenastraat","9","","2672 HM","Naaldwijk","NL","","","","","","","Patalenastraat","9","","2672 HM","Naaldwijk","NL","anesespreen@hotmail.com","","","NL65RABO0117755915","Caiway","2019-08-11 23:33:56"
"","Dhr.","R","","Langendoen","947612","","M","Vlotlaan","737","","2681 TZ","MONSTER","NL","","","","","","","Vlotlaan","737","","2681 TZ","MONSTER","NL","info@langendoen-elektro.nl","31174243919","","NL59ABNA0810564866","Caiway","2019-08-12 07:46:42"
"","Dhr.","T.J.B.","","Boon","947615","","M","Gouwlaan","18","","2295 MG","Kwintsheul","NL","","","","","","","Gouwlaan","18","","2295 MG","Kwintsheul","NL","boontenj@gmail.com","31174298364","","NL41ABNA0499838785","Caiway","2019-08-12 10:07:41"
"","Mevr.","wjgm","","brugmans","947637","","M","Bosscheweg","52","","5741 SX","Beek en Donk","NL","","","","","","","Bosscheweg","52","","5741 SX","Beek en Donk","NL","willmabrugmans@gmail.com","","","NL42RABO0114625654","Caiway","2019-08-12 13:34:35"
"","Dhr.","R","","Hartog","947652","","M","Boskamp","81","","3343 EC","Hendrik-Ido-Ambacht","NL","","","","","","","Boskamp","81","","3343 EC","Hendrik-Ido-Ambacht","NL","robensomnao@caiway.nl","","","NL88INGB0005331302","Caiway","2019-08-12 15:35:49"
"","Dhr.","J","","Van Gogh","947653","","M","Tarwestraat","65","","5351 MK","Berghem","NL","","","","","","","Tarwestraat","65","","5351 MK","Berghem","NL","goghie@hotmail.com","31107610295","","NL52RABO0120016540","Caiway","2019-08-12 15:36:54"
"","Dhr.","H.","","Gorter","947654","","M","\'s-Gravelandseweg","968","","3119 NK","Schiedam","NL","","","","","","","\'s-Gravelandseweg","968","","3119 NK","Schiedam","NL","gorter.hans@hotmail.com","","","NL61INGB0001714561","Caiway","2019-08-12 15:37:29"
"","Dhr.","W.M.J.","","Sauer","947664","","M","De Walgaarden 432  ","","","7571 GD","Oldenzaal","NL","","","","","","","De Walgaarden 432  ","","","7571 GD","Oldenzaal","NL","wmjsauer@gmail.com","31100000000","","NL07ABNA0400061899","Caiway","2019-08-12 17:06:17"
"","Mevr.","g.w.","","Gerritsen","947673","","M","Ommerkanaal Oost 20 A ","","","7731 TT","Ommen","NL","","","","","","","Ommerkanaal Oost 20 A ","","","7731 TT","Ommen","NL","w.f.gerritsen1@gmail.com","31523676493","","NL62RABO0348944896","Caiway","2019-08-12 18:53:19"
