"initial","salutation","firstname","middlename","lastname","id","deltaid","caiwayid","address1","housenumber","alphabet","postcode","city","country","delta_address1","delta_housenumber","delta_alphabet","delta_postcode","delta_city","delta_country","caiway_address1","caiway_housenumber","caiway_alphabet","caiway_postcode","caiway_city","caiway_country","email","phonenumber","phonenumber2","iban","brand","date_modified"
"","Dhr.","P.E","","Minnaert","949121","M","","Jupiter","5","","4501 EX","Oostburg","NL","Jupiter","5","","4501 EX","Oostburg","NL","","","","","","","peminsol@zeelandnet.nl","31117455003","","NL34INGB0002555261","Delta","2019-09-15 14:27:30"
"","Dhr.","L.J.","","Voshaar","949119","","M","Maasstraat","82","","7607 PH","Almelo","NL","","","","","","","Maasstraat","82","","7607 PH","Almelo","NL","leonvoshaar@caiway.nl","","","NL72RBRB0940987880","Caiway","2019-09-14 21:11:03"
"","Mevr.","K.L.M.","","van Bussel","949120","","M","Rosengaardeweg","4","","7722 PV","Dalfsen","NL","","","","","","","Rosengaardeweg","4","","7722 PV","Dalfsen","NL","vanbussel.karin@gmail.com","","","NL85RABO0384596444","Caiway","2019-09-15 10:30:54"
"","Dhr.","H.B.J.","","Masselink","949122","","M","Berendschotstraat","8","","7255 KB","Hengelo (Gld)","NL","","","","","","","Berendschotstraat","8","","7255 KB","Hengelo (Gld)","NL","h.b.j.masselink@gmail.com","31575462996","","NL45INGB0660934124","Caiway","2019-09-15 15:54:36"
