"initial","salutation","firstname","middlename","lastname","id","deltaid","caiwayid","address1","housenumber","alphabet","postcode","city","country","delta_address1","delta_housenumber","delta_alphabet","delta_postcode","delta_city","delta_country","caiway_address1","caiway_housenumber","caiway_alphabet","caiway_postcode","caiway_city","caiway_country","email","phonenumber","phonenumber2","iban","brand","date_modified"
"","Mevr.","E","","Camargo da Motta Pacheco","948252","","M","Olivien","2","","2691 HT","\'s-Gravenzande","NL","","","","","","","Olivien","2","","2691 HT","\'s-Gravenzande","NL","ecmp123@gmail.com","174885557","","NL03ABNA0408596031","Caiway","2019-08-25 09:37:25"
"","Dhr.","C","","Schippers","948255","","M","Cape Kennedy 7  ","","","3402 DD","IJsselstein","NL","","","","","","","Cape Kennedy 7  ","","","3402 DD","IJsselstein","NL","c.schippers@live.nl","31307613179","","NL67RABO0384290345","Caiway","2019-08-25 11:22:42"
"","Mevr.","A.M.","","Mosch-Wolf","948256","","M","Polanenhof","74","","2548 MB","\'s-Gravenhage","NL","","","","","","","Polanenhof","74","","2548 MB","\'s-Gravenhage","NL","a.moschwolf@caiway.nl","31708901598","","NL73INGB0000557232","Caiway","2019-08-25 13:57:13"
