"CustomerNumber","IMSI","Productid","Start_date","End_Of_Contract","Date_Contract_Prolong","MRR","MRR_Discount","MRR_Discount_Duration","Date_Mutation","Brand"
"946903","204164750207283","82","2019-08-01","","2021-08-01","17.5000","","","2019-08-27 17:00:02","Caiway"
"946969","204164750207343","81","2019-08-28","","2021-08-28","12.5000","","","2019-08-27 14:45:03","Caiway"
"947675","204164750212949","11","2019-08-14","2019-08-26","2019-09-27","20.0000","20.00","4","2019-08-27 00:05:08","Delta"
"947036","204164750212786","11","2019-08-27","","2019-09-27","20.0000","20.00","4","2019-08-27 00:05:08","Delta"
"948247","","10","2019-08-26","","2019-09-27","7.0000","","","2019-08-27 00:05:08","Delta"
"945102","204164750202716","11","2019-06-13","2019-08-27","2019-09-27","20.0000","5.00","6","2019-08-27 09:39:27","Delta"
"947811","204164750212895","11","2019-08-27","","2019-09-27","20.0000","20.00","4","2019-08-27 00:05:08","Delta"
"948221","204164750211472","11","2019-08-27","","2019-09-27","20.0000","20.00","4","2019-08-27 00:05:08","Delta"
"942725","204164750200193","11","2019-08-27","","2019-09-27","20.0000","20.00","4","2019-08-27 11:30:55","Delta"
"946788","204164750201459","11","2019-08-26","","2019-09-27","20.0000","5.00","6","2019-08-27 00:05:07","Delta"
"947661","204164750212800","11","2019-08-27","","2019-09-27","20.0000","20.00","4","2019-08-27 00:05:08","Delta"
"947929","204164750212765","11","2019-08-27","","2019-09-27","20.0000","20.00","4","2019-08-27 00:05:08","Delta"
"948245","","11","2019-08-26","","2019-09-27","20.0000","20.00","4","2019-08-27 00:05:08","Delta"
"945097","204164750202301","11","2019-05-09","2019-08-27","2019-09-27","20.0000","5.00","6","2019-08-27 09:54:47","Delta"
"946942","204164750213329","11","2019-08-27","","2019-09-27","20.0000","20.00","4","2019-08-27 00:05:07","Delta"
"947787","204164750212799","11","2019-08-17","2019-08-26","2019-09-27","20.0000","20.00","4","2019-08-27 00:05:08","Delta"
"948196","204164750212637","11","2019-08-27","","2019-09-27","20.0000","20.00","4","2019-08-27 00:05:08","Delta"
"948294","204164750201435","43","2019-08-27","","2019-09-27","25.0000","20.00","4","2019-08-27 00:05:08","Delta"
"946785","204164750200252","11","2019-08-27","","2019-09-27","20.0000","5.00","6","2019-08-27 00:05:07","Delta"
"947347","204164750213049","11","2019-08-15","2019-08-26","2019-09-27","20.0000","20.00","6","2019-08-27 00:05:08","Delta"
"947814","204164750212737","11","2019-08-19","2019-08-26","2019-09-27","20.0000","20.00","4","2019-08-27 00:05:08","Delta"
"948235","","7","2019-08-26","","2019-09-27","20.0000","5.00","6","2019-08-27 00:05:08","Delta"
"902642","204164750204292","10","2019-02-26","2019-08-27","2019-09-27","7.0000","","","2019-08-27 13:14:34","Delta"
"946912","204164750213414","11","2019-08-27","","2019-09-27","20.0000","5.00","6","2019-08-27 00:05:07","Delta"
"947696","204164750213474","11","2019-08-15","2019-08-26","2019-09-27","20.0000","20.00","4","2019-08-27 00:05:08","Delta"
"947138","204164750212563","11","2019-08-27","","2019-09-27","20.0000","20.00","4","2019-08-27 00:05:08","Delta"
"948292","204164750211412","10","2019-08-27","","2019-09-27","7.0000","","","2019-08-27 00:05:08","Delta"
"945536","204164750201417","11","2019-08-27","","2021-08-27","20.0000","5.00","6","2019-08-27 00:05:07","Delta"
"947272","204164750213249","11","2019-08-07","2019-08-26","2019-09-27","20.0000","20.00","4","2019-08-27 00:05:07","Delta"
"947812","204164750212738","11","2019-08-19","2019-08-26","2019-09-27","20.0000","20.00","4","2019-08-27 00:05:08","Delta"
"948221","204164750211460","11","2019-08-27","","2021-08-27","20.0000","20.00","4","2019-08-27 00:05:08","Delta"
