"CustomerNumber","IMSI","Productid","Start_date","End_Of_Contract","Date_Contract_Prolong","MRR","MRR_Discount","MRR_Discount_Duration","Date_Mutation","Brand"
"945580","204164750201942","11","2019-09-01","","2019-10-01","20.0000","5.00","6","2019-09-01 00:07:29","Delta"
"944821","204164750202619","43","2019-09-01","","2019-10-01","25.0000","5.00","6","2019-09-01 00:07:28","Delta"
"947334","204164750213200","11","2019-09-01","","2019-10-01","20.0000","20.00","4","2019-09-01 00:07:29","Delta"
"945575","204164750201945","43","2019-09-01","","2019-10-01","25.0000","5.00","6","2019-09-01 00:07:29","Delta"
"944601","204164750200569","11","2019-09-01","","2019-10-01","20.0000","","","2019-09-01 00:07:28","Delta"
"945601","204164750204053","11","2019-09-01","","2021-09-01","20.0000","5.00","6","2019-09-01 00:07:29","Delta"
"945521","204164750201955","11","2019-09-01","","2019-10-01","20.0000","5.00","6","2019-09-01 00:07:29","Delta"
"948417","","11","2019-09-01","","2019-10-01","20.0000","20.00","4","2019-09-01 00:07:29","Delta"
"945582","204164750201940","43","2019-09-01","","2019-10-01","25.0000","5.00","6","2019-09-01 00:07:29","Delta"
"945106","204164750203626","11","2019-09-01","","2019-10-01","20.0000","5.00","6","2019-09-01 00:07:28","Delta"
"947438","204164750211026","43","2019-09-01","","2019-10-01","25.0000","5.00","6","2019-09-01 00:07:29","Delta"
