"CustomerNumber","IMSI","Productid","Start_date","End_Of_Contract","Date_Contract_Prolong","MRR","MRR_Discount","MRR_Discount_Duration","Date_Mutation","Brand"
"947069","","81","2019-08-08","","2021-08-08","12.5000","","","2019-08-07 21:26:33","Caiway"
"944459","204164750206530","82","2019-09-09","","2021-09-09","17.5000","","","2019-08-08 09:32:07","Caiway"
"947067","","81","2019-08-01","","2021-08-01","12.5000","","","2019-08-07 21:26:52","Caiway"
"947024","","81","2019-08-08","","2021-08-08","12.5000","","","2019-08-07 22:50:03","Caiway"
"947081","","82","2019-08-07","2019-08-08","2021-08-07","17.5000","","","2019-08-08 15:10:24","Caiway"
"947310","","11","2019-08-07","","2019-09-08","20.0000","5.00","6","2019-08-08 00:09:49","Delta"
"947392","","11","2019-08-07","","2019-09-08","20.0000","20.00","4","2019-08-08 00:09:50","Delta"
"946329","204164750201829","11","2019-08-08","","2019-09-08","20.0000","5.00","6","2019-08-08 00:09:47","Delta"
"947424","","11","2019-08-08","","2019-09-08","20.0000","20.00","4","2019-08-08 11:32:04","Delta"
"944765","204164750200281","11","2019-07-19","2019-08-07","2019-09-08","20.0000","","","2019-08-08 00:09:48","Delta"
"947154","","11","2019-08-08","","2019-09-08","20.0000","20.00","4","2019-08-08 09:30:19","Delta"
"947379","","11","2019-08-08","","2019-09-08","20.0000","20.00","4","2019-08-08 00:09:49","Delta"
"945547","204164750201922","11","2019-08-07","","2019-09-08","20.0000","20.00","4","2019-08-08 00:09:47","Delta"
"947404","","11","2019-08-08","","2019-09-08","20.0000","20.00","4","2019-08-08 09:24:54","Delta"
"946374","204164750200318","11","2019-08-08","","2021-08-08","20.0000","5.00","6","2019-08-08 00:09:47","Delta"
"947445","","11","2019-08-08","","2019-09-08","20.0000","20.00","4","2019-08-08 16:25:18","Delta"
"947304","","11","2019-08-08","","2019-09-08","20.0000","5.00","6","2019-08-08 00:09:49","Delta"
"947390","","11","2019-08-07","","2019-09-08","20.0000","20.00","4","2019-08-08 00:09:50","Delta"
"946222","204164750201464","11","2019-08-08","","2019-09-08","20.0000","5.00","6","2019-08-08 00:09:47","Delta"
"947419","","11","2019-08-07","","2021-08-07","20.0000","5.00","6","2019-08-08 00:09:50","Delta"
"946434","204164750201109","43","2019-08-08","","2019-09-08","25.0000","5.00","6","2019-08-08 00:09:48","Delta"
"947514","","11","2019-08-08","","2021-08-08","20.0000","20.00","4","2019-08-08 16:41:49","Delta"
"947127","","6","2019-08-08","","2019-09-08","7.0000","","","2019-08-08 00:09:48","Delta"
"947375","","11","2019-08-07","","2019-09-08","20.0000","20.00","4","2019-08-08 00:09:49","Delta"
"945214","204164750202854","11","2019-08-08","","2019-09-08","20.0000","5.00","6","2019-08-08 00:09:46","Delta"
"947403","","11","2019-08-08","","2019-09-08","20.0000","20.00","4","2019-08-08 00:09:50","Delta"
"946365","204164750201854","11","2019-08-08","","2021-08-08","20.0000","5.00","6","2019-08-08 00:09:47","Delta"
"947434","","11","2019-08-08","","2019-09-08","20.0000","20.00","4","2019-08-08 13:09:08","Delta"
"947294","","11","2019-08-08","","2019-09-08","20.0000","20.00","4","2019-08-08 09:22:23","Delta"
"947384","","11","2019-08-08","","2019-09-08","20.0000","20.00","4","2019-08-08 00:09:50","Delta"
"946169","204164750201826","11","2019-08-08","","2021-08-08","20.0000","5.00","6","2019-08-08 00:09:47","Delta"
"944564","","11","2019-08-08","","2019-09-08","20.0000","20.00","4","2019-08-08 09:25:49","Delta"
"946424","204164750201724","11","2019-08-08","","2019-09-08","20.0000","5.00","6","2019-08-08 00:09:48","Delta"
"947513","","11","2019-08-08","","2019-09-08","20.0000","20.00","4","2019-08-08 16:23:00","Delta"
"947346","","11","2019-08-07","","2019-09-08","20.0000","20.00","4","2019-08-08 00:09:49","Delta"
"944717","204164750202579","11","2019-06-11","","2019-09-08","20.0000","5.00","6","2019-08-08 19:50:01","Delta"
"947402","","11","2019-08-08","","2019-09-08","20.0000","5.00","6","2019-08-08 00:09:50","Delta"
"946362","204164750200285","10","2019-08-08","","2021-08-08","7.0000","","","2019-08-08 00:09:47","Delta"
"947429","","11","2019-08-08","","2019-09-08","20.0000","5.00","600","2019-08-08 00:09:50","Delta"
"946831","","43","2019-08-07","","2019-09-08","25.0000","20.00","4","2019-08-08 00:09:48","Delta"
"947164","","11","2019-08-03","2019-08-07","2019-09-08","20.0000","20.00","4","2019-08-08 00:09:48","Delta"
"947383","","11","2019-08-08","","2019-09-08","20.0000","20.00","4","2019-08-08 00:09:49","Delta"
"945910","204164750201656","10","2019-08-08","","2019-09-08","7.0000","","","2019-08-08 00:09:47","Delta"
"947410","","11","2019-08-07","","2021-08-07","20.0000","20.00","4","2019-08-08 00:09:50","Delta"
"946385","204164750201753","11","2019-08-08","","2019-09-08","20.0000","5.00","6","2019-08-08 00:09:47","Delta"
"800064","","10","2019-08-08","2019-09-08","2019-09-08","7.0000","","","2019-08-08 12:46:27","Delta"
