"initial","salutation","firstname","middlename","lastname","id","deltaid","caiwayid","address1","housenumber","alphabet","postcode","city","country","delta_address1","delta_housenumber","delta_alphabet","delta_postcode","delta_city","delta_country","caiway_address1","caiway_housenumber","caiway_alphabet","caiway_postcode","caiway_city","caiway_country","email","phonenumber","phonenumber2","iban","brand","date_modified"
"","Dhr.","W.","","Minderhoud","949203","M386710","","Jazzroute","35","","4337 XB","Middelburg","NL","Jazzroute","35","","4337 XB","Middelburg","NL","","","","","","","w.minderhoud@gmail.com","0118681937","","NL62INGB0005516943","Delta","2019-09-17 21:05:45"
"","Mevr.","D.","","Liefbroer-Coppoolse","949204","M305603","","Meiveld","4","","4388 MB","OOST-SOUBURG","NL","Meiveld","4","","4388 MB","OOST-SOUBURG","NL","","","","","","","liefbroer@zeelandnet.nl","0118216269","","NL72RABO0308221400","Delta","2019-09-17 22:14:14"
"","Mevr.","I.P.M.G.","","Ivens","949205","M404657","","Vondelstraat","60","","4561 LR","Hulst","NL","Vondelstraat","60","","4561 LR","Hulst","NL","","","","","","","isabellaivens@zeelandnet.nl","0630147484","","NL61RABO0330416944","Delta","2019-09-17 22:54:38"
"","Mevr.","C.A.","","Moerland","949208","490274","","Wilheminastraat","1 ","","4436 AE","Oudelande","NL","Wilheminastraat","1 ","","4436 AE","Oudelande","NL","","","","","","","info@cibterneuzen.nl","31630382559","","NL70ABNA0402564820","Delta","2019-09-18 09:59:39"
"","Mevr.","H.J.","","Nouse","949209","M323299 VERLENGING","","Nieuwe","Vlissingseweg","","4387 AA","Vlissingen","NL","Nieuwe","Vlissingseweg","","4387 AA","Vlissingen","NL","","","","","","","zeelena@live.nl","3112345678","","NL33INGB0003826949","Delta","2019-09-18 10:30:06"
"","Dhr.","M.A.","","Tolhoek","949210","M301550","","Oude","Rijksweg","","4458 AK","'s-Heer Arendskerke","NL","Oude","Rijksweg","","4458 AK","'s-Heer Arendskerke","NL","","","","","","","tolhoekvdl@zeelandnet.nl","0621956465","","NL32RABO0320505715","Delta","2019-09-18 10:35:09"
"","Dhr.","C.P.","","van der Neut","949213","K20033517","","Hogezoom ","16 ","","4328 EG","Burgh-Haamstede","NL","Hogezoom ","16 ","","4328 EG","Burgh-Haamstede","NL","","","","","","","cpvdneut@zeelandnet.nl","31648264876","","NL72ABNA0504210599","Delta","2019-09-18 11:07:55"
"","Dhr.","M.","","de Visser","949215","M307307","","Penninghoeksingel","67 ","","4331 PT","Middelburg","NL","Penninghoeksingel","67 ","","4331 PT","Middelburg","NL","","","","","","","mirjamvisr@zeelandnet.nl","31620835661","","NL12RABO0314456767","Delta","2019-09-18 11:17:07"
"","Dhr.","A.G.A.","","Wischlinski","949216","519636","","Eendrachtstraat","79 ","","4675 CR","Sint Philipsland","NL","Eendrachtstraat","79 ","","4675 CR","Sint Philipsland","NL","","","","","","","wiskey1980@hotmail.com","31625446743","","NL19RABO0118853813","Delta","2019-09-18 11:17:50"
"","Mevr.","J.C","","Bardolf","949217","M380899","","Nieuwstraat","44 ","","4493 BE","Kamperland","NL","Nieuwstraat","44 ","","4493 BE","Kamperland","NL","","","","","","","ma@zeelandnet.nl","31642382556","","NL57RABO0371407567","Delta","2019-09-18 11:33:45"
"","Dhr.","G","","van der Linden","949219","M","","Kloostertuin","60","","4328 HZ","Burgh- Haamstede","NL","Kloostertuin","60","","4328 HZ","Burgh- Haamstede","NL","","","","","","","linden@glr.nl","31621159764","","NL77INGB0001257597","Delta","2019-09-18 11:49:17"
"","Dhr.","G.R.","","van Damme","949220","M111111","","Leeuwenlaan","2 ","","4532 AD","Terneuzen","NL","Leeuwenlaan","2 ","","4532 AD","Terneuzen","NL","","","","","","","vandammeoptiek@gmail.com","31117420171","","NL54RABO0369540565","Delta","2019-09-18 12:03:39"
"","Mevr.","M.","","Buitenhuis-Kruithof","949222","M111111","","Prunjewekken","14 ","","4327 AH","Serooskerke","NL","Prunjewekken","14 ","","4327 AH","Serooskerke","NL","","","","","","","greetjeminhasogra@hotmail.nl","31111672238","","NL86INGB0003028364","Delta","2019-09-18 12:40:15"
"","Dhr.","J.C.","","Schout","949223","M","","Boogerdlaan","18","","4484 SV","Kortgene","NL","Boogerdlaan","18","","4484 SV","Kortgene","NL","","","","","","","janschout@zeelandnet.nl","","","NL18RBRB0687859883","Delta","2019-09-18 13:16:51"
"","Dhr.","A.H.","","Trimpe Burger","949225","M111111","","Dorpsstraat","72","","4352 AE","Gapinge","NL","Dorpsstraat","72","","4352 AE","Gapinge","NL","","","","","","","ahtb@live.nl","31653904064","","NL14INGB0009010971","Delta","2019-09-18 13:34:13"
"","Mevr.","M.L.","","de Kubber","949226","M111111","","Burgemeester","Stemerdinglaan","","4388 JX","Oost-Souburg","NL","Burgemeester","Stemerdinglaan","","4388 JX","Oost-Souburg","NL","","","","","","","mldekubber@zeelandnet.nl","31118468746","","NL85RABO0314107223","Delta","2019-09-18 13:47:21"
"","Dhr.","J","","de Feyter","949227","515418","","Bijlokestraat","8 ","","4571 JH","Axel","NL","Bijlokestraat","8 ","","4571 JH","Axel","NL","","","","","","","feijter1@zeelandnet.nl","31643760708","","NL38ABNA0468224017","Delta","2019-09-18 13:56:05"
"","Dhr.","F.H. ","","Stokhof","949228","K20085484","","Magrette ","16 ","","4571 ST","Axel","NL","Magrette ","16 ","","4571 ST","Axel","NL","","","","","","","druifje10@live.nl","31625240130","","NL77RABO0103729984","Delta","2019-09-18 13:56:17"
"","Dhr.","G.J","","Hahn","949230","M591756","","Pyntorenstraat ","15 ","","4461 AZ","Goes","NL","Pyntorenstraat ","15 ","","4461 AZ","Goes","NL","","","","","","","hahnnetje@gmail.com","31646680777","","NL10INGB0671825720","Delta","2019-09-18 14:09:44"
"","Dhr.","C.","","Verkerke","949231","M111111","","Molenvlietsestraat","17 ","","4691 BT","THOLEN","NL","Molenvlietsestraat","17 ","","4691 BT","THOLEN","NL","","","","","","","ceescorrie@zeelandnet.nl","31648761009","","NL88RABO0362606684","Delta","2019-09-18 14:23:48"
"","Mevr.","C.M.","","Vonk - Witkamp","949232","M367198-VERLENGING","","Attleestede","17 ","","4463 EW","Goes","NL","Attleestede","17 ","","4463 EW","Goes","NL","","","","","","","knov-rac1@zeelandnet.nl","31615350850","","NL70ABNA0521152267","Delta","2019-09-18 14:28:51"
"","Dhr.","B.P.","","Ramondt","949233","M328975","","Volkerakstraat","49 ","","4301 XV","Zierikzee","NL","Volkerakstraat","49 ","","4301 XV","Zierikzee","NL","","","","","","","bpramondt@zeelandnet.nl","0614538461","","NL70ABNA0486170187","Delta","2019-09-18 14:35:42"
"","Dhr.","J.C. ","","Gruson","949234","K10046177","","Oude","Rijksweg","","4511 HW","Breskens","NL","Oude","Rijksweg","","4511 HW","Breskens","NL","","","","","","","jensgruson@gmail.com","31629159406","","NL50RBRB0900661011","Delta","2019-09-18 14:58:14"
"","Dhr.","C.","","van Dijke","949235","K00148143","","Bierensstraat ","61 ","","4697 GD","Sint-Annaland","NL","Bierensstraat ","61 ","","4697 GD","Sint-Annaland","NL","","","","","","","cdijk@zeelandnet.nl","3166652774","","NL43RABO0303051434","Delta","2019-09-18 14:59:39"
"","Mevr.","J.","","den Oudsten-Duim","949236","M111111","","Kraanvogel","2 ","","4533 EH","Terneuzen","NL","Kraanvogel","2 ","","4533 EH","Terneuzen","NL","","","","","","","hannydo@zeelandnet.nl","31115850781","","NL88RABO0146743563","Delta","2019-09-18 15:24:04"
"","Dhr.","I","","Verschueren Arens","949237","K01134504","","Spoorwaterstraat","26 ","","4561 ZG","Hulst","NL","Spoorwaterstraat","26 ","","4561 ZG","Hulst","NL","","","","","","","home26hlt@zeelandnet.nl","31114316235","","NL81RABO0330027905","Delta","2019-09-18 15:58:31"
"","Dhr.","F.E.A. ","","Tax","949238","M","","Adriaen Verdoelstraat 13"," ","","4383 SG","Vlissingen","NL","Adriaen Verdoelstraat 13"," ","","4383 SG","Vlissingen","NL","","","","","","","ftax@zeelandnet.nl","","","NL63INGB0000738511","Delta","2019-09-18 16:02:24"
"","Dhr.","A","","Neve","949239","M","","Segeersweg","9","","4337 LC","Middelburg","NL","Segeersweg","9","","4337 LC","Middelburg","NL","","","","","","","mevrneve@zeelandnet.nl","","","NL26ABNA0811052788","Delta","2019-09-18 16:03:32"
"","Dhr.","P.A.M. ","","van Velzen","949241","K04506657","","Markt","4 ","","4515 BA","IJzendijke","NL","Markt","4 ","","4515 BA","IJzendijke","NL","","","","","","","vvelzenta@zeelandnet.nl","31117302401","","NL21INGB0003066685","Delta","2019-09-18 16:14:34"
"","Dhr.","L.A.","","Abelman","949242","M","","Haringvlietstraat","78","","4335 XL","Middelburg","NL","Haringvlietstraat","78","","4335 XL","Middelburg","NL","","","","","","","laabelman@zeelandnet.nl","","","NL40RABO0111709385","Delta","2019-09-18 16:36:07"
"","Mevr.","M.A","","Vermeulen ","949243","M307662","","Havelaarstraat","2 A ","","4486 BC","Colijnsplaat","NL","Havelaarstraat","2 A ","","4486 BC","Colijnsplaat","NL","","","","","","","kevermeulen@zeelandnet.nl","31623749605","","NL28ABNA0548487138","Delta","2019-09-18 16:42:22"
"","Mevr.","J","","Griep","949244","M1111","","Burg","Elenbaasstraat","","4416 AP","KRUININGEN","NL","Burg","Elenbaasstraat","","4416 AP","KRUININGEN","NL","","","","","","","cobygriep@hotmail.com","31311133827","","NL40INGB0002903286","Delta","2019-09-18 16:44:26"
"","Dhr.","C.M","","KLEPPE ","949245","M11111","","De","Stelle","","4464 BP","GOES","NL","De","Stelle","","4464 BP","GOES","NL","","","","","","","cmkleppe@zeelandnet.nl","31316557728","","NL25ABNA0472102311","Delta","2019-09-18 16:54:41"
"","Dhr.","J.A","","Robijn","949246","M1111","","Peter van Anrooylaan ","170 ","","4536 CK","TERNEUZEN","NL","Peter van Anrooylaan ","170 ","","4536 CK","TERNEUZEN","NL","","","","","","","jaapiejo@zeelandnet.nl","31311156139","","NL28ABNA0811700518","Delta","2019-09-18 17:07:23"
"","Dhr.","G.","","van sorge","949247","M","","Willem-Alexanderstraat","19","","4388 HZ","Oost-Souburg","NL","Willem-Alexanderstraat","19","","4388 HZ","Oost-Souburg","NL","","","","","","","gvsorge@zeelandnet.nl","","","NL43RABO0389377457","Delta","2019-09-18 17:10:57"
"","Dhr.","J.A.C.","","Mathijssen","949248","M1111","","De Hoge Weie ","27 ","","4486 CN","COLIJNSPLAAT","NL","De Hoge Weie ","27 ","","4486 CN","COLIJNSPLAAT","NL","","","","","","","hesjemat@zeelandnet.nl","31316535461","","NL42RABO0144915359","Delta","2019-09-18 17:28:04"
"","Dhr.","P.A.","","Eversdijk","949249","M111","","Ambachtsherenwegeling ","9 ","","4421 GP","KAPELLE","NL","Ambachtsherenwegeling ","9 ","","4421 GP","KAPELLE","NL","","","","","","","pietevdijk@zeelandnet.nl","31311133437","","NL62ABNA0460979140","Delta","2019-09-18 17:40:58"
"","Dhr.","M.","","Snoep","949250","M11111","","M.H.Trompstraat ","33 ","","4461 GJ","Goes","NL","M.H.Trompstraat ","33 ","","4461 GJ","Goes","NL","","","","","","","nannes@zeelandnet.nl","3163038033","","NL06ABNA0514223448","Delta","2019-09-18 18:00:04"
"","Mevr.","J.J.J","","van Hekken","949251","K10120671","","Koudekerkseweg ","10 ","","4382 EB","Vlissingen","NL","Koudekerkseweg ","10 ","","4382 EB","Vlissingen","NL","","","","","","","jaatye@hotmail.com","31623250870","","NL11KNAB0280244444","Delta","2019-09-18 18:11:38"
"","Mevr.","E.","","Boonstra-Karstens","949252","M111111","","Verdilaan","16 ","","4462 JP","GOES","NL","Verdilaan","16 ","","4462 JP","GOES","NL","","","","","","","lenetteboonstra@gmail.com","31645155391","","NL07RABO0331512173","Delta","2019-09-18 18:14:37"
"","Mevr.","A.E.P.","","Praet","949253","M111111","","Malburgplein","14","","4561 CG","Hulst","NL","Malburgplein","14","","4561 CG","Hulst","NL","","","","","","","a.praet3@gmail.com","31636169201","","NL48RABO0330436481","Delta","2019-09-18 18:20:13"
"","Mevr.","H.G.","","Rouwen","949254","111111","","Oostelijk","Bolwerk","","4531 GV","TERNEUZEN","NL","Oostelijk","Bolwerk","","4531 GV","TERNEUZEN","NL","","","","","","","nasischijf65@msn.com","31646913278","","NL46INGB0662010515","Delta","2019-09-18 18:41:34"
"","Mevr.","K.M.","","Begthel","949255","M111111","","Burgemeester P Wissestraat"," 4 ","","4494 NS","GEERSDIJK","NL","Burgemeester P Wissestraat"," 4 ","","4494 NS","GEERSDIJK","NL","","","","","","","kmbegthel@zeelandnet.nl","31646529755","","NL83RABO0371406323","Delta","2019-09-18 19:00:14"
"","Dhr.","R.","","de Vlaeminck","949256","M111111","","Nieuwstraat","44 ","","4501 BE","Oostburg","NL","Nieuwstraat","44 ","","4501 BE","Oostburg","NL","","","","","","","staelens@zeelandnet.nl","31117455215","","NL38ABNA0417690800","Delta","2019-09-18 19:15:19"
"","Dhr.","E.","","de Croo","949257","M111111","","Narcissenlaan","11 ","","4542 BS","Hoek","NL","Narcissenlaan","11 ","","4542 BS","Hoek","NL","","","","","","","crowise@zeelandnet.nl","31123445678","","NL03RABO0349399336","Delta","2019-09-18 19:31:03"
"","Dhr.","R.","","Brandenburg","949258","K10010845","","Graafjansdijk ","A 24 ","","4554 AE","Westdorpe","NL","Graafjansdijk ","A 24 ","","4554 AE","Westdorpe","NL","","","","","","","rbrandenburg9571@gmail.com","31623407721","","NL88ABNA0605487138","Delta","2019-09-18 19:41:04"
"","Dhr.","A.A.","","Luiting","949259","M111111","","Volkerakstraat","50 ","","4301 XT","ZIERIKZEE","NL","Volkerakstraat","50 ","","4301 XT","ZIERIKZEE","NL","","","","","","","anonderweg@live.nl","31611740811","","NL75INGB0008215540","Delta","2019-09-18 19:47:48"
"","Dhr.","M.","","Roth","949260","M111111","","Garsstraat","10 ","","4505 BA","Zuidzande","NL","Garsstraat","10 ","","4505 BA","Zuidzande","NL","","","","","","","martijn_78@hotmail.com","31123456789","","NL80ABNA0500111138","Delta","2019-09-18 19:53:39"
"","Dhr.","P.A.","","Moret","949261","M111111","","Rubenslaan","90 ","","4383 WG","VLISSINGEN","NL","Rubenslaan","90 ","","4383 WG","VLISSINGEN","NL","","","","","","","pietmoret@zeelandnet.nl","31118774933","","NL79RABO0103721509","Delta","2019-09-18 20:24:05"
"","Dhr.","A.J.","","van Noort-Polvliet","949262","M111111","","Schuitvlotstraat","12 ","","4364 AD","GRIJPSKERKE","NL","Schuitvlotstraat","12 ","","4364 AD","GRIJPSKERKE","NL","","","","","","","ajpolvliet@zeelandnet.nl","31636180093","","NL83INGB0006543213","Delta","2019-09-18 20:24:11"
"","Dhr.","N","","van der Moezel","949263","M111111","","Klaverstraat","65","","4322 CG","Scharendijke","NL","Klaverstraat","65","","4322 CG","Scharendijke","NL","","","","","","","nvdm@zeelandnet.nl","31623434110","","NL39INGB0006166966","Delta","2019-09-18 20:24:47"
"","Mevr.","M.A.","","Prins","949265","M111111","","Goeman","Borgesiusstraat","","4384 JP","VLISSINGEN","NL","Goeman","Borgesiusstraat","","4384 JP","VLISSINGEN","NL","","","","","","","wjvboxtel@zeelandnet.nl","31652084491","","NL40RABO0389328235","Delta","2019-09-18 20:47:59"
"","Mevr.","T.N.","","cooper","949266","M11111","","Groen van Prinstererlaan ","76 ","","4384 CJ","vlissingen","NL","Groen van Prinstererlaan ","76 ","","4384 CJ","vlissingen","NL","","","","","","","tamaraandlennon@yahoo.com","3161559588","","NL37ABNA0579146057","Delta","2019-09-18 20:54:50"
"","Dhr.","J.H.","","Sleurik","949206","","1481326","Baltinkweg","60","","7548 RW","Enschede","NL","","","","","","","Baltinkweg","60","","7548 RW","Enschede","NL","jan.hendrik.sleurik@gmail.com","","","NL19RABO0316705101","Caiway","2019-09-18 09:49:25"
"","Dhr.","J","","Prins","949207","","M","Singravenstraat","23","","7651 JP","Tubbergen","NL","","","","","","","Singravenstraat","23","","7651 JP","Tubbergen","NL","koosprins23@gmail.com","31546624106","","NL36RABO0159126258","Caiway","2019-09-18 09:56:44"
"","Dhr.","F","","de Jong","949212","","M","Apollostraat","3","","1431 WR","Aalsmeer","NL","","","","","","","Apollostraat","3","","1431 WR","Aalsmeer","NL","jongf@caiway.nl","31297320828","","NL66INGB0001311727","Caiway","2019-09-18 10:59:55"
"","Mevr.","M.H.","","Bouwens","949214","","M","A. ten Hovestraat 2","       ","","7475 CZ","Markelo","NL","","","","","","","A. ten Hovestraat 2","       ","","7475 CZ","Markelo","NL","harko.marijke@gmail.com","","","NL45RABO0340704373","Caiway","2019-09-18 11:12:19"
"","Dhr.","Hjp","","Dietvorst","949221","","M","Kemperweg","7","","7475 SX","Markelo","NL","","","","","","","Kemperweg","7","","7475 SX","Markelo","NL","hsdietvorst@gmail.com","31547362024","","NL91INGB0701735279","Caiway","2019-09-18 12:37:41"
"","Dhr.","H.M","","Ter Haar","949224","","M","Dennenweg","3","","7161 ML","Neede","NL","","","","","","","Dennenweg","3","","7161 ML","Neede","NL","stilleharry@caiway.nl","","","NL27ABNA0596800819","Caiway","2019-09-18 13:24:46"
"","Dhr.","J.","","Verduijn","949240","","M","Aalderinkshof","74","","7604 CG","Almelo","NL","","","","","","","Aalderinkshof","74","","7604 CG","Almelo","NL","jverduijn1610@gmail.com","31546753162","","NL44RABO0313721610","Caiway","2019-09-18 16:08:18"
"","Dhr.","L","","Kamermans","949264","","M","Opgang","11","","7681 CN","Vroomshoop","NL","","","","","","","Opgang","11","","7681 CN","Vroomshoop","NL","bertkamermans@icloud.com","","","NL54RABO0366631438","Caiway","2019-09-18 20:25:14"
