"initial","salutation","firstname","middlename","lastname","id","deltaid","caiwayid","address1","housenumber","alphabet","postcode","city","country","delta_address1","delta_housenumber","delta_alphabet","delta_postcode","delta_city","delta_country","caiway_address1","caiway_housenumber","caiway_alphabet","caiway_postcode","caiway_city","caiway_country","email","phonenumber","phonenumber2","iban","brand","date_modified"
"","Dhr.","M.","","van Bronkhorst","948965","M451236","","Jac Jordaensstraat","21","","4567 DG","Clinge","NL","Jac Jordaensstraat","21","","4567 DG","Clinge","NL","","","","","","","ablommaert@zeelandnet.nl","0114311294","","NL81ABNA0401918602","Delta","2019-09-12 10:41:54"
"","Dhr.","B.t","","Van Helleman","948966","M","","Joseph Lunslaan 40"," ","","4463 CV","Goes","NL","Joseph Lunslaan 40"," ","","4463 CV","Goes","NL","","","","","","","bartvh1990@live.nl","31629212831","","NL35ABNA0857110942","Delta","2019-09-12 10:45:03"
"","Dhr.","J.","","Quaak","948967","M","","Ravelijn de Groene Jager ","36 ","","4461 DJ","Goes","NL","Ravelijn de Groene Jager ","36 ","","4461 DJ","Goes","NL","","","","","","","nil@zeelandnet.nl","31610441267","","NL23RABO0375107274","Delta","2019-09-12 10:51:59"
"","Dhr.","R.","","Groosman","948970","M312058","","Het Heem","29","","4511 PM","Breskens","NL","Het Heem","29","","4511 PM","Breskens","NL","","","","","","","gcjfaes@zeelandnet.nl","0117383638","","NL26ABNA0486338207","Delta","2019-09-12 11:22:10"
"","Dhr.","C.J.","","Aarnoutse","948973","M","","Wijenburg","32","","4385 GP","Vlissingen","NL","Wijenburg","32","","4385 GP","Vlissingen","NL","","","","","","","keesklep@zeelandnet.nl","31118466213","","NL88ABNA0816502684","Delta","2019-09-12 11:37:42"
"","Mevr.","B.J.A.","","van den Berg-Abbing","948974","M111111","","Pablo","Picassoplein","","4382 KB","Vlissingen","NL","Pablo","Picassoplein","","4382 KB","Vlissingen","NL","","","","","","","dabbing@zeelandnet.nl","31118217040","","NL84INGB0002198953","Delta","2019-09-12 12:01:17"
"","Dhr.","M.","","Kouijzer","948975","M111111","","Oesterstraat","47 ","","4301 ZL","Zierikzee","NL","Oesterstraat","47 ","","4301 ZL","Zierikzee","NL","","","","","","","martijn.kouijzer83@gmail.com","31123456789","","NL58RABO0375167269","Delta","2019-09-12 12:13:55"
"","Mevr.","P.A.","","Rijn","948976","111111","","Paul Krugerstraat 201","201 ","","4382 ME","Vlissingen","NL","Paul Krugerstraat 201","201 ","","4382 ME","Vlissingen","NL","","","","","","","margieb@zeelandnet.nl","31631785073","","NL22INGB0668644680","Delta","2019-09-12 12:17:05"
"","Mevr.","I.R.P.","","de Smet","948979","1234","","Bellamystraat","23 ","","4532 CR","TERNEUZEN","NL","Bellamystraat","23 ","","4532 CR","TERNEUZEN","NL","","","","","","","jrpdesmet@zeelandnet.nl","31311158504","","NL54RABO0362367027","Delta","2019-09-12 13:20:44"
"","Dhr.","G.L.","","van Renterghem","948981","M","","De","Smeedtoren","","4524 DB","Sluis","NL","De","Smeedtoren","","4524 DB","Sluis","NL","","","","","","","guy.vanrenterghem@kpnmail.nl","316839423","","NL71RABO0167730207","Delta","2019-09-12 13:54:58"
"","Mevr.","C.J.","","van der Borst","948982","M111111","","Vredehoflaan ","4 ","","4382 BT","Vlissingen","NL","Vredehoflaan ","4 ","","4382 BT","Vlissingen","NL","","","","","","","katja299@hotmail.com","31123456789","","NL78RABO0146881095","Delta","2019-09-12 14:08:19"
"","Dhr.","F.B.","","Knol","948985","M563357","","Veerseweg","70","","4332 BH","Middelburg","NL","Veerseweg","70","","4332 BH","Middelburg","NL","","","","","","","fbknol@zeelandnet.nl","0620348419","","NL08INGB0000781114","Delta","2019-09-12 14:20:58"
"","Dhr.","M.","","Mawanda","948987","M566842","","Kabbelaarsbankstraat","1","","4322 BH","Scharendijke","NL","Kabbelaarsbankstraat","1","","4322 BH","Scharendijke","NL","","","","","","","mawandam@zeelandnet.nl","0687974680","","NL60INGB0653840632","Delta","2019-09-12 14:41:02"
"","Mevr.","P.M. ","","Katsman - Perquin","948988","M451986VERLENGING","","Burgemeester","Hackstraat","","4471 BL","Wolphaartsdijk","NL","Burgemeester","Hackstraat","","4471 BL","Wolphaartsdijk","NL","","","","","","","pattykatsmanperquin@gmail.com","31113853779","","NL40ABNA0482552433","Delta","2019-09-12 14:41:49"
"","Mevr.","C.C.","","Reijnierse e/v Sponselee","948990","P32933901- VERLENGING","","Buitenhovelaan","233 ","","4337 HL","Middelburg","NL","Buitenhovelaan","233 ","","4337 HL","Middelburg","NL","","","","","","","inasponelee@gmail.com","31624473477","","NL37RABO0389305979","Delta","2019-09-12 15:01:38"
"","Mevr.","P.","","Verschueren-Dieleman","948991","M389557","","Graaf Jansdijk","28","","4571 SH","Axel","NL","Graaf Jansdijk","28","","4571 SH","Axel","NL","","","","","","","els.verschueren@gmail.com","0115564969","","NL59RABO0362345694","Delta","2019-09-12 15:04:57"
"","Dhr.","J.","","Guerrero","948992","M597912","","Deltaweg","14","","4328 GG","Burgh-Haamstede","NL","Deltaweg","14","","4328 GG","Burgh-Haamstede","NL","","","","","","","jorgeguerrero@hotmail.nl","0646264779","","NL24RABO0160700396","Delta","2019-09-12 15:21:26"
"","Mevr.","J","","Cevaal-Klap","948993","M302851 VERLENGING","","Julianastraat ","16 ","","4388 JD","Oost-souburg","NL","Julianastraat ","16 ","","4388 JD","Oost-souburg","NL","","","","","","","janniecevaal@gmail.com","31118472725","","NL58ABNA0810884984","Delta","2019-09-12 15:27:21"
"","Dhr.","L.J.","","van der Maas","948994","M-GLASVEZEL","","Bredeweg","174","","2761 KC","Zevenhuizen","NL","Bredeweg","174","","2761 KC","Zevenhuizen","NL","","","","","","","leo.vander.maas@hetnet.nl","0630676606","","NL96RABO0366869787","Delta","2019-09-12 15:30:54"
"","Dhr.","M.","","Kruijskamp","948995","586724","","Westerzicht","613 ","","4385 CA","Vlissingen","NL","Westerzicht","613 ","","4385 CA","Vlissingen","NL","","","","","","","m.kruyskamp@hotmail.es","31118763612","","NL79RABO0330744674","Delta","2019-09-12 15:33:24"
"","Dhr.","J.","","Manusama","948997","M111111","","Zaanstraat","66 ","","4388 TE","Oost-Souburg","NL","Zaanstraat","66 ","","4388 TE","Oost-Souburg","NL","","","","","","","jmanusama@zeelandnetl.nl","31118467373","","NL66INGB0003773393","Delta","2019-09-12 15:59:40"
"","Dhr.","P","","Plasschaert","948998","M","","Basaltpromenade","147 ","","4533 CD","Terneuzen","NL","Basaltpromenade","147 ","","4533 CD","Terneuzen","NL","","","","","","","philip.plasschaert@me.com","31621199971","","NL80INGB0003025271","Delta","2019-09-12 16:03:49"
"","Dhr.","P.A.T","","van de Boogaard","948999","M111111","","Markt","16 ","","4416 AH","Kruiningen","NL","Markt","16 ","","4416 AH","Kruiningen","NL","","","","","","","pavdbogerd@zeelandnet.nl","31113383504","","NL27INGB0006136530","Delta","2019-09-12 16:04:02"
"","Dhr.","J.H","","Boone","949002","M111111","","De","Lannoystraat","","4381 VT","Vlissingen","NL","De","Lannoystraat","","4381 VT","Vlissingen","NL","","","","","","","janmarbo@me.com","31118415459","","NL78ABNA4991062764","Delta","2019-09-12 16:13:20"
"","Dhr.","R.","","Glabbeek","949003","M111111","","Fluitekruid","20 ","","4421 MP","Kapelle","NL","Fluitekruid","20 ","","4421 MP","Kapelle","NL","","","","","","","glabbeek@zeelandnet.nl","31113351130","","NL82INGB0006019237","Delta","2019-09-12 16:25:10"
"","Dhr.","G.","","Budroni","949004","M111111","","Drebbelstraat","19 ","","4532 JN","Terneuzen","NL","Drebbelstraat","19 ","","4532 JN","Terneuzen","NL","","","","","","","gbudroni@gmail.com","31115615282","","NL33RABO0133420051","Delta","2019-09-12 16:29:29"
"","Dhr.","M","","Cambeen","949005","M","","Drie Gezustersdijk 23","Vogelwaarde ","","4581 RM","Vogelwaarde","NL","Drie Gezustersdijk 23","Vogelwaarde ","","4581 RM","Vogelwaarde","NL","","","","","","","m_cambeen@hotmail.com","","","NL37RABO0392494175","Delta","2019-09-12 16:33:24"
"","Mevr.","S.M","","van de  Voorde","949006","M111111","","Rossinistraat","35 ","","4536 EE","Terneuzen","NL","Rossinistraat","35 ","","4536 EE","Terneuzen","NL","","","","","","","omaliza@zeelandnet.nl","31123456789","","NL11ABNA0484389068","Delta","2019-09-12 16:41:04"
"","Dhr.","C.H.","","Kenters","949007","K00027745","","Rengerskerkestraat","2 ","","4321 AR","Kerkwerve","NL","Rengerskerkestraat","2 ","","4321 AR","Kerkwerve","NL","","","","","","","chkenters@zeelandnet.nl","31636095075","","NL89RABO0357815157","Delta","2019-09-12 16:57:55"
"","Dhr.","G.M.J.","","Bruyninckx","949008","M111111","","Gentsestraat","4 ","","4411 DK","RILLAND","NL","Gentsestraat","4 ","","4411 DK","RILLAND","NL","","","","","","","ginsan@zeelandnet.nl","31615440074","","NL70RBRB0939558718","Delta","2019-09-12 18:43:48"
"","Mevr.","E","","van Belzen","949009","M","","54","Koudekerkseweg","","4382 EC","Vlissingen ","NL","54","Koudekerkseweg","","4382 EC","Vlissingen ","NL","","","","","","","peewee1981@zeelandnet.nl","31118410017","","NL97abna0615511635","Delta","2019-09-12 18:48:01"
"","Dhr.","A.H.","","Zuidweg","949010","K01888779","","Magnolialaan","18 ","","4401 HJ","Yerseke","NL","Magnolialaan","18 ","","4401 HJ","Yerseke","NL","","","","","","","ahzuidweg@zeelandnet.nl","31113572554","","NL62ABNA0466530935","Delta","2019-09-12 19:10:52"
"","Dhr.","M.","","Praet","949011","M111111","","Cuwaertstraat ","9 ","","4568 BJ","Nieuw Namen","NL","Cuwaertstraat ","9 ","","4568 BJ","Nieuw Namen","NL","","","","","","","mpraet@praet.eu","31114720219","","NL92INGB0663027896","Delta","2019-09-12 19:23:36"
"","Dhr.","A.","","Kanar","949013","M111111","","Keurhove","88 ","","4336 GR","Middelburg","NL","Keurhove","88 ","","4336 GR","Middelburg","NL","","","","","","","a.kanar1@hotmail.com","31118463087","","NL92ABNA0465737129","Delta","2019-09-12 20:19:44"
"","Mevr.","M.A","","Jeremiasse","949014","M111111","","Brugstraat","20 ","","4691 EC","Tholen","NL","Brugstraat","20 ","","4691 EC","Tholen","NL","","","","","","","majeremi@zeelandnet.nl","31166602330","","NL18INGB0005731135","Delta","2019-09-12 20:42:24"
"","Dhr.","H.T.","","Teerink","948962","","M","Park Boswijk 770"," ","","3941 AX","Doorn","NL","","","","","","","Park Boswijk 770"," ","","3941 AX","Doorn","NL","rteerink@hotmail.com","","","NL44ABNA0475299574","Caiway","2019-09-11 21:44:59"
"","Dhr.","J.P.A. ","","van Rossum","948963","","M","Floridalaan","43","","3404 WV","ijsselstein","NL","","","","","","","Floridalaan","43","","3404 WV","ijsselstein","NL","hvrossum2@hotmail.com","31306045399","","nl04ingb0002446191","Caiway","2019-09-12 09:31:56"
"","Dhr.","H","","Webbink","948968","","M","Wendelgoorseweg  3"," ","","7604 PP","Almelo","NL","","","","","","","Wendelgoorseweg  3"," ","","7604 PP","Almelo","NL","bink64@live.nl","","","NL45RABO0347329667","Caiway","2019-09-12 10:58:09"
"","Dhr.","C.","","van der Giessen","949001","","M","Gerard Alewijnsstraat 24","    ","","3341 RA","Hendrik-Ido-Ambacht","NL","","","","","","","Gerard Alewijnsstraat 24","    ","","3341 RA","Hendrik-Ido-Ambacht","NL","giessenkees@gmail.com","","","NL06INGB0007688714","Caiway","2019-09-12 16:08:20"
"","Dhr.","R","","Razooki","949012","","M","Einthovendreef","28","","3146 VJ","Maassluis","NL","","","","","","","Einthovendreef","28","","3146 VJ","Maassluis","NL","razooki_rafed@hotmail.com","","","NL72INGB0003462982","Caiway","2019-09-12 19:46:25"
