"CustomerNumber","IMSI","Productid","Start_date","End_Of_Contract","Date_Contract_Prolong","MRR","MRR_Discount","MRR_Discount_Duration","Date_Mutation","Brand"
"950023","204164750205512","82","2019-10-09","","2021-10-09","17.5000","","","2019-10-08 11:35:08","Caiway"
"947367","204164750213071","11","2019-10-08","","2019-11-08","20.0000","20.00","4","2019-10-08 13:05:07","Delta"
"950204","204164750213730","11","2019-10-08","","2019-11-08","20.0000","20.00","4","2019-10-08 00:07:25","Delta"
"948393","204164750212684","10","2019-10-08","","2019-11-08","7.0000","","","2019-10-08 00:07:24","Delta"
"949213","204164750210577","11","2019-10-08","","2019-11-08","20.0000","20.00","4","2019-10-08 00:07:24","Delta"
"950051","204164750213838","11","2019-10-08","","2019-11-08","20.0000","20.00","4","2019-10-08 00:07:24","Delta"
"946184","204164750200363","7","2019-07-02","2019-10-07","2019-11-08","20.0000","5.00","6","2019-10-08 00:07:24","Delta"
"950119","204164750211238","11","2019-10-08","","2019-11-08","20.0000","20.00","4","2019-10-08 00:07:25","Delta"
"947757","204164750212807","11","2019-10-08","","2019-11-08","20.0000","20.00","4","2019-10-08 13:29:59","Delta"
"945212","204164750213808","43","2019-10-07","","2019-11-08","25.0000","","","2019-10-08 00:07:25","Delta"
"948662","204164750210871","11","2019-10-08","","2019-11-08","20.0000","20.00","4","2019-10-08 13:48:01","Delta"
"949880","204164750213577","11","2019-10-08","","2019-11-08","20.0000","5.00","6","2019-10-08 00:07:24","Delta"
"950117","204164750200069","11","2019-10-07","","2021-10-07","20.0000","20.00","4","2019-10-08 00:07:24","Delta"
"946570","204164750201446","11","2019-10-08","","2019-11-08","20.0000","5.00","6","2019-10-08 00:07:24","Delta"
"950203","204164750213729","11","2019-10-08","","2019-11-08","20.0000","20.00","4","2019-10-08 00:07:25","Delta"
"947934","204164750212766","11","2019-10-08","","2019-11-08","20.0000","20.00","4","2019-10-08 13:27:12","Delta"
"949182","204164750210653","11","2019-10-08","","2019-11-08","20.0000","20.00","4","2019-10-08 00:07:24","Delta"
"950036","204164750213657","11","2019-10-08","","2019-11-08","20.0000","20.00","4","2019-10-08 00:07:24","Delta"
"946024","204164750204029","43","2019-10-08","","2019-11-08","25.0000","5.00","6","2019-10-08 00:07:24","Delta"
"950134","204164750213680","11","2019-10-08","","2019-11-08","20.0000","20.00","4","2019-10-08 00:07:25","Delta"
"947695","204164750213091","13","2019-10-08","","2019-11-08","30.0000","20.00","4","2019-10-08 13:10:50","Delta"
"945212","204164750213803","43","2019-10-07","","2019-11-08","25.0000","","","2019-10-08 00:07:25","Delta"
"948628","204164750200174","11","2019-10-08","","2021-10-08","20.0000","20.00","4","2019-10-08 00:07:24","Delta"
"949376","204164750214013","11","2019-09-24","2019-10-08","2019-11-08","20.0000","20.00","4","2019-10-08 13:56:35","Delta"
"950112","204164750213798","11","2019-10-08","","2019-11-08","20.0000","20.00","4","2019-10-08 00:07:24","Delta"
"946523","204164750201913","11","2019-08-28","2019-10-08","2019-11-08","20.0000","5.00","6","2019-10-08 12:52:07","Delta"
"950201","204164750213705","11","2019-10-08","","2019-11-08","20.0000","20.00","4","2019-10-08 00:07:25","Delta"
"947926","204164750212849","11","2019-10-08","","2019-11-08","20.0000","20.00","6","2019-10-08 13:16:11","Delta"
"948718","204164750210799","11","2019-10-08","","2019-11-08","20.0000","20.00","4","2019-10-08 00:07:24","Delta"
"944020","204164750202395","43","2019-04-14","2019-11-07","2019-11-08","25.0000","5.00","6","2019-10-08 11:10:05","Delta"
"950131","204164750213701","11","2019-10-05","2019-10-08","2019-11-08","20.0000","20.00","4","2019-10-08 12:03:58","Delta"
"947544","204164750212935","43","2019-10-08","","2019-11-08","25.0000","20.00","4","2019-10-08 13:41:13","Delta"
"950207","204164750211277","11","2019-10-08","","2019-11-08","20.0000","20.00","4","2019-10-08 00:07:25","Delta"
"948566","204164750210533","11","2019-10-08","","2019-11-08","20.0000","20.00","6","2019-10-08 00:07:24","Delta"
"949297","204164750210575","10","2019-10-08","","2019-11-08","7.0000","","","2019-10-08 00:07:24","Delta"
"950072","204164750213793","11","2019-10-08","","2019-11-08","20.0000","20.00","4","2019-10-08 00:07:24","Delta"
"946480","204164750201471","11","2019-07-16","2019-11-07","2019-11-08","20.0000","5.00","6","2019-10-08 15:05:05","Delta"
"950199","204164750213728","11","2019-10-08","","2019-11-08","20.0000","20.00","4","2019-10-08 00:07:25","Delta"
"947893","204164750212760","10","2019-10-08","","2019-11-08","7.0000","","","2019-10-08 13:20:22","Delta"
"945212","204164750213806","43","2019-10-07","","2020-10-07","25.0000","","","2019-10-08 00:07:26","Delta"
"948694","204164750210880","11","2019-10-08","","2019-11-08","20.0000","5.00","6","2019-10-08 17:16:14","Delta"
"945102","204164750213789","11","2019-10-08","","2019-11-08","20.0000","20.00","4","2019-10-08 00:07:24","Delta"
"950116","204164750213800","10","2019-10-08","","2019-11-08","7.0000","","","2019-10-08 00:07:25","Delta"
