"initial","salutation","firstname","middlename","lastname","id","deltaid","caiwayid","address1","housenumber","alphabet","postcode","city","country","delta_address1","delta_housenumber","delta_alphabet","delta_postcode","delta_city","delta_country","caiway_address1","caiway_housenumber","caiway_alphabet","caiway_postcode","caiway_city","caiway_country","email","phonenumber","phonenumber2","iban","brand","date_modified"
"","","J.","","Vuijk","948851","K04084047","","Grote Maagdenstraat ","31","","4524 ER","Sluis","NL","Grote Maagdenstraat ","31","","4524 ER","Sluis","NL","","","","","","","jvuijk57@hotmail.com","0648385897","","NL89RABO0147867193","Delta","2019-09-09 14:23:45"
"Mr","","Simson","","Parlindungan","948853","","","Muggenstraat","45","","4333 AB","Hasselt","BE","Muggenstraat","45","","4333 AB","Hasselt","BE","","","","","","","mail@simson.ones","32484889888","","","Delta","2019-09-09 17:57:35"
"Mr","","Simson","","Parlindungan","948854","","","Muggenstraat","45","","4333 AB","Hasselt","BE","Muggenstraat","45","","4333 AB","Hasselt","BE","","","","","","","mail@simson.oners","32484889888","","","Delta","2019-09-09 17:58:17"
