"CustomerNumber","IMSI","Productid","Start_date","End_Of_Contract","Date_Contract_Prolong","MRR","MRR_Discount","MRR_Discount_Duration","Date_Mutation","Brand"
"945442","204164750207239","83","2019-07-01","2019-09-16","2021-07-01","24.5000","","","2019-09-16 11:51:57","Caiway"
"947291","204164750206691","83","2019-09-09","2019-09-16","2021-09-09","24.5000","2.50","6","2019-09-16 13:24:56","Caiway"
"946288","204164750207329","81","2019-08-14","2019-09-16","2021-08-14","12.5000","","","2019-09-16 17:04:31","Caiway"
"947691","204164750213130","11","2019-09-16","","2019-10-16","20.0000","20.00","4","2019-09-16 00:21:28","Delta"
"947769","204164750212750","11","2019-09-16","","2019-10-16","20.0000","20.00","4","2019-09-16 00:21:28","Delta"
"946407","204164750201882","11","2019-09-16","","2019-10-16","20.0000","5.00","6","2019-09-16 00:21:27","Delta"
"948187","204164750212788","11","2019-09-16","","2019-10-16","20.0000","20.00","2","2019-09-16 00:21:28","Delta"
"947366","204164750213055","11","2019-09-16","","2019-10-16","20.0000","20.00","6","2019-09-16 00:21:28","Delta"
"948881","204164750210960","6","2019-09-16","","2019-10-16","7.0000","","","2019-09-16 20:55:13","Delta"
"947646","204164750200292","11","2019-09-16","","2019-10-16","20.0000","20.00","4","2019-09-16 00:21:28","Delta"
"949058","204164750201214","11","2019-09-16","","2019-10-16","20.0000","20.00","4","2019-09-16 21:00:10","Delta"
"947698","204164750213094","11","2019-08-15","2019-09-16","2019-10-16","20.0000","20.00","4","2019-09-16 11:14:01","Delta"
"946088","204164750201593","11","2019-09-16","","2019-10-16","20.0000","5.00","6","2019-09-16 00:21:27","Delta"
"947717","204164750212892","11","2019-09-16","","2019-10-16","20.0000","20.00","4","2019-09-16 00:21:28","Delta"
"947052","204164750213277","13","2019-09-16","","2019-10-16","30.0000","20.00","4","2019-09-16 00:21:28","Delta"
"948795","204164750210834","11","2019-09-17","","2019-10-17","20.0000","20.00","4","2019-09-16 14:08:05","Delta"
"947490","204164750213011","43","2019-09-16","","2019-10-16","25.0000","20.00","4","2019-09-16 00:21:28","Delta"
"948990","204164750200086","11","2019-09-13","","2019-10-16","20.0000","20.00","4","2019-09-16 21:00:13","Delta"
"947676","204164750213137","43","2019-09-16","","2019-10-16","25.0000","20.00","4","2019-09-16 00:21:28","Delta"
"945336","204164750202268","11","2019-09-16","","2021-09-16","20.0000","5.00","6","2019-09-16 00:21:27","Delta"
"947747","204164750212801","11","2019-09-16","","2019-10-16","20.0000","20.00","4","2019-09-16 00:21:28","Delta"
"946276","204164750201842","11","2019-09-16","","2019-10-16","20.0000","5.00","6","2019-09-16 00:21:27","Delta"
"947842","204164750212812","11","2019-09-16","","2019-10-16","20.0000","20.00","4","2019-09-16 00:21:28","Delta"
"947293","204164750201933","11","2019-08-07","","2019-10-16","20.0000","20.00","4","2019-09-16 21:00:12","Delta"
"948821","","10","2019-09-16","","2021-09-16","7.0000","","","2019-09-16 00:21:28","Delta"
"947639","204164750212916","11","2019-09-16","","2019-10-16","20.0000","20.00","4","2019-09-16 00:21:28","Delta"
"949051","204164750201229","11","2019-09-16","","2021-09-16","20.0000","5.00","6","2019-09-16 00:21:28","Delta"
"945027","204164750200237","11","2019-09-16","","2019-10-16","20.0000","20.00","4","2019-09-16 00:21:28","Delta"
"946086","204164750201594","10","2019-08-15","2019-09-20","2019-10-16","7.0000","","","2019-09-16 10:00:21","Delta"
"947782","204164750200033","11","2019-09-16","","2019-10-16","20.0000","20.00","4","2019-09-16 00:21:28","Delta"
"946740","204164750213420","11","2019-08-12","2019-09-16","2019-10-16","20.0000","20.00","4","2019-09-16 00:21:27","Delta"
"948641","204164750210990","10","2019-09-16","","2019-10-16","7.0000","","","2019-09-16 00:21:28","Delta"
"947490","204164750213012","11","2019-09-16","","2019-10-16","20.0000","20.00","4","2019-09-16 00:21:28","Delta"
"948932","204164750200079","10","2019-09-16","","2019-10-16","7.0000","","","2019-09-16 16:35:14","Delta"
"947666","204164750211431","11","2019-09-16","","2019-10-16","20.0000","20.00","4","2019-09-16 00:21:28","Delta"
"947715","204164750213135","10","2019-09-16","","2019-10-16","7.0000","","","2019-09-16 00:21:28","Delta"
"946219","204164750201862","10","2019-07-03","2019-09-16","2019-10-16","7.0000","","","2019-09-16 00:21:27","Delta"
"947816","204164750212735","11","2019-09-16","","2019-10-16","20.0000","20.00","4","2019-09-16 00:21:28","Delta"
"948816","204164750210848","11","2019-09-16","","2019-10-16","20.0000","5.00","6","2019-09-16 00:21:28","Delta"
"947633","204164750212913","11","2019-09-16","","2019-10-16","20.0000","5.00","6","2019-09-16 00:21:28","Delta"
"949050","204164750200126","11","2019-09-16","","2019-10-16","20.0000","20.00","4","2019-09-16 00:21:28","Delta"
"947693","204164750211432","11","2019-09-16","","2019-10-16","20.0000","20.00","4","2019-09-16 00:21:28","Delta"
"945941","204164750201783","11","2019-07-22","2019-09-16","2019-10-16","20.0000","5.00","6","2019-09-16 00:21:27","Delta"
"947775","204164750212751","11","2019-09-16","","2019-10-16","20.0000","20.00","4","2019-09-16 00:21:28","Delta"
"948381","204164750212582","11","2019-09-09","2019-09-16","2019-10-16","20.0000","20.00","6","2019-09-16 10:53:44","Delta"
"947482","204164750211443","11","2019-08-09","2019-09-16","2019-10-16","20.0000","20.00","4","2019-09-16 00:21:28","Delta"
"948923","204164750211264","11","2019-09-16","","2019-10-16","20.0000","20.00","4","2019-09-16 21:00:07","Delta"
"947651","204164750201074","11","2019-09-16","","2021-09-16","20.0000","20.00","4","2019-09-16 00:21:28","Delta"
"946716","204164750212888","11","2019-09-16","","2019-10-16","20.0000","20.00","4","2019-09-16 00:21:28","Delta"
"945823","204164750201819","10","2019-09-16","","2019-10-16","7.0000","","","2019-09-16 00:21:27","Delta"
"947799","204164750212927","11","2019-09-16","","2019-10-16","20.0000","5.00","6","2019-09-16 00:21:28","Delta"
"947249","204164750213263","10","2019-09-09","","2019-10-16","7.0000","","","2019-09-16 17:00:32","Delta"
"948811","204164750210846","11","2019-09-16","","2019-10-16","20.0000","20.00","4","2019-09-16 10:40:13","Delta"
"947517","204164750212973","43","2019-09-16","","2019-10-16","25.0000","20.00","4","2019-09-16 00:21:28","Delta"
"949014","204164750210912","11","2019-09-16","","2019-10-16","20.0000","20.00","4","2019-09-16 00:21:28","Delta"
