"ProductId","Brand","BundleName","Data","Voice","Sms","Status","MutationDate"
"6","DELTA","DELTA Mobiel 300 MB","300","300","300","Active","2019-07-14 09:41:37"
"7","DELTA","DELTA Mobiel 2 GB","2048","200","50","Active","2019-07-14 09:41:37"
"9","DELTA","DELTA Mobiel 10 GB","10240","2000","100","Active","2019-07-14 09:41:37"
"10","DELTA","DELTA Mobiel 300 MB - Extra","300","300","300","Active","2019-07-14 09:41:37"
"11","DELTA","DELTA Mobiel 4 GB - Extra","4096","2000","50","Active","2019-07-14 09:41:37"
"13","DELTA","DELTA Mobiel 20 GB – Extra","20480","2000","100","Active","2019-07-14 09:41:37"
"34","DELTA","DELTA Mobiel 300 MB - Extra - 2jr","300","300","300","Active","2019-07-14 09:41:37"
"35","DELTA","DELTA Mobiel 4 GB - Extra - 2jr","4096","2000","50","Active","2019-07-14 09:41:37"
"36","DELTA","DELTA Mobiel 10 GB - Extra - 2jr","10240","2000","100","Active","2019-07-14 09:41:37"
"37","DELTA","DELTA Mobiel 20 GB - Extra - 2jr","20480","2000","100","Active","2019-07-14 09:41:37"
"40","DELTA","DELTA Mobiel 5 GB","5120","2000","100","Active","2019-07-14 09:41:37"
"43","DELTA","DELTA Mobiel 10 GB - Extra","10240","2000","100","Active","2019-07-14 09:41:37"
"81","CAIWAY","Caiway Budget - combi 2 jaar","500","200","200","Active","2019-07-14 09:41:37"
"82","CAIWAY","Caiway Standaard - combi 2 jaar","4096","400","400","Active","2019-07-14 09:41:37"
"83","CAIWAY","Caiway Extra - combi 2 jaar","10240","2000","100","Active","2019-07-14 09:41:37"
"84","CAIWAY","Caiway Budget - combi 1 jaar","500","200","200","Active","2019-07-14 09:41:37"
"85","CAIWAY","Caiway Standaard - combi 1 jaar","4096","400","400","Active","2019-07-14 09:41:37"
"86","CAIWAY","Caiway Extra - combi 1 jaar","10240","2000","100","Active","2019-07-14 09:41:37"
"87","CAIWAY","Caiway Budget  - 2 jaar","500","200","200","Active","2019-07-14 09:41:37"
"88","CAIWAY","Caiway Standaard - 2 jaar","4096","400","400","Active","2019-07-14 09:41:37"
"89","CAIWAY","Caiway Extra - 2 jaar","10240","2000","100","Active","2019-07-14 09:41:37"
"90","CAIWAY","Caiway Budget - 1 jaar","500","200","200","Active","2019-07-14 09:41:37"
"91","CAIWAY","Caiway Standaard - 1 jaar","4096","400","400","Active","2019-07-14 09:41:37"
"92","CAIWAY","Caiway Extra- 1 jaar","10240","2000","100","Active","2019-07-14 09:41:37"
