"initial","salutation","firstname","middlename","lastname","id","deltaid","caiwayid","address1","housenumber","alphabet","postcode","city","country","delta_address1","delta_housenumber","delta_alphabet","delta_postcode","delta_city","delta_country","caiway_address1","caiway_housenumber","caiway_alphabet","caiway_postcode","caiway_city","caiway_country","email","phonenumber","phonenumber2","iban","brand","date_modified"
"","Mevr.","H","","Bosscher","949385","M","","Herenstraat","33","","4331 JS","Middelburg","NL","Herenstraat","33","","4331 JS","Middelburg","NL","","","","","","","inabosscher2510@hotmail.com","31118855109","","NL76RABO0126091218","Delta","2019-09-22 21:38:47"
"","Mevr.","M","","Jakobsen","949388","K03173023","","Koningin","Emmastraat","","4332 VN","Middelburg","NL","Koningin","Emmastraat","","4332 VN","Middelburg","NL","","","","","","","parola@zeelandnet.nl","3118614025","","NL47RABO0349358095","Delta","2019-09-23 10:46:48"
"","Dhr.","Jonathan","","Aguilera ","949391","M","","Geleenstraat","88","","2515 SX","\'s-Gravenhage","NL","Geleenstraat","88","","2515 SX","\'s-Gravenhage","NL","","","","","","","jonathanaguilera527@yahoo.com","","","NL23ABNA0477896545","Delta","2019-09-23 13:41:09"
"","Dhr.","b.","","Van de Testjes","949392","MTEST ACTIVATIE","","Oude","Singel","","4461 RT","Goes","NL","Oude","Singel","","4461 RT","Goes","NL","","","","","","","cverheij@deltafibernederland.nl","31614787841","","NL98INGB0001212696","Delta","2019-09-23 14:30:02"
"","Mevr.","M.O.W.","","Smeets","949393","K03523916","","Stenge","21 ","","4401 EP","Yerseke","NL","Stenge","21 ","","4401 EP","Yerseke","NL","","","","","","","mar-10@zeelandnet.nl","31628395421","","NL53INGB0005653293","Delta","2019-09-23 14:33:24"
"","Dhr.","L.D.","","Abrahamse","949394","M357633","","Wilhelminastraat","60 ","","4484 AJ","Kortgene","NL","Wilhelminastraat","60 ","","4484 AJ","Kortgene","NL","","","","","","","abrahamsen@zeelandnet.nl","31653201788","","NL61RABO0312259999","Delta","2019-09-23 15:00:59"
"","Dhr.","J","","Dekker","949395","M","","Marshall-laan","1","","4334 EL","Middelburg","NL","Marshall-laan","1","","4334 EL","Middelburg","NL","","","","","","","jkd@zeelandnet.nl","31118","","NL26INGB0004370663","Delta","2019-09-23 15:21:16"
"","Dhr.","J","","von Hout","949396","327172","","Driewegenweg ","2 ","","4521 GT","Biervliet","NL","Driewegenweg ","2 ","","4521 GT","Biervliet","NL","","","","","","","famvonhout@zeelandnet.nl","31622632336","","NL47RABO0147857473","Delta","2019-09-23 15:43:51"
"","Dhr.","W","","Krijger","949397","M457963 VERLENGING","","Voorborch","72 ","","4335 AW","Middelburg","NL","Voorborch","72 ","","4335 AW","Middelburg","NL","","","","","","","bestellingwk@zeelandnet.nl","3112345678","","NL34RABO0385351828","Delta","2019-09-23 16:00:31"
"","Dhr.","J.M.C.","","Timmermans","949399","347232","","Jacob","Catslaan","","4561 LH"," Hulst","NL","Jacob","Catslaan","","4561 LH"," Hulst","NL","","","","","","","cejo60@outlook.com","31614495810","","NL60RABO0330474774","Delta","2019-09-23 16:21:10"
"","Mevr.","M","","van Boogaard","949400","495226","","Vroonenburg","20 ","","4421 GA","Kapelle","NL","Vroonenburg","20 ","","4421 GA","Kapelle","NL","","","","","","","mandy_vanh@hotmail.com","31123456","","NL66ABNA0617841454","Delta","2019-09-23 16:51:11"
"","Dhr.","R G C E","","De Bruijn","949401","M","","Clijverstraat","20","","4381 PW","Vlissingen","NL","Clijverstraat","20","","4381 PW","Vlissingen","NL","","","","","","","robbertgce@zeelandnet.nl","","","NL44INGB0007372683","Delta","2019-09-23 17:32:34"
"","Dhr.","W. ","","de Groff-v.d. Akker","949402","K00901532","","Julianastraat","19 ","","4551 GG","Sas van Gent","NL","Julianastraat","19 ","","4551 GG","Sas van Gent","NL","","","","","","","willy@degroff.nl","31115451746","","NL44RBRB0706369246","Delta","2019-09-23 17:56:28"
"","Dhr.","L.P","","Reijnierse","949403","M","","De Grenadier 2"," ","","4421 HT","Kapelle","NL","De Grenadier 2"," ","","4421 HT","Kapelle","NL","","","","","","","reijnierse@zeelandnet.nl","31113851470","","NL88ABNA0477779751","Delta","2019-09-23 19:31:40"
"","Mevr.","A.F.C.","","Vleugel","949405","M111111","","Boomweidelaan"," ","","","SCHORE","NL","Boomweidelaan"," ","","","SCHORE","NL","","","","","","","carolien.vleugel@gmail.com","31640765298","","NL50INGB0008028295","Delta","2019-09-23 19:37:21"
"","Dhr.","ram","","van der velden","949386","","M","Oostveenseweg","7","","2636 EC","Schipluiden","NL","","","","","","","Oostveenseweg","7","","2636 EC","Schipluiden","NL","info@rvdvelden.nl","31153808141","","nl46RABO0170693619","Caiway","2019-09-23 09:31:05"
"","Mevr.","JD","","Sylvester","949389","","M","Postbus","132","","7570 AC","Oldenzaal","NL","","","","","","","Postbus","132","","7570 AC","Oldenzaal","NL","n.zeggelink@profez.nl","31854884724","","NL42INGB0758604254","Caiway","2019-09-23 11:37:58"
"","Mevr.","W.J.","","Geerdink","949390","","M","Sparstraat","140","","7572 TA","Oldenzaal","NL","","","","","","","Sparstraat","140","","7572 TA","Oldenzaal","NL","helma.geerdink@gmail.com","31541510942","","NL59RABO0134372220","Caiway","2019-09-23 11:57:54"
