"initial","salutation","firstname","middlename","lastname","id","deltaid","caiwayid","address1","housenumber","alphabet","postcode","city","country","delta_address1","delta_housenumber","delta_alphabet","delta_postcode","delta_city","delta_country","caiway_address1","caiway_housenumber","caiway_alphabet","caiway_postcode","caiway_city","caiway_country","email","phonenumber","phonenumber2","iban","brand","date_modified"
"","Dhr.","F","","Brands","948203","M","","Wethouder den Boerstraat 23  ","","","4318 EM","Brouwershaven","NL","Wethouder den Boerstraat 23  ","","","4318 EM","Brouwershaven","NL","","","","","","","fabianbrands78@gmail.com","","","NL83INGB0007003769","Delta","2019-08-23 09:17:21"
"","Dhr.","J.W.A.P.","","de Putter","948205","K10104192","","Stadsweide","79","","4521 BD","Biervliet","NL","Stadsweide","79","","4521 BD","Biervliet","NL","","","","","","","jandputter@gmail.com","31115486009","","NL93RABO0308110927","Delta","2019-08-23 10:11:27"
"","Dhr.","E","","van Hees","948207","M111111","","Martin Luther Kingstraat 12 ","","","4698 AZ","Oud-Vossemeer","NL","Martin Luther Kingstraat 12 ","","","4698 AZ","Oud-Vossemeer","NL","","","","","","","evanhees@zeelandnet.nl","31166672375","","NL10ABNA0403160510","Delta","2019-08-23 10:51:13"
"","Mevr.","M.","","van Doorn-de Beule","948208","M111111","","Rodenbachstraat","159","","4532 CX","Terneuzen","NL","Rodenbachstraat","159","","4532 CX","Terneuzen","NL","","","","","","","nvandoorn@zeelandnet.nl","31115617981","","NL52ABNA0511125119","Delta","2019-08-23 10:56:37"
"","Dhr.","C.","","Muller","948210","K04148694","","Marnixplein","8","","4386 AB","Vlissingen","NL","Marnixplein","8","","4386 AB","Vlissingen","NL","","","","","","","muller@zeelandnet.nl","31629291020","","NL30RABO0389389137","Delta","2019-08-23 11:39:07"
"","Dhr.","A","","Bruil","948212","K5001242","","Ruurloseweg","81","","7255 MA","Hengelo (Gld)","NL","Ruurloseweg","81","","7255 MA","Hengelo (Gld)","NL","","","","","","","ruuloseweg81@gmail.com","31649931522","","NL34RABO0374746915","Delta","2019-08-23 12:02:35"
"","Dhr.","J.A","","Murre","948213","M111111","","Fazantenhof","152","","4332 XT","Middelburg","NL","Fazantenhof","152","","4332 XT","Middelburg","NL","","","","","","","murrebas@zeelandnet.nl","31118636177","","NL48INGB0001321460","Delta","2019-08-23 12:21:45"
"","Mevr.","W.E.","","de Waal","948214","K02311078","","Oudestraat","22","","4311 AW","Bruinisse","NL","Oudestraat","22","","4311 AW","Bruinisse","NL","","","","","","","dewaalwe@zeelandnet.nl","31622295018","","NL81RABO0346751675","Delta","2019-08-23 12:25:47"
"","Dhr.","A.","","Kalkhoven","948215","M","","Koudekerkseweg","117","","4335 HC","Middelburg","NL","Koudekerkseweg","117","","4335 HC","Middelburg","NL","","","","","","","annemariekalkhoven@web.de","31612898648","","NL09INGB0002342311","Delta","2019-08-23 12:35:27"
"","Mevr.","S.M.","","Engels","948217","M494711'VERLENGEN","","Grote Beer 63 ","","","4501 EP","Oostburg","NL","Grote Beer 63 ","","","4501 EP","Oostburg","NL","","","","","","","rjdeneve@zeelandnet.nl","31117453842","","NL49ABNA0454608705","Delta","2019-08-23 13:19:00"
"","Dhr.","A.J.","","Keijmel","948221","K00761768","","Grote Kade 7 ","","","4511 AS","Breskens","NL","Grote Kade 7 ","","","4511 AS","Breskens","NL","","","","","","","keijmelb@zeelandnet.nl","31117382396","","NL23RBRB0706607953","Delta","2019-08-23 14:25:41"
"","Dhr.","R.R.H.","","de Prieelle","948223","M111111","","\'s-Heer Hendrikskinderenstraat 49 ","","","4461 BT","Goes","NL","\'s-Heer Hendrikskinderenstraat 49 ","","","4461 BT","Goes","NL","","","","","","","maaikebakker@zeelandnet.nl","31630051810","","NL41RABO0346038863","Delta","2019-08-23 14:42:48"
"","Mevr.","J.M.","","Goud Meeuwsen","948224","M316723 YERSEKE","","Begonialaan","22","","4401 HN","Yerseke","NL","Begonialaan","22","","4401 HN","Yerseke","NL","","","","","","","jangoud@zeelandnet.nl","31616252655","","NL66RABO0373913109","Delta","2019-08-23 14:47:34"
"","Dhr.","J.","","Schuit","948225","K01904589","","Poelendaeleweg","66","","4335 HS","Middelburg","NL","Poelendaeleweg","66","","4335 HS","Middelburg","NL","","","","","","","4335hs66@deltafibernederland.nl","31647230028","","NL93ABNA0823575349","Delta","2019-08-23 14:55:29"
"","Mevr.","M.C.","","de Ridder","948226","M310384","","de Genestetstraat 30 ","","","4532 GB","Terneuzen","NL","de Genestetstraat 30 ","","","4532 GB","Terneuzen","NL","","","","","","","tomi@zeelandnet.nl","31115619717","","NL35INGB0002321279","Delta","2019-08-23 15:13:01"
"","Dhr.","D.","","Cools","948227","M597393 NIEUWE DELTA ALLES KLANT","","Burgemeester van Hootegemstraat 2 c ","","","4524 EM","Sluis","NL","Burgemeester van Hootegemstraat 2 c ","","","4524 EM","Sluis","NL","","","","","","","heidiperneel@gmail.com","31615671434","","NL48RABO0307147266","Delta","2019-08-23 15:14:58"
"","Mevr.","N.","","Joziasse","948228","P55406201 - VERLENGING","","Pelgrimstraat","4","","4354 AR","Vrouwenpolder","NL","Pelgrimstraat","4","","4354 AR","Vrouwenpolder","NL","","","","","","","nelnrinus@zeelandnet.nl","31118592533","","NL14INGB0000781103","Delta","2019-08-23 15:16:22"
"","Mevr.","C.M.","","de Ridder","948229","K02051838","","Bellamystraat","105","","4532 GN","Terneuzen","NL","Bellamystraat","105","","4532 GN","Terneuzen","NL","","","","","","","liri@zeelandnet.nl","31115617454","","NL79ABNA0482760184","Delta","2019-08-23 15:33:36"
"","Mevr.","C.J.","","van de Kreeke-Schot","948230","M111111","","Molenlaan","13A","","4401 CB","Yerseke","NL","Molenlaan","13A","","4401 CB","Yerseke","NL","","","","","","","keesheleen@zeelandnet.nl","31113573208","","NL09RABO0373911904","Delta","2019-08-23 16:00:54"
"","Mevr.","N.  ","","de Ridder","948231","M351972","","Irislaan","13","","4382 TL","Vlissingen","NL","Irislaan","13","","4382 TL","Vlissingen","NL","","","","","","","nna@zeelandnet.nl","31118410972","","NL35RABO0349323488","Delta","2019-08-23 16:04:12"
"","Mevr.","M.D.","","Sinke","948232","M417878 VERLENGING","","Schonewal","12","","4416 HB","Kruiningen","NL","Schonewal","12","","4416 HB","Kruiningen","NL","","","","","","","ritasinke49@gmail.com","31113853643","","NL76INGB0006654598","Delta","2019-08-23 16:05:25"
"","Dhr.","A.F.","","de Bruijne","948233","P56772401","","Canisvlietstraat","15","","4541 BE","Sluiskil","NL","Canisvlietstraat","15","","4541 BE","Sluiskil","NL","","","","","","","bruij6467@planet.nl","31623307035","","NL16INGB0001750873","Delta","2019-08-23 16:10:57"
"","Dhr.","R. ","","Beukers","948235","K04368496","","Elzasstraat","7","","4571 AK","Axel","NL","Elzasstraat","7","","4571 AK","Axel","NL","","","","","","","remcobeukers@gmail.com","31648250647","","NL73INGB0685368114","Delta","2019-08-23 16:16:20"
"","Mevr.","F.P.","","Klemann","948236","M376833","","Sandenburg","4385GC","","51","Vlissingen","NL","Sandenburg","4385GC","","51","Vlissingen","NL","","","","","","","fpklemann@hotmail.com","31683173486","","NL05INGB0004275884","Delta","2019-08-23 16:20:11"
"","Mevr.","L.M.S","","van Meurs","948237","M111111","","Julianastraat","82","","4571 GT","Axel","NL","Julianastraat","82","","4571 GT","Axel","NL","","","","","","","lmsvanmeurs@hotmail.com","31123456789","","NL14RABO0362352518","Delta","2019-08-23 16:42:17"
"","Mevr.","A","","Poppe","948238","M111111","","Sint Sebastiaanstraat 12 ","","","4515 CR","IJzendijke","NL","Sint Sebastiaanstraat 12 ","","","4515 CR","IJzendijke","NL","","","","","","","andrepoppe@zeelandnet.nl","31117302627","","NL40ABNA0571314708","Delta","2019-08-23 16:53:57"
"","Dhr.","A.J.","","de Brouwer","948239","MALLESNIEUW","","Churchilllaan","868","","4532 JE","Terneuzen","NL","Churchilllaan","868","","4532 JE","Terneuzen","NL","","","","","","","fonske1793@zeelandnet.nl","31611074056","","NL81ABNA0857260464","Delta","2019-08-23 17:59:46"
"","Dhr.","L.J.M","","de Baere","948241","M","","Zwinweg 4 A  ","","","4436NB","Oudelande","NL","Zwinweg 4 A  ","","","4436NB","Oudelande","NL","","","","","","","flysdb@gmail.com","","","NL11ABNA0482771399","Delta","2019-08-23 19:08:47"
"","Dhr.","A","","de Putter","948242","M359552","","Olmenstraat","45","","4581 AT","Vogelwaarde","NL","Olmenstraat","45","","4581 AT","Vogelwaarde","NL","","","","","","","sanderdeputter82@gmail.com","31114720194","","NL81RABO0362365571","Delta","2019-08-23 19:55:47"
"","Dhr.","W.H.","","Hakenberg","948202","","M","Roepenbeltweg","13","","7596 RA","Rossum","NL","","","","","","","Roepenbeltweg","13","","7596 RA","Rossum","NL","willy.hakenberg@caiway.nl","31541625479","","Nl41RABO0139171231","Caiway","2019-08-23 08:54:56"
"","Dhr.","F.H.","","Harinck","948204","","M","Van Scorelstraat 8 b ","","","3141 HR","Maassluis","NL","","","","","","","Van Scorelstraat 8 b ","","","3141 HR","Maassluis","NL","freddietandem@caiway.nl","31105926992","","NL92INGB0003448363","Caiway","2019-08-23 09:58:45"
"","Dhr.","B.A.F.","","Vredegoor","948206","","M","Narcissenstraat","76","","7572 AL","Oldenzaal","NL","","","","","","","Narcissenstraat","76","","7572 AL","Oldenzaal","NL","anniebennie44@gmail.com","31541517804","","NL91RABO0139180710","Caiway","2019-08-23 10:25:10"
"","Dhr.","A.J","","Bijl","948209","","M","Erve Hams 14  ","","","7577 NK","Oldenzaal","NL","","","","","","","Erve Hams 14  ","","","7577 NK","Oldenzaal","NL","ariejanbijl@gmail.com","31541750888","","NL44ABNA0571212883","Caiway","2019-08-23 11:36:32"
"","Mevr.","Cobi","","Nomen","948211","","M","Leeuwerikstraat 14 14  ","","","2922 GK","Krimpen Aan Den IJssel","NL","","","","","","","Leeuwerikstraat 14 14  ","","","2922 GK","Krimpen Aan Den IJssel","NL","jlnomen@caiway.nl","31615823986","","NL98RABO0335708889","Caiway","2019-08-23 11:59:25"
"","Dhr.","j","","eijkelboom","948216","","1481319","Oosterhulst 2 a ","","","7711 BG","Nieuwleusen","NL","","","","","","","Oosterhulst 2 a ","","","7711 BG","Nieuwleusen","NL","jan.eijkelboom@gmail.com","31529480520","","NL61ABNA0458860484","Caiway","2019-08-23 12:50:46"
