"CustomerNumber","IMSI","Productid","Start_date","End_Of_Contract","Date_Contract_Prolong","MRR","MRR_Discount","MRR_Discount_Duration","Date_Mutation","Brand"
"947603","204164750207022","81","2019-08-21","","2019-09-21","12.5000","2.50","6","2019-08-20 18:55:03","Caiway"
"946799","204164750207158","82","2019-07-30","","2021-07-30","17.5000","","","2019-08-19 22:15:02","Caiway"
"947784","204164750206971","82","2019-08-20","2019-08-20","2019-09-20","17.5000","2.50","6","2019-08-20 15:24:36","Caiway"
"946424","204164750201724","11","2019-08-08","2019-08-20","2019-09-20","20.0000","5.00","6","2019-08-20 08:58:49","Delta"
"947549","204164750212938","11","2019-08-13","2019-08-20","2019-09-20","20.0000","20.00","4","2019-08-20 10:38:23","Delta"
"947834","204164750212728","11","2019-08-19","2019-08-19","2019-09-20","20.0000","20.00","4","2019-08-20 00:03:46","Delta"
"946672","204164750200275","11","2019-08-19","","2019-09-20","20.0000","20.00","4","2019-08-20 00:03:46","Delta"
"947697","204164750201247","11","2019-08-19","","2019-09-20","20.0000","20.00","4","2019-08-20 00:03:46","Delta"
"943326","204164750211474","11","2019-08-20","","2019-09-20","20.0000","20.00","4","2019-08-20 00:03:46","Delta"
"946246","204164750203019","6","2019-07-02","2019-08-19","2019-09-20","7.0000","","","2019-08-20 00:03:46","Delta"
"947179","204164750213214","11","2019-08-20","","2019-09-20","20.0000","20.00","4","2019-08-20 00:03:46","Delta"
"947819","204164750212734","11","2019-08-19","2019-08-19","2019-09-20","20.0000","20.00","4","2019-08-20 00:03:46","Delta"
"948028","","13","2019-08-20","","2019-09-20","30.0000","20.00","4","2019-08-20 14:45:32","Delta"
"946668","204164750213490","43","2019-08-20","","2019-09-20","25.0000","20.00","4","2019-08-20 00:03:46","Delta"
"947689","204164750213139","11","2019-08-15","2019-08-19","2019-09-20","20.0000","20.00","4","2019-08-20 00:03:46","Delta"
"947878","204164750212856","11","2019-08-20","","2019-09-20","20.0000","20.00","4","2019-08-20 00:03:46","Delta"
"943760","204164750202367","11","2019-02-25","2019-08-20","2019-09-20","20.0000","5.00","6","2019-08-20 00:03:46","Delta"
"946738","204164750213464","11","2019-08-20","2019-08-20","2019-09-20","20.0000","20.00","4","2019-08-20 15:47:57","Delta"
"947810","204164750212739","11","2019-08-19","2019-08-19","2019-09-20","20.0000","20.00","4","2019-08-20 00:03:46","Delta"
"947998","","11","2019-08-20","","2019-09-20","20.0000","20.00","4","2019-08-20 10:31:52","Delta"
"946527","204164750201994","11","2019-08-20","","2019-09-20","20.0000","5.00","6","2019-08-20 00:03:46","Delta"
"947841","204164750212811","11","2019-08-19","2019-08-19","2019-09-20","20.0000","20.00","4","2019-08-20 00:03:46","Delta"
"945212","204164750212828","13","2019-08-19","","2019-09-20","30.0000","","","2019-08-20 00:03:46","Delta"
