Array
(
    [companyid] => 35
    [serviceid] => 1814441
    [userid] => 947130
    [bundleid] => 183
    [month] => 24
    [id] => 1202
)
stdClass Object
(
    [id] => 947130
    [uuid] => 3c7f2e16-df58-42f8-9c69-3d79f289eae0
    [mvno_id] => 1556512059
    [companyid] => 35
    [mageboid] => 0
    [agentid] => 5020
    [teum_CustomerId] => 1065076833
    [teum_OrderCode] => 6719796919645765662
    [vat] => LJCE2oZ1rG
    [kvk] => 
    [email] => dKDtbynrP3@p62cyFA8mh.com
    [password] => $2y$10$wOKRPbb1pBTiFF1eCg0x9uxNz5/e8z32oeeU4Wj.qBOV4x7vpOEy2
    [pwresetkey] => 
    [companyname] => XSwWT3IVc9
    [initial] => 
    [salutation] => 
    [nationalnr] => sZxAupCLvf
    [firstname] => Anon_MgB0qaRWKr
    [lastname] => Anon_FoBsVMXzTU
    [address1] => OokcngisRu
    [housenumber] => 48
    [alphabet] => 
    [postcode] => 5210
    [city] => C7QNYueipA
    [country] => UK
    [language] => english
    [status] => Active
    [phonenumber] => 3103736081
    [paymentmethod] => banktransfer
    [payment_duedays] => 14
    [gender] => male
    [iban] => 
    [iban_holder] => 
    [bic] => 
    [sso_id] => 0
    [date_birth] => 1980-07-31
    [date_created] => 2019-07-31
    [date_modified] => 2019-07-31 14:03:52
    [vat_exempt] => 0
    [vat_rate] => 21.00
    [invoice_email] => 
    [refferal] => 
    [dunning_profile] => 0
    [idcard_number] => 94871404898
    [id_type] => Passport
    [authdata] => 
    [ContactType2Id] => 7
    [location] => 
    [lat] => 
    [lon] => 
    [google_id] => 
    [facebook_id] => 
    [google_pic] => 
    [facebook_pic] => 
    [notes] => 
    [lastseen] => 
    [agent] => IT
    [stats] => stdClass Object
        (
            [invoice_paid] => 0
            [invoice_unpaid] => 0
            [active_service] => 1
            [open_ticket] => 0
            [closed_ticket] => 0
            [count_unpaid] => 0
            [count_paid] => 0
        )

)
stdClass Object
(
    [id] => 183
    [agid] => 23
    [companyid] => 35
    [name] => 500MB
    [name_desc] => 500MB
    [bundle_type] => option
    [subscriptionid] => 2261
    [bundleid] => 1019000224
    [recurring_taxrate] => 21.0000
    [recurring_subtotal] => 2.4793
    [recurring_tax] => 0.5207
    [recurring_total] => 5.0000
    [ordering] => 101
    [GPInvoiceGroupNbr] => 359
    [pricing_query] => 
    [pricing_query_extra] => 
    [GPcRemark] => 5GB, unlimited national voice and
SMS
    [bundle_duration_value] => 30
    [bundle_duration_type] => day
    [FCA] => 
    [FCA_extra] => 
    [FCL] => 
    [FCL_extra] => 
    [checked] => 0
    [status] => 1
    [show_customer] => 1
    [base_bundle] => 0
)
Array
(
    [companyid] => 35
    [serviceid] => 1814455
    [userid] => 947142
    [bundleid] => 191
    [month] => 1
    [id] => 1204
)
stdClass Object
(
    [id] => 947142
    [uuid] => 74fe2e43-4e49-41d5-9479-3faa2adfb059
    [mvno_id] => 1556512060
    [companyid] => 35
    [mageboid] => 0
    [agentid] => 5037
    [teum_CustomerId] => 1050077163
    [teum_OrderCode] => 6719828985865044026
    [vat] => GBxQpL2YZa
    [kvk] => 
    [email] => kjvzs0idm7@mmgeco3hso.com
    [password] => $2y$10$CtdsnhoGCem7gPfcQVFsp.vuvRZKJvLKlmPpdKHr1AZcB.VJh4hkO
    [pwresetkey] => 
    [companyname] => WjITq2pEhD
    [initial] => 
    [salutation] => Mr.
    [nationalnr] => 
    [firstname] => Test 3
    [lastname] => Bar
    [address1] => ZVY9Gg7rjW
    [housenumber] => 102
    [alphabet] => 
    [postcode] => 1371
    [city] => mEQJZBs6zx
    [country] => UK
    [language] => english
    [status] => Active
    [phonenumber] => 3312565666
    [paymentmethod] => directdebit
    [payment_duedays] => 30
    [gender] => male
    [iban] => 
    [iban_holder] => 
    [bic] => 
    [sso_id] => 
    [date_birth] => 0000-00-00
    [date_created] => 2019-07-31
    [date_modified] => 2019-07-31 16:08:27
    [vat_exempt] => 0
    [vat_rate] => 21.00
    [invoice_email] => yes
    [refferal] => 
    [dunning_profile] => 0
    [idcard_number] => 34406916055
    [id_type] => Passport
    [authdata] => 
    [ContactType2Id] => 7
    [location] => 
    [lat] => 
    [lon] => 
    [google_id] => 
    [facebook_id] => 
    [google_pic] => 
    [facebook_pic] => 
    [notes] => 
    [lastseen] => 
    [agent] => Marketing
    [stats] => stdClass Object
        (
            [invoice_paid] => 0
            [invoice_unpaid] => 0
            [active_service] => 1
            [open_ticket] => 0
            [closed_ticket] => 0
            [count_unpaid] => 0
            [count_paid] => 0
        )

)
stdClass Object
(
    [id] => 191
    [agid] => 23
    [companyid] => 35
    [name] => 100MIN-ROW
    [name_desc] => 100MIN Rest of the world
    [bundle_type] => option
    [subscriptionid] => 2261
    [bundleid] => 1019000231
    [recurring_taxrate] => 21.0000
    [recurring_subtotal] => 2.4793
    [recurring_tax] => 0.5207
    [recurring_total] => 3.0000
    [ordering] => 101
    [GPInvoiceGroupNbr] => 359
    [pricing_query] => 
    [pricing_query_extra] => 
    [GPcRemark] => 5GB, unlimited national voice andSMS
    [bundle_duration_value] => 30
    [bundle_duration_type] => day
    [FCA] => 
    [FCA_extra] => 
    [FCL] => 
    [FCL_extra] => 
    [checked] => 0
    [status] => 1
    [show_customer] => 1
    [base_bundle] => 0
)
Array
(
    [companyid] => 35
    [serviceid] => 1814458
    [userid] => 947145
    [bundleid] => 184
    [month] => 3
    [id] => 1206
)
stdClass Object
(
    [id] => 947145
    [uuid] => 2f087568-d054-4c83-a2ae-6f70b17a5163
    [mvno_id] => 1556512061
    [companyid] => 35
    [mageboid] => 0
    [agentid] => 5037
    [teum_CustomerId] => 1065076839
    [teum_OrderCode] => 6719835419732607012
    [vat] => 
    [kvk] => 
    [email] => partest@mailinator.com
    [password] => $2y$10$PbYovkMmDQuFPoVbfiAa.eBAbEH67oHARvV3G6V74bVdjqCAfEzpS
    [pwresetkey] => 
    [companyname] => 
    [initial] => 
    [salutation] => Mr.
    [nationalnr] => 
    [firstname] => Test 1000
    [lastname] => Foo1
    [address1] => YFWzKS4RZJ
    [housenumber] => 13
    [alphabet] => 
    [postcode] => 3809
    [city] => l8KFBIEcJn
    [country] => UK
    [language] => english
    [status] => Active
    [phonenumber] => 8658523802
    [paymentmethod] => others
    [payment_duedays] => 14
    [gender] => male
    [iban] => 
    [iban_holder] => 
    [bic] => 
    [sso_id] => 
    [date_birth] => 0000-00-00
    [date_created] => 2019-07-31
    [date_modified] => 2019-07-31 16:33:26
    [vat_exempt] => 0
    [vat_rate] => 21.00
    [invoice_email] => yes
    [refferal] => 
    [dunning_profile] => 0
    [idcard_number] => 35861646316
    [id_type] => Passport
    [authdata] => 
    [ContactType2Id] => 7
    [location] => 
    [lat] => 
    [lon] => 
    [google_id] => 
    [facebook_id] => 
    [google_pic] => 
    [facebook_pic] => 
    [notes] => 
    [lastseen] => 2019-08-29 12:23:49
    [agent] => Marketing
    [stats] => stdClass Object
        (
            [invoice_paid] => 0
            [invoice_unpaid] => 0
            [active_service] => 1
            [open_ticket] => 0
            [closed_ticket] => 0
            [count_unpaid] => 0
            [count_paid] => 0
        )

)
stdClass Object
(
    [id] => 184
    [agid] => 23
    [companyid] => 35
    [name] => 2GB
    [name_desc] => 2GB
    [bundle_type] => option
    [subscriptionid] => 2261
    [bundleid] => 1019000225
    [recurring_taxrate] => 21.0000
    [recurring_subtotal] => 2.4793
    [recurring_tax] => 0.5207
    [recurring_total] => 8.0000
    [ordering] => 101
    [GPInvoiceGroupNbr] => 359
    [pricing_query] => 
    [pricing_query_extra] => 
    [GPcRemark] => 500MB, unlimited national voice
and SMS
    [bundle_duration_value] => 30
    [bundle_duration_type] => day
    [FCA] => 
    [FCA_extra] => 
    [FCL] => 
    [FCL_extra] => 
    [checked] => 0
    [status] => 1
    [show_customer] => 1
    [base_bundle] => 0
)
Array
(
    [companyid] => 35
    [serviceid] => 1814309
    [userid] => 947029
    [bundleid] => 196
    [month] => 5
    [id] => 1272
)
stdClass Object
(
    [id] => 947029
    [uuid] => d8fa1449-aa4f-4739-9503-95adb7f5e0e0
    [mvno_id] => 1556512047
    [companyid] => 35
    [mageboid] => 0
    [agentid] => 5047
    [ContactType2Id] => 7
    [teum_CustomerId] => 1065076813
    [teum_OrderCode] => 6718991634752602128
    [vat] => 
    [kvk] => 
    [email] => szpik9gymu@8p7qnmh0yt.com
    [password] => $2y$10$D3eNVV3VgOncNs8euCNa4OGwzKNT3yZDiPHNNP3Xyd1D5zjGwLqMe
    [pwresetkey] => 
    [companyname] => 
    [initial] => 
    [salutation] => Mr.
    [nationalnr] => 
    [firstname] => Anon_oS3LeNnU9W
    [lastname] => Anon_yaghf49AOV
    [address1] => U6YyEkct4s
    [housenumber] => 65
    [alphabet] => 
    [postcode] => 7560
    [city] => AotJOhEZp3
    [country] => UK
    [language] => english
    [status] => Active
    [phonenumber] => 9501793208
    [paymentmethod] => banktransfer
    [payment_duedays] => 14
    [gender] => male
    [iban] => 
    [iban_holder] => 
    [bic] => 
    [sso_id] => 
    [date_birth] => 
    [date_created] => 2019-07-29
    [date_modified] => 2019-07-29 09:59:06
    [vat_exempt] => 0
    [vat_rate] => 21.00
    [invoice_email] => yes
    [refferal] => 
    [dunning_profile] => 0
    [idcard_number] => 86892455090
    [id_type] => Passport
    [authdata] => 
    [location] => 
    [lat] => 
    [lon] => 
    [google_id] => 
    [facebook_id] => 
    [google_pic] => 
    [facebook_pic] => 
    [notes] => 
    [lastseen] => 
    [agent] => Prepaid Reseller
    [stats] => stdClass Object
        (
            [invoice_paid] => 0
            [invoice_unpaid] => 0
            [active_service] => 1
            [open_ticket] => 0
            [closed_ticket] => 0
            [count_unpaid] => 0
            [count_paid] => 0
        )

)
stdClass Object
(
    [id] => 196
    [agid] => 23
    [companyid] => 35
    [name] => 200MIN-Nigeria
    [name_desc] => 200 minutes Nigeria
    [bundle_type] => option
    [subscriptionid] => 2261
    [bundleid] => 1019000237
    [recurring_taxrate] => 21.0000
    [recurring_subtotal] => 2.4793
    [recurring_tax] => 0.5207
    [recurring_total] => 18.0000
    [ordering] => 101
    [GPInvoiceGroupNbr] => 359
    [pricing_query] => 
    [pricing_query_extra] => 
    [GPcRemark] => 5GB, unlimited national voice andSMS
    [bundle_duration_value] => 30
    [bundle_duration_type] => day
    [FCA] => 
    [FCA_extra] => 
    [FCL] => 
    [FCL_extra] => 
    [checked] => 0
    [status] => 1
    [show_customer] => 1
    [base_bundle] => 0
)
