{
  "name": "Artilium MVNO API",
  "version": "1.3.2",
  "description": "Api Artilium CRM",
  "title": "MvNO CRM Api",
  "url": "https://mijnmobiel.delta.nl/",
  "sampleUrl": false,
  "defaultVersion": "0.0.0",
  "apidoc": "0.3.0",
  "generator": {
    "name": "apidoc",
    "time": "2019-09-09T12:43:33.507Z",
    "url": "http://apidocjs.com",
    "version": "0.17.7"
  }
}
